
t=0: dumping short-format...
cc_cells= (moles/m3)
   [  10   10] Na
   [ 125  125] K
   [  55   55] Cl
   [  80   80] P
Vm =      [ 0.0  0.0]mV

t=5000.095: dumping short-format...
cc_cells= (moles/m3)
   [ 5.9  5.9] Na
   [ 139  139] K
   [  65   65] Cl
   [  80   80] P
Vm =      [-14.1 -14.1]mV

t=10000.22: dumping short-format...
cc_cells= (moles/m3)
   [ 5.9  5.9] Na
   [ 147  147] K
   [  73   73] Cl
   [  80   80] P
Vm =      [-13.7 -13.7]mV

t=15001.905: dumping long-format...
cc_cells= (moles/m3)
   [ 5.9  5.9] Na
   [ 151  151] K
   [  77   77] Cl
   [  80   80] P
Vm =      [-13.3 -13.3]mV
Na ionCh: [ 144  144]*10^-4 mol/m3s
Na pump:  [-144 -144]*10^-4 mol/m3s
K  ionCh: [ -88  -88]*10^-4 mol/m3s
K  pump:  [  96   96]*10^-4 mol/m3s
Cl ionCh: [   8    8]*10^-4 mol/m3s

Totals by ion from all sources:
K  total: [   7    7]*10^-4 mol/m3s
Cl total: [   8    8]*10^-4 mol/m3s

Grand valence-weighted totals from all sources across all ions:
          [  -1   -1]*10^-4 mol/m3s

now the GJs by GJ (if any have non-zero flux):

t=20002.78: dumping short-format...
cc_cells= (moles/m3)
   [ 5.9  5.9] Na
   [ 155  155] K
   [  80   80] Cl
   [  80   80] P
Vm =      [-13.1 -13.1]mV

t=25003.885000000002: dumping short-format...
cc_cells= (moles/m3)
   [ 5.9  5.9] Na
   [ 157  157] K
   [  83   83] Cl
   [  80   80] P
Vm =      [-13.0 -13.0]mV

t=30003.98: dumping short-format...
cc_cells= (moles/m3)
   [ 5.9  5.9] Na
   [ 158  158] K
   [  84   84] Cl
   [  80   80] P
Vm =      [-13.0 -13.0]mV

t=35004.205: dumping long-format...
cc_cells= (moles/m3)
   [ 5.9  5.9] Na
   [ 159  159] K
   [  85   85] Cl
   [  80   80] P
Vm =      [-13.0 -13.0]mV
Na ionCh: [ 143  143]*10^-4 mol/m3s
Na pump:  [-143 -143]*10^-4 mol/m3s
K  ionCh: [ -94  -94]*10^-4 mol/m3s
K  pump:  [  95   95]*10^-4 mol/m3s
Cl ionCh: [   1    1]*10^-4 mol/m3s

Totals by ion from all sources:
K  total: [   1    1]*10^-4 mol/m3s
Cl total: [   1    1]*10^-4 mol/m3s

Grand valence-weighted totals from all sources across all ions:
          [   0    0]*10^-4 mol/m3s

now the GJs by GJ (if any have non-zero flux):

t=40005.605: dumping short-format...
cc_cells= (moles/m3)
   [ 5.9  5.9] Na
   [ 159  159] K
   [  85   85] Cl
   [  80   80] P
Vm =      [-12.8 -12.8]mV

t=45006.56: dumping short-format...
cc_cells= (moles/m3)
   [ 5.9  5.9] Na
   [ 160  160] K
   [  86   86] Cl
   [  80   80] P
Vm =      [-12.8 -12.8]mV

t=50006.880000000005: dumping short-format...
cc_cells= (moles/m3)
   [ 5.9  5.9] Na
   [ 160  160] K
   [  86   86] Cl
   [  80   80] P
Vm =      [-12.8 -12.8]mV

t=55008.78: dumping long-format...
cc_cells= (moles/m3)
   [ 5.9  5.9] Na
   [ 160  160] K
   [  86   86] Cl
   [  80   80] P
Vm =      [-12.8 -12.8]mV
Na ionCh: [ 142  142]*10^-4 mol/m3s
Na pump:  [-143 -143]*10^-4 mol/m3s
K  ionCh: [ -95  -95]*10^-4 mol/m3s
K  pump:  [  95   95]*10^-4 mol/m3s
Cl ionCh: [   1    1]*10^-4 mol/m3s

Totals by ion from all sources:
Cl total: [   1    1]*10^-4 mol/m3s

Grand valence-weighted totals from all sources across all ions:
          [  -1   -1]*10^-4 mol/m3s

now the GJs by GJ (if any have non-zero flux):

t=60015.405: dumping short-format...
cc_cells= (moles/m3)
   [ 5.9  5.9] Na
   [ 160  160] K
   [  86   86] Cl
   [  80   80] P
Vm =      [-12.8 -12.8]mV

t=65021.97: dumping short-format...
cc_cells= (moles/m3)
   [ 5.9  5.9] Na
   [ 160  160] K
   [  86   86] Cl
   [  80   80] P
Vm =      [-12.8 -12.8]mV

t=70024.035: dumping short-format...
cc_cells= (moles/m3)
   [ 5.9  5.9] Na
   [ 161  161] K
   [  86   86] Cl
   [  80   80] P
Vm =      [-12.8 -12.8]mV

t=75027.27: dumping long-format...
cc_cells= (moles/m3)
   [ 5.9  5.9] Na
   [ 161  161] K
   [  86   86] Cl
   [  80   80] P
Vm =      [-12.8 -12.8]mV
Na ionCh: [ 142  142]*10^-4 mol/m3s
Na pump:  [-142 -142]*10^-4 mol/m3s
K  ionCh: [ -95  -95]*10^-4 mol/m3s
K  pump:  [  95   95]*10^-4 mol/m3s

Totals by ion from all sources:

Grand valence-weighted totals from all sources across all ions:
          [  -1   -1]*10^-4 mol/m3s

now the GJs by GJ (if any have non-zero flux):

t=80032.85: dumping short-format...
cc_cells= (moles/m3)
   [ 5.9  5.9] Na
   [ 161  161] K
   [  86   86] Cl
   [  80   80] P
Vm =      [-12.8 -12.8]mV

t=85041.455: dumping short-format...
cc_cells= (moles/m3)
   [ 5.9  5.9] Na
   [ 161  161] K
   [  86   86] Cl
   [  80   80] P
Vm =      [-12.8 -12.8]mV

t=90041.6: dumping short-format...
cc_cells= (moles/m3)
   [ 5.9  5.9] Na
   [ 161  161] K
   [  86   86] Cl
   [  80   80] P
Vm =      [-12.9 -12.9]mV

t=95051.55: dumping long-format...
cc_cells= (moles/m3)
   [ 5.9  5.9] Na
   [ 161  161] K
   [  86   86] Cl
   [  80   80] P
Vm =      [-12.8 -12.8]mV
Na ionCh: [ 142  142]*10^-4 mol/m3s
Na pump:  [-142 -142]*10^-4 mol/m3s
K  ionCh: [ -95  -95]*10^-4 mol/m3s
K  pump:  [  95   95]*10^-4 mol/m3s

Totals by ion from all sources:

Grand valence-weighted totals from all sources across all ions:
          [  -1   -1]*10^-4 mol/m3s

now the GJs by GJ (if any have non-zero flux):

t=100058.05: dumping short-format...
cc_cells= (moles/m3)
   [ 5.9  5.9] Na
   [ 161  161] K
   [  86   86] Cl
   [  80   80] P
Vm =      [-12.8 -12.8]mV

t=105062.015: dumping short-format...
cc_cells= (moles/m3)
   [ 5.9  5.9] Na
   [ 161  161] K
   [  86   86] Cl
   [  80   80] P
Vm =      [-12.8 -12.8]mV

t=110384.96: dumping short-format...
cc_cells= (moles/m3)
   [ 5.9  5.9] Na
   [ 161  161] K
   [  87   87] Cl
   [  80   80] P
Vm =      [-13.0 -13.0]mV

t=115552.86: dumping long-format...
cc_cells= (moles/m3)
   [ 5.9  5.9] Na
   [ 161  161] K
   [  87   87] Cl
   [  80   80] P
Vm =      [-13.0 -13.0]mV
Na ionCh: [ 143  143]*10^-4 mol/m3s
Na pump:  [-143 -143]*10^-4 mol/m3s
K  ionCh: [ -95  -95]*10^-4 mol/m3s
K  pump:  [  95   95]*10^-4 mol/m3s

Totals by ion from all sources:

Grand valence-weighted totals from all sources across all ions:
          [   1    1]*10^-4 mol/m3s

now the GJs by GJ (if any have non-zero flux):

t=120946.31: dumping short-format...
cc_cells= (moles/m3)
   [ 5.9  5.9] Na
   [ 161  161] K
   [  87   87] Cl
   [  80   80] P
Vm =      [-12.8 -12.8]mV

t=126455.405: dumping short-format...
cc_cells= (moles/m3)
   [ 5.9  5.9] Na
   [ 161  161] K
   [  87   87] Cl
   [  80   80] P
Vm =      [-13.0 -13.0]mV

t=131860.98500000002: dumping short-format...
cc_cells= (moles/m3)
   [ 5.9  5.9] Na
   [ 161  161] K
   [  87   87] Cl
   [  80   80] P
Vm =      [-12.8 -12.8]mV

t=137391.325: dumping long-format...
cc_cells= (moles/m3)
   [ 5.9  5.9] Na
   [ 161  161] K
   [  87   87] Cl
   [  80   80] P
Vm =      [-13.0 -13.0]mV
Na ionCh: [ 143  143]*10^-4 mol/m3s
Na pump:  [-143 -143]*10^-4 mol/m3s
K  ionCh: [ -95  -95]*10^-4 mol/m3s
K  pump:  [  95   95]*10^-4 mol/m3s

Totals by ion from all sources:

Grand valence-weighted totals from all sources across all ions:
          [   1    1]*10^-4 mol/m3s

now the GJs by GJ (if any have non-zero flux):

t=142810.81: dumping short-format...
cc_cells= (moles/m3)
   [ 5.9  5.9] Na
   [ 161  161] K
   [  87   87] Cl
   [  80   80] P
Vm =      [-12.8 -12.8]mV

t=148352.48500000002: dumping short-format...
cc_cells= (moles/m3)
   [ 5.9  5.9] Na
   [ 161  161] K
   [  87   87] Cl
   [  80   80] P
Vm =      [-13.0 -13.0]mV

t=153772.23: dumping short-format...
cc_cells= (moles/m3)
   [ 5.9  5.9] Na
   [ 161  161] K
   [  87   87] Cl
   [  80   80] P
Vm =      [-12.8 -12.8]mV

t=159313.42: dumping long-format...
cc_cells= (moles/m3)
   [ 5.9  5.9] Na
   [ 161  161] K
   [  87   87] Cl
   [  80   80] P
Vm =      [-13.0 -13.0]mV
Na ionCh: [ 143  143]*10^-4 mol/m3s
Na pump:  [-143 -143]*10^-4 mol/m3s
K  ionCh: [ -95  -95]*10^-4 mol/m3s
K  pump:  [  95   95]*10^-4 mol/m3s

Totals by ion from all sources:

Grand valence-weighted totals from all sources across all ions:
          [   1    1]*10^-4 mol/m3s

now the GJs by GJ (if any have non-zero flux):

t=164732.775: dumping short-format...
cc_cells= (moles/m3)
   [ 5.9  5.9] Na
   [ 161  161] K
   [  87   87] Cl
   [  80   80] P
Vm =      [-12.8 -12.8]mV

t=170273.67500000002: dumping short-format...
cc_cells= (moles/m3)
   [ 5.9  5.9] Na
   [ 161  161] K
   [  87   87] Cl
   [  80   80] P
Vm =      [-13.0 -13.0]mV

t=175692.905: dumping short-format...
cc_cells= (moles/m3)
   [ 5.9  5.9] Na
   [ 161  161] K
   [  87   87] Cl
   [  80   80] P
Vm =      [-12.8 -12.8]mV

t=181233.88: dumping long-format...
cc_cells= (moles/m3)
   [ 5.9  5.9] Na
   [ 161  161] K
   [  87   87] Cl
   [  80   80] P
Vm =      [-13.0 -13.0]mV
Na ionCh: [ 143  143]*10^-4 mol/m3s
Na pump:  [-143 -143]*10^-4 mol/m3s
K  ionCh: [ -95  -95]*10^-4 mol/m3s
K  pump:  [  95   95]*10^-4 mol/m3s

Totals by ion from all sources:

Grand valence-weighted totals from all sources across all ions:
          [   1    1]*10^-4 mol/m3s

now the GJs by GJ (if any have non-zero flux):

t=186653.01: dumping short-format...
cc_cells= (moles/m3)
   [ 5.9  5.9] Na
   [ 161  161] K
   [  87   87] Cl
   [  80   80] P
Vm =      [-12.8 -12.8]mV

t=192193.95: dumping short-format...
cc_cells= (moles/m3)
   [ 5.9  5.9] Na
   [ 161  161] K
   [  87   87] Cl
   [  80   80] P
Vm =      [-13.0 -13.0]mV

t=197613.09: dumping short-format...
cc_cells= (moles/m3)
   [ 5.9  5.9] Na
   [ 161  161] K
   [  87   87] Cl
   [  80   80] P
Vm =      [-12.8 -12.8]mV
Breaking 0.1 into 0.045750000000000006 and -0.05425

t=0: dumping short-format...
cc_cells= (moles/m3)
   [ 5.9  5.9] Na
   [ 161  161] K
   [  87   87] Cl
   [  80   80] P
Vm =      [-13.0 -13.0]mV

t=10: dumping long-format...
cc_cells= (moles/m3)
   [ 6.1  6.0] Na
   [ 161  160] K
   [  87   86] Cl
   [  80   80] P
Vm =      [66.4 -58.0]mV
Na ionCh: [ 641  472]*10^-10 mol/m2s
Na pump:  [-266 -252]*10^-10 mol/m2s
Na GJdrif:[  -1    1]*10^-10 mol/m2s
K  ionCh: [-290 -639]*10^-10 mol/m2s
K  pump:  [ 177  168]*10^-10 mol/m2s
K  GJdrif:[ -13   13]*10^-10 mol/m2s
Cl ionCh: [ 240 -230]*10^-10 mol/m2s
Cl GJdrif:[   7   -7]*10^-10 mol/m2s

Totals by ion from all sources:
Na total: [ 375  220]*10^-10 mol/m2s
K  total: [-126 -457]*10^-10 mol/m2s
Cl total: [ 247 -237]*10^-10 mol/m2s

Grand valence-weighted totals from all sources across all ions:
          [   2   -0]*10^-10 mol/m2s

now the GJs by GJ (if any have non-zero flux):
Na GJ drif: [  -1]*10^-10 mol/m2s
K  GJ drif: [ -13]*10^-10 mol/m2s
Cl GJ drif: [   7]*10^-10 mol/m2s
Goal deltaV=-100.0mV -> final Vmem=[66 -58]mV, delta=-124mV
Final pre-gate GJ diff=[[-4e-13 -7e-13 -9.6e-13]], drift=[[-9.5e-11 -2.5e-09 1.3e-09]], GJ_gate=[0.54], net=-2.12e-09
Breaking 0.095 into 0.043250000000000004 and -0.05175

t=0: dumping short-format...
cc_cells= (moles/m3)
   [ 6.1  6.0] Na
   [ 161  160] K
   [  87   86] Cl
   [  80   80] P
Vm =      [66.4 -58.0]mV

t=10: dumping long-format...
cc_cells= (moles/m3)
   [ 6.4  6.1] Na
   [ 160  160] K
   [  87   86] Cl
   [  80   80] P
Vm =      [65.8 -54.3]mV
Na ionCh: [ 644  450]*10^-10 mol/m2s
Na pump:  [-292 -266]*10^-10 mol/m2s
Na GJdrif:[  -1    1]*10^-10 mol/m2s
K  ionCh: [-287 -594]*10^-10 mol/m2s
K  pump:  [ 194  177]*10^-10 mol/m2s
K  GJdrif:[ -13   13]*10^-10 mol/m2s
Cl ionCh: [ 238 -212]*10^-10 mol/m2s
Cl GJdrif:[   7   -7]*10^-10 mol/m2s

Totals by ion from all sources:
Na total: [ 352  185]*10^-10 mol/m2s
K  total: [-106 -404]*10^-10 mol/m2s
Cl total: [ 245 -219]*10^-10 mol/m2s

Grand valence-weighted totals from all sources across all ions:
          [   1   -0]*10^-10 mol/m2s

now the GJs by GJ (if any have non-zero flux):
Na GJ drif: [  -1]*10^-10 mol/m2s
K  GJ drif: [ -13]*10^-10 mol/m2s
Cl GJ drif: [   7]*10^-10 mol/m2s
Goal deltaV=-95.0mV -> final Vmem=[66 -54]mV, delta=-120mV
Final pre-gate GJ diff=[[-7.4e-13 -1.3e-12 -1.9e-12]], drift=[[-9.5e-11 -2.4e-09 1.3e-09]], GJ_gate=[0.54], net=-2.05e-09
Breaking 0.09 into 0.04075 and -0.049249999999999995

t=0: dumping short-format...
cc_cells= (moles/m3)
   [ 6.4  6.1] Na
   [ 160  160] K
   [  87   86] Cl
   [  80   80] P
Vm =      [65.8 -54.3]mV

t=10: dumping long-format...
cc_cells= (moles/m3)
   [ 6.6  6.2] Na
   [ 160  160] K
   [  87   86] Cl
   [  80   80] P
Vm =      [63.8 -50.5]mV
Na ionCh: [ 704  428]*10^-10 mol/m2s
Na pump:  [-321 -277]*10^-10 mol/m2s
Na GJdrif:[  -1    1]*10^-10 mol/m2s
K  ionCh: [-316 -548]*10^-10 mol/m2s
K  pump:  [ 214  184]*10^-10 mol/m2s
K  GJdrif:[ -12   12]*10^-10 mol/m2s
Cl ionCh: [ 260 -193]*10^-10 mol/m2s
Cl GJdrif:[   7   -7]*10^-10 mol/m2s

Totals by ion from all sources:
Na total: [ 383  152]*10^-10 mol/m2s
K  total: [-114 -352]*10^-10 mol/m2s
Cl total: [ 267 -200]*10^-10 mol/m2s

Grand valence-weighted totals from all sources across all ions:
          [   2   -0]*10^-10 mol/m2s

now the GJs by GJ (if any have non-zero flux):
Na GJ drif: [  -1]*10^-10 mol/m2s
K  GJ drif: [ -12]*10^-10 mol/m2s
Cl GJ drif: [   7]*10^-10 mol/m2s
Goal deltaV=-90.0mV -> final Vmem=[64 -51]mV, delta=-114mV
Final pre-gate GJ diff=[[-1.2e-12 -1.7e-12 -2.8e-12]], drift=[[-9.4e-11 -2.3e-09 1.2e-09]], GJ_gate=[0.54], net=-1.95e-09
Breaking 0.08499999999999999 into 0.03825 and -0.04674999999999999

t=0: dumping short-format...
cc_cells= (moles/m3)
   [ 6.6  6.2] Na
   [ 160  160] K
   [  87   86] Cl
   [  80   80] P
Vm =      [63.8 -50.5]mV

t=10: dumping long-format...
cc_cells= (moles/m3)
   [ 6.9  6.3] Na
   [ 160  160] K
   [  87   86] Cl
   [  80   80] P
Vm =      [60.7 -48.3]mV
Na ionCh: [ 815  415]*10^-10 mol/m2s
Na pump:  [-357 -286]*10^-10 mol/m2s
Na GJdrif:[  -1    1]*10^-10 mol/m2s
K  ionCh: [-371 -520]*10^-10 mol/m2s
K  pump:  [ 238  191]*10^-10 mol/m2s
K  GJdrif:[ -12   12]*10^-10 mol/m2s
Cl ionCh: [ 304 -182]*10^-10 mol/m2s
Cl GJdrif:[   6   -6]*10^-10 mol/m2s

Totals by ion from all sources:
Na total: [ 458  130]*10^-10 mol/m2s
K  total: [-145 -318]*10^-10 mol/m2s
Cl total: [ 311 -188]*10^-10 mol/m2s

Grand valence-weighted totals from all sources across all ions:
          [   2   -0]*10^-10 mol/m2s

now the GJs by GJ (if any have non-zero flux):
Na GJ drif: [  -1]*10^-10 mol/m2s
K  GJ drif: [ -12]*10^-10 mol/m2s
Cl GJ drif: [   6]*10^-10 mol/m2s
Goal deltaV=-85.0mV -> final Vmem=[61 -48]mV, delta=-109mV
Final pre-gate GJ diff=[[-1.9e-12 -2.1e-12 -3.9e-12]], drift=[[-9.4e-11 -2.2e-09 1.2e-09]], GJ_gate=[0.54], net=-1.86e-09
Breaking 0.07999999999999999 into 0.03575 and -0.04424999999999999

t=0: dumping short-format...
cc_cells= (moles/m3)
   [ 6.9  6.3] Na
   [ 160  160] K
   [  87   86] Cl
   [  80   80] P
Vm =      [60.7 -48.3]mV

t=10: dumping long-format...
cc_cells= (moles/m3)
   [ 7.2  6.4] Na
   [ 160  159] K
   [  87   86] Cl
   [  80   80] P
Vm =      [58.0 -45.7]mV
Na ionCh: [ 916  401]*10^-10 mol/m2s
Na pump:  [-400 -294]*10^-10 mol/m2s
Na GJdrif:[  -1    1]*10^-10 mol/m2s
K  ionCh: [-424 -489]*10^-10 mol/m2s
K  pump:  [ 267  196]*10^-10 mol/m2s
K  GJdrif:[ -11   11]*10^-10 mol/m2s
Cl ionCh: [ 345 -169]*10^-10 mol/m2s
Cl GJdrif:[   6   -6]*10^-10 mol/m2s

Totals by ion from all sources:
Na total: [ 515  107]*10^-10 mol/m2s
K  total: [-168 -282]*10^-10 mol/m2s
Cl total: [ 351 -175]*10^-10 mol/m2s

Grand valence-weighted totals from all sources across all ions:
          [  -4   -0]*10^-10 mol/m2s

now the GJs by GJ (if any have non-zero flux):
Na GJ drif: [  -1]*10^-10 mol/m2s
K  GJ drif: [ -11]*10^-10 mol/m2s
Cl GJ drif: [   6]*10^-10 mol/m2s
Goal deltaV=-80.0mV -> final Vmem=[58 -46]mV, delta=-104mV
Final pre-gate GJ diff=[[-2.7e-12 -2.3e-12 -4.9e-12]], drift=[[-9.3e-11 -2.1e-09 1.1e-09]], GJ_gate=[0.54], net=-1.77e-09
Breaking 0.07499999999999998 into 0.033249999999999995 and -0.04174999999999999

t=0: dumping short-format...
cc_cells= (moles/m3)
   [ 7.2  6.4] Na
   [ 160  159] K
   [  87   86] Cl
   [  80   80] P
Vm =      [58.0 -45.7]mV

t=10: dumping long-format...
cc_cells= (moles/m3)
   [ 7.6  6.4] Na
   [ 160  159] K
   [  88   86] Cl
   [  80   80] P
Vm =      [55.3 -42.7]mV
Na ionCh: [ 102   38]*10^-9 mol/m2s
Na pump:  [ -45  -30]*10^-9 mol/m2s
K  ionCh: [ -47  -45]*10^-9 mol/m2s
K  pump:  [  30   20]*10^-9 mol/m2s
K  GJdrif:[  -1    1]*10^-9 mol/m2s
Cl ionCh: [  38  -15]*10^-9 mol/m2s
Cl GJdrif:[   1   -1]*10^-9 mol/m2s

Totals by ion from all sources:
Na total: [  57    8]*10^-9 mol/m2s
K  total: [ -18  -24]*10^-9 mol/m2s
Cl total: [  39  -16]*10^-9 mol/m2s

Grand valence-weighted totals from all sources across all ions:
          [  -0   -0]*10^-9 mol/m2s

now the GJs by GJ (if any have non-zero flux):
K  GJ drif: [  -1]*10^-9 mol/m2s
Cl GJ drif: [   1]*10^-9 mol/m2s
Goal deltaV=-75.0mV -> final Vmem=[55 -43]mV, delta=-98mV
Final pre-gate GJ diff=[[-3.8e-12 -2.4e-12 -6e-12]], drift=[[-9.3e-11 -2e-09 1e-09]], GJ_gate=[0.54], net=-1.67e-09
Breaking 0.06999999999999998 into 0.030749999999999993 and -0.039249999999999986

t=0: dumping short-format...
cc_cells= (moles/m3)
   [ 7.6  6.4] Na
   [ 160  159] K
   [  88   86] Cl
   [  80   80] P
Vm =      [55.3 -42.7]mV

t=10: dumping long-format...
cc_cells= (moles/m3)
   [ 7.9  6.5] Na
   [ 160  159] K
   [  88   86] Cl
   [  80   80] P
Vm =      [52.3 -39.1]mV
Na ionCh: [ 106   36]*10^-9 mol/m2s
Na pump:  [ -50  -31]*10^-9 mol/m2s
K  ionCh: [ -48  -41]*10^-9 mol/m2s
K  pump:  [  33   20]*10^-9 mol/m2s
K  GJdrif:[  -1    1]*10^-9 mol/m2s
Cl ionCh: [  39  -14]*10^-9 mol/m2s
Cl GJdrif:[   1   -1]*10^-9 mol/m2s

Totals by ion from all sources:
Na total: [  56    6]*10^-9 mol/m2s
K  total: [ -16  -20]*10^-9 mol/m2s
Cl total: [  39  -14]*10^-9 mol/m2s

Grand valence-weighted totals from all sources across all ions:
          [   0   -0]*10^-9 mol/m2s

now the GJs by GJ (if any have non-zero flux):
K  GJ drif: [  -1]*10^-9 mol/m2s
Cl GJ drif: [   1]*10^-9 mol/m2s
Goal deltaV=-70.0mV -> final Vmem=[52 -39]mV, delta=-91mV
Final pre-gate GJ diff=[[-4.8e-12 -2.4e-12 -7.1e-12]], drift=[[-9e-11 -1.8e-09 9.8e-10]], GJ_gate=[0.54], net=-1.56e-09
Breaking 0.06499999999999997 into 0.02824999999999999 and -0.036749999999999984

t=0: dumping short-format...
cc_cells= (moles/m3)
   [ 7.9  6.5] Na
   [ 160  159] K
   [  88   86] Cl
   [  80   80] P
Vm =      [52.3 -39.1]mV

t=10: dumping long-format...
cc_cells= (moles/m3)
   [ 8.2  6.5] Na
   [ 160  159] K
   [  88   86] Cl
   [  80   80] P
Vm =      [48.8 -36.6]mV
Na ionCh: [ 102   35]*10^-9 mol/m2s
Na pump:  [ -55  -31]*10^-9 mol/m2s
K  ionCh: [ -46  -39]*10^-9 mol/m2s
K  pump:  [  36   21]*10^-9 mol/m2s
K  GJdrif:[  -1    1]*10^-9 mol/m2s
Cl ionCh: [  37  -12]*10^-9 mol/m2s

Totals by ion from all sources:
Na total: [  47    4]*10^-9 mol/m2s
K  total: [ -11  -17]*10^-9 mol/m2s
Cl total: [  37  -13]*10^-9 mol/m2s

Grand valence-weighted totals from all sources across all ions:
          [  -0   -0]*10^-9 mol/m2s

now the GJs by GJ (if any have non-zero flux):
K  GJ drif: [  -1]*10^-9 mol/m2s
Goal deltaV=-65.0mV -> final Vmem=[49 -37]mV, delta=-85mV
Final pre-gate GJ diff=[[-5.7e-12 -2.5e-12 -8.1e-12]], drift=[[-8.7e-11 -1.7e-09 9.1e-10]], GJ_gate=[0.54], net=-1.46e-09
Breaking 0.05999999999999997 into 0.025749999999999988 and -0.03424999999999998

t=0: dumping short-format...
cc_cells= (moles/m3)
   [ 8.2  6.5] Na
   [ 160  159] K
   [  88   86] Cl
   [  80   80] P
Vm =      [48.8 -36.6]mV

t=10: dumping long-format...
cc_cells= (moles/m3)
   [ 8.5  6.5] Na
   [ 160  159] K
   [  88   86] Cl
   [  80   80] P
Vm =      [44.3 -33.9]mV
Na ionCh: [ 975  337]*10^-10 mol/m2s
Na pump:  [-583 -311]*10^-10 mol/m2s
K  ionCh: [-434 -356]*10^-10 mol/m2s
K  pump:  [ 389  207]*10^-10 mol/m2s
K  GJdrif:[  -8    8]*10^-10 mol/m2s
Cl ionCh: [ 336 -109]*10^-10 mol/m2s
Cl GJdrif:[   5   -5]*10^-10 mol/m2s

Totals by ion from all sources:
Na total: [ 392   27]*10^-10 mol/m2s
K  total: [ -54 -140]*10^-10 mol/m2s
Cl total: [ 341 -113]*10^-10 mol/m2s

Grand valence-weighted totals from all sources across all ions:
          [  -3   -0]*10^-10 mol/m2s

now the GJs by GJ (if any have non-zero flux):
K  GJ drif: [  -8]*10^-10 mol/m2s
Cl GJ drif: [   5]*10^-10 mol/m2s
Goal deltaV=-60.0mV -> final Vmem=[44 -34]mV, delta=-78mV
Final pre-gate GJ diff=[[-6.5e-12 -2.7e-12 -9e-12]], drift=[[-8.3e-11 -1.6e-09 8.4e-10]], GJ_gate=[0.54], net=-1.34e-09
Breaking 0.054999999999999966 into 0.012749999999999984 and -0.04224999999999998

t=0: dumping short-format...
cc_cells= (moles/m3)
   [ 8.5  6.5] Na
   [ 160  159] K
   [  88   86] Cl
   [  80   80] P
Vm =      [44.3 -33.9]mV

t=10: dumping long-format...
cc_cells= (moles/m3)
   [ 8.5  6.6] Na
   [ 160  159] K
   [  88   85] Cl
   [  80   80] P
Vm =      [17.3 -43.8]mV
Na ionCh: [ 661  390]*10^-10 mol/m2s
Na pump:  [-589 -316]*10^-10 mol/m2s
K  ionCh: [-285 -453]*10^-10 mol/m2s
K  pump:  [ 393  211]*10^-10 mol/m2s
K  GJdrif:[  -7    7]*10^-10 mol/m2s
Cl ionCh: [ 170 -158]*10^-10 mol/m2s
Cl GJdrif:[   4   -4]*10^-10 mol/m2s

Totals by ion from all sources:
Na total: [  71   74]*10^-10 mol/m2s
K  total: [ 101 -236]*10^-10 mol/m2s
Cl total: [ 173 -162]*10^-10 mol/m2s

Grand valence-weighted totals from all sources across all ions:
          [  -1    0]*10^-10 mol/m2s

now the GJs by GJ (if any have non-zero flux):
K  GJ drif: [  -7]*10^-10 mol/m2s
Cl GJ drif: [   4]*10^-10 mol/m2s
Goal deltaV=-55.0mV -> final Vmem=[17 -44]mV, delta=-61mV
Final pre-gate GJ diff=[[-6.4e-12 -3.3e-12 -9.7e-12]], drift=[[-6.5e-11 -1.2e-09 6.5e-10]], GJ_gate=[0.54], net=-1.04e-09
Breaking 0.04999999999999996 into 0.010249999999999981 and -0.03974999999999998

t=0: dumping short-format...
cc_cells= (moles/m3)
   [ 8.5  6.6] Na
   [ 160  159] K
   [  88   85] Cl
   [  80   80] P
Vm =      [17.3 -43.8]mV

t=10: dumping long-format...
cc_cells= (moles/m3)
   [ 8.5  6.6] Na
   [ 160  159] K
   [  88   85] Cl
   [  80   80] P
Vm =      [14.2 -40.4]mV
Na ionCh: [ 630  371]*10^-10 mol/m2s
Na pump:  [-593 -320]*10^-10 mol/m2s
K  ionCh: [-270 -415]*10^-10 mol/m2s
K  pump:  [ 395  214]*10^-10 mol/m2s
K  GJdrif:[  -6    6]*10^-10 mol/m2s
Cl ionCh: [ 152 -141]*10^-10 mol/m2s
Cl GJdrif:[   3   -3]*10^-10 mol/m2s

Totals by ion from all sources:
Na total: [  36   51]*10^-10 mol/m2s
K  total: [ 119 -195]*10^-10 mol/m2s
Cl total: [ 155 -144]*10^-10 mol/m2s

Grand valence-weighted totals from all sources across all ions:
          [   1   -0]*10^-10 mol/m2s

now the GJs by GJ (if any have non-zero flux):
K  GJ drif: [  -6]*10^-10 mol/m2s
Cl GJ drif: [   3]*10^-10 mol/m2s
Goal deltaV=-50.0mV -> final Vmem=[14 -40]mV, delta=-55mV
Final pre-gate GJ diff=[[-6.4e-12 -4e-12 -1e-11]], drift=[[-5.8e-11 -1.1e-09 5.8e-10]], GJ_gate=[0.54], net=-9.27e-10
Breaking 0.04499999999999996 into 0.007749999999999979 and -0.03724999999999998

t=0: dumping short-format...
cc_cells= (moles/m3)
   [ 8.5  6.6] Na
   [ 160  159] K
   [  88   85] Cl
   [  80   80] P
Vm =      [14.2 -40.4]mV

t=10: dumping long-format...
cc_cells= (moles/m3)
   [ 8.5  6.6] Na
   [ 160  159] K
   [  89   85] Cl
   [  80   80] P
Vm =      [12.7 -37.7]mV
Na ionCh: [ 611  357]*10^-10 mol/m2s
Na pump:  [-594 -323]*10^-10 mol/m2s
K  ionCh: [-263 -383]*10^-10 mol/m2s
K  pump:  [ 396  215]*10^-10 mol/m2s
K  GJdrif:[  -5    5]*10^-10 mol/m2s
Cl ionCh: [ 142 -127]*10^-10 mol/m2s
Cl GJdrif:[   3   -3]*10^-10 mol/m2s

Totals by ion from all sources:
Na total: [  16   34]*10^-10 mol/m2s
K  total: [ 128 -162]*10^-10 mol/m2s
Cl total: [ 145 -130]*10^-10 mol/m2s

Grand valence-weighted totals from all sources across all ions:
          [  -1    2]*10^-10 mol/m2s

now the GJs by GJ (if any have non-zero flux):
K  GJ drif: [  -5]*10^-10 mol/m2s
Cl GJ drif: [   3]*10^-10 mol/m2s
Goal deltaV=-45.0mV -> final Vmem=[13 -38]mV, delta=-50mV
Final pre-gate GJ diff=[[-6.4e-12 -4.6e-12 -1.1e-11]], drift=[[-5.4e-11 -1e-09 5.4e-10]], GJ_gate=[0.54], net=-8.54e-10
Breaking 0.03999999999999995 into 0.005249999999999977 and -0.034749999999999975

t=0: dumping short-format...
cc_cells= (moles/m3)
   [ 8.5  6.6] Na
   [ 160  159] K
   [  89   85] Cl
   [  80   80] P
Vm =      [12.7 -37.7]mV

t=10: dumping long-format...
cc_cells= (moles/m3)
   [ 8.5  6.6] Na
   [ 160  159] K
   [  89   85] Cl
   [  80   80] P
Vm =      [10.9 -35.0]mV
Na ionCh: [ 594  343]*10^-10 mol/m2s
Na pump:  [-594 -325]*10^-10 mol/m2s
K  ionCh: [-254 -356]*10^-10 mol/m2s
K  pump:  [ 396  217]*10^-10 mol/m2s
K  GJdrif:[  -5    5]*10^-10 mol/m2s
Cl ionCh: [ 131 -114]*10^-10 mol/m2s
Cl GJdrif:[   3   -3]*10^-10 mol/m2s

Totals by ion from all sources:
Na total: [  -1   18]*10^-10 mol/m2s
K  total: [ 137 -134]*10^-10 mol/m2s
Cl total: [ 134 -116]*10^-10 mol/m2s

Grand valence-weighted totals from all sources across all ions:
          [   2   -0]*10^-10 mol/m2s

now the GJs by GJ (if any have non-zero flux):
K  GJ drif: [  -5]*10^-10 mol/m2s
Cl GJ drif: [   3]*10^-10 mol/m2s
Goal deltaV=-40.0mV -> final Vmem=[11 -35]mV, delta=-46mV
Final pre-gate GJ diff=[[-6.3e-12 -5.2e-12 -1.1e-11]], drift=[[-4.9e-11 -9.2e-10 4.9e-10]], GJ_gate=[0.53], net=-7.76e-10
Breaking 0.03499999999999995 into 0.0027499999999999747 and -0.03224999999999997

t=0: dumping short-format...
cc_cells= (moles/m3)
   [ 8.5  6.6] Na
   [ 160  159] K
   [  89   85] Cl
   [  80   80] P
Vm =      [10.9 -35.0]mV

t=10: dumping long-format...
cc_cells= (moles/m3)
   [ 8.5  6.6] Na
   [ 160  159] K
   [  89   85] Cl
   [  80   80] P
Vm =      [ 7.4 -32.1]mV
Na ionCh: [ 555  327]*10^-10 mol/m2s
Na pump:  [-590 -325]*10^-10 mol/m2s
K  ionCh: [-239 -324]*10^-10 mol/m2s
K  pump:  [ 394  217]*10^-10 mol/m2s
K  GJdrif:[  -4    4]*10^-10 mol/m2s
Cl ionCh: [ 111  -98]*10^-10 mol/m2s
Cl GJdrif:[   2   -2]*10^-10 mol/m2s

Totals by ion from all sources:
Na total: [ -36    3]*10^-10 mol/m2s
K  total: [ 151 -103]*10^-10 mol/m2s
Cl total: [ 113 -101]*10^-10 mol/m2s

Grand valence-weighted totals from all sources across all ions:
          [   2   -0]*10^-10 mol/m2s

now the GJs by GJ (if any have non-zero flux):
K  GJ drif: [  -4]*10^-10 mol/m2s
Cl GJ drif: [   2]*10^-10 mol/m2s
Goal deltaV=-35.0mV -> final Vmem=[7 -32]mV, delta=-39mV
Final pre-gate GJ diff=[[-6.2e-12 -5.7e-12 -1.2e-11]], drift=[[-4.2e-11 -7.9e-10 4.2e-10]], GJ_gate=[0.53], net=-6.65e-10
Breaking 0.029999999999999943 into 0.00024999999999997247 and -0.02974999999999997

t=0: dumping short-format...
cc_cells= (moles/m3)
   [ 8.5  6.6] Na
   [ 160  159] K
   [  89   85] Cl
   [  80   80] P
Vm =      [ 7.4 -32.1]mV

t=10: dumping long-format...
cc_cells= (moles/m3)
   [ 8.4  6.6] Na
   [ 160  158] K
   [  89   85] Cl
   [  80   80] P
Vm =      [ 1.3 -29.6]mV
Na ionCh: [ 487  315]*10^-10 mol/m2s
Na pump:  [-580 -324]*10^-10 mol/m2s
K  ionCh: [-212 -298]*10^-10 mol/m2s
K  pump:  [ 387  216]*10^-10 mol/m2s
K  GJdrif:[  -3    3]*10^-10 mol/m2s
Cl ionCh: [  76  -86]*10^-10 mol/m2s
Cl GJdrif:[   2   -2]*10^-10 mol/m2s

Totals by ion from all sources:
Na total: [ -93   -9]*10^-10 mol/m2s
K  total: [ 171  -79]*10^-10 mol/m2s
Cl total: [  77  -87]*10^-10 mol/m2s

Grand valence-weighted totals from all sources across all ions:
          [   1   -1]*10^-10 mol/m2s

now the GJs by GJ (if any have non-zero flux):
K  GJ drif: [  -3]*10^-10 mol/m2s
Cl GJ drif: [   2]*10^-10 mol/m2s
Goal deltaV=-30.0mV -> final Vmem=[1 -30]mV, delta=-31mV
Final pre-gate GJ diff=[[-6e-12 -6.3e-12 -1.2e-11]], drift=[[-3.3e-11 -6.2e-10 3.3e-10]], GJ_gate=[0.53], net=-5.17e-10
Breaking 0.02499999999999994 into -0.0022500000000000298 and -0.02724999999999997

t=0: dumping short-format...
cc_cells= (moles/m3)
   [ 8.4  6.6] Na
   [ 160  158] K
   [  89   85] Cl
   [  80   80] P
Vm =      [ 1.3 -29.6]mV

t=10: dumping long-format...
cc_cells= (moles/m3)
   [ 8.3  6.6] Na
   [ 160  158] K
   [  89   85] Cl
   [  80   80] P
Vm =      [-6.1 -27.9]mV
Na ionCh: [ 408  307]*10^-10 mol/m2s
Na pump:  [-564 -323]*10^-10 mol/m2s
K  ionCh: [-183 -279]*10^-10 mol/m2s
K  pump:  [ 376  215]*10^-10 mol/m2s
K  GJdrif:[  -2    2]*10^-10 mol/m2s
Cl ionCh: [  34  -77]*10^-10 mol/m2s
Cl GJdrif:[   1   -1]*10^-10 mol/m2s

Totals by ion from all sources:
Na total: [-156  -16]*10^-10 mol/m2s
K  total: [ 191  -61]*10^-10 mol/m2s
Cl total: [  35  -78]*10^-10 mol/m2s

Grand valence-weighted totals from all sources across all ions:
          [  -1    0]*10^-10 mol/m2s

now the GJs by GJ (if any have non-zero flux):
K  GJ drif: [  -2]*10^-10 mol/m2s
Cl GJ drif: [   1]*10^-10 mol/m2s
Goal deltaV=-25.0mV -> final Vmem=[-6 -28]mV, delta=-22mV
Final pre-gate GJ diff=[[-5.7e-12 -6.8e-12 -1.3e-11]], drift=[[-2.3e-11 -4.4e-10 2.3e-10]], GJ_gate=[0.52], net=-3.63e-10
Breaking 0.019999999999999934 into -0.004750000000000032 and -0.024749999999999966

t=0: dumping short-format...
cc_cells= (moles/m3)
   [ 8.3  6.6] Na
   [ 160  158] K
   [  89   85] Cl
   [  80   80] P
Vm =      [-6.1 -27.9]mV

t=10: dumping long-format...
cc_cells= (moles/m3)
   [ 8.2  6.6] Na
   [ 161  158] K
   [  89   85] Cl
   [  80   80] P
Vm =      [-8.4 -25.9]mV
Na ionCh: [ 382  297]*10^-10 mol/m2s
Na pump:  [-547 -321]*10^-10 mol/m2s
K  ionCh: [-175 -260]*10^-10 mol/m2s
K  pump:  [ 365  214]*10^-10 mol/m2s
K  GJdrif:[  -2    2]*10^-10 mol/m2s
Cl ionCh: [  21  -66]*10^-10 mol/m2s
Cl GJdrif:[   1   -1]*10^-10 mol/m2s

Totals by ion from all sources:
Na total: [-165  -24]*10^-10 mol/m2s
K  total: [ 188  -44]*10^-10 mol/m2s
Cl total: [  22  -67]*10^-10 mol/m2s

Grand valence-weighted totals from all sources across all ions:
          [   1   -1]*10^-10 mol/m2s

now the GJs by GJ (if any have non-zero flux):
K  GJ drif: [  -2]*10^-10 mol/m2s
Cl GJ drif: [   1]*10^-10 mol/m2s
Goal deltaV=-20.0mV -> final Vmem=[-8 -26]mV, delta=-18mV
Final pre-gate GJ diff=[[-5.4e-12 -7.3e-12 -1.3e-11]], drift=[[-1.8e-11 -3.5e-10 1.9e-10]], GJ_gate=[0.52], net=-2.89e-10
Breaking 0.01499999999999993 into -0.007250000000000034 and -0.022249999999999964

t=0: dumping short-format...
cc_cells= (moles/m3)
   [ 8.2  6.6] Na
   [ 161  158] K
   [  89   85] Cl
   [  80   80] P
Vm =      [-8.4 -25.9]mV

t=10: dumping long-format...
cc_cells= (moles/m3)
   [ 8.1  6.6] Na
   [ 161  158] K
   [  89   85] Cl
   [  80   80] P
Vm =      [-10.7 -23.8]mV
Na ionCh: [ 353  286]*10^-10 mol/m2s
Na pump:  [-529 -318]*10^-10 mol/m2s
K  ionCh: [-166 -238]*10^-10 mol/m2s
K  pump:  [ 353  212]*10^-10 mol/m2s
K  GJdrif:[  -1    1]*10^-10 mol/m2s
Cl ionCh: [   8  -55]*10^-10 mol/m2s
Cl GJdrif:[   1   -1]*10^-10 mol/m2s

Totals by ion from all sources:
Na total: [-176  -32]*10^-10 mol/m2s
K  total: [ 185  -25]*10^-10 mol/m2s
Cl total: [   8  -56]*10^-10 mol/m2s

Grand valence-weighted totals from all sources across all ions:
          [   1   -1]*10^-10 mol/m2s

now the GJs by GJ (if any have non-zero flux):
K  GJ drif: [  -1]*10^-10 mol/m2s
Cl GJ drif: [   1]*10^-10 mol/m2s
Goal deltaV=-15.0mV -> final Vmem=[-11 -24]mV, delta=-13mV
Final pre-gate GJ diff=[[-5.1e-12 -7.8e-12 -1.3e-11]], drift=[[-1.3e-11 -2.6e-10 1.4e-10]], GJ_gate=[0.52], net=-2.14e-10
Breaking 0.009999999999999926 into -0.009750000000000036 and -0.019749999999999962

t=0: dumping short-format...
cc_cells= (moles/m3)
   [ 8.1  6.6] Na
   [ 161  158] K
   [  89   85] Cl
   [  80   80] P
Vm =      [-10.7 -23.8]mV

t=10: dumping long-format...
cc_cells= (moles/m3)
   [ 8.0  6.6] Na
   [ 161  158] K
   [  89   85] Cl
   [  80   80] P
Vm =      [-13.4 -21.4]mV
Na ionCh: [ 322  275]*10^-10 mol/m2s
Na pump:  [-511 -315]*10^-10 mol/m2s
K  ionCh: [-157 -215]*10^-10 mol/m2s
K  pump:  [ 341  210]*10^-10 mol/m2s
K  GJdrif:[  -1    1]*10^-10 mol/m2s
Cl ionCh: [  -7  -43]*10^-10 mol/m2s

Totals by ion from all sources:
Na total: [-189  -40]*10^-10 mol/m2s
K  total: [ 183   -4]*10^-10 mol/m2s
Cl total: [  -6  -43]*10^-10 mol/m2s

Grand valence-weighted totals from all sources across all ions:
          [   0   -0]*10^-10 mol/m2s

now the GJs by GJ (if any have non-zero flux):
K  GJ drif: [  -1]*10^-10 mol/m2s
Goal deltaV=-10.0mV -> final Vmem=[-13 -21]mV, delta=-8mV
Final pre-gate GJ diff=[[-4.8e-12 -8.2e-12 -1.3e-11]], drift=[[-8e-12 -1.6e-10 8.5e-11]], GJ_gate=[0.51], net=-1.31e-10
Breaking 0.004999999999999921 into -0.012250000000000039 and -0.01724999999999996

t=0: dumping short-format...
cc_cells= (moles/m3)
   [ 8.0  6.6] Na
   [ 161  158] K
   [  89   85] Cl
   [  80   80] P
Vm =      [-13.4 -21.4]mV

t=10: dumping long-format...
cc_cells= (moles/m3)
   [ 7.9  6.5] Na
   [ 161  158] K
   [  89   85] Cl
   [  80   80] P
Vm =      [-16.4 -18.8]mV
Na ionCh: [ 288  263]*10^-10 mol/m2s
Na pump:  [-491 -311]*10^-10 mol/m2s
K  ionCh: [-147 -188]*10^-10 mol/m2s
K  pump:  [ 328  208]*10^-10 mol/m2s
Cl ionCh: [ -23  -29]*10^-10 mol/m2s

Totals by ion from all sources:
Na total: [-204  -48]*10^-10 mol/m2s
K  total: [ 181   19]*10^-10 mol/m2s
Cl total: [ -23  -29]*10^-10 mol/m2s

Grand valence-weighted totals from all sources across all ions:
          [   0    0]*10^-10 mol/m2s

now the GJs by GJ (if any have non-zero flux):
Goal deltaV=-5.0mV -> final Vmem=[-16 -19]mV, delta=-2mV
Final pre-gate GJ diff=[[-4.4e-12 -8.5e-12 -1.3e-11]], drift=[[-2.3e-12 -4.7e-11 2.5e-11]], GJ_gate=[0.51], net=-3.8e-11
Breaking 8.326672684688674e-17 into -0.014749999999999958 and -0.01475000000000004

t=0: dumping short-format...
cc_cells= (moles/m3)
   [ 7.9  6.5] Na
   [ 161  158] K
   [  89   85] Cl
   [  80   80] P
Vm =      [-16.4 -18.8]mV

t=10: dumping long-format...
cc_cells= (moles/m3)
   [ 7.7  6.5] Na
   [ 161  158] K
   [  89   85] Cl
   [  80   80] P
Vm =      [-19.5 -15.7]mV
Na ionCh: [ 265  249]*10^-10 mol/m2s
Na pump:  [-472 -307]*10^-10 mol/m2s
K  ionCh: [-149 -159]*10^-10 mol/m2s
K  pump:  [ 314  205]*10^-10 mol/m2s
Cl ionCh: [ -40  -13]*10^-10 mol/m2s

Totals by ion from all sources:
Na total: [-206  -57]*10^-10 mol/m2s
K  total: [ 166   45]*10^-10 mol/m2s
Cl total: [ -40  -12]*10^-10 mol/m2s

Grand valence-weighted totals from all sources across all ions:
          [   0    0]*10^-10 mol/m2s

now the GJs by GJ (if any have non-zero flux):
Goal deltaV=0.0mV -> final Vmem=[-19 -16]mV, delta=4mV
Final pre-gate GJ diff=[[-4.1e-12 -8.8e-12 -1.3e-11]], drift=[[3e-12 7.4e-11 -4.2e-11]], GJ_gate=[0.5], net=5.94e-11
Breaking 0.005000000000000088 into -0.012249999999999955 and -0.017250000000000043

t=0: dumping short-format...
cc_cells= (moles/m3)
   [ 7.7  6.5] Na
   [ 161  158] K
   [  89   85] Cl
   [  80   80] P
Vm =      [-19.5 -15.7]mV

t=10: dumping long-format...
cc_cells= (moles/m3)
   [ 7.6  6.5] Na
   [ 161  158] K
   [  89   85] Cl
   [  80   80] P
Vm =      [-21.8 -12.1]mV
Na ionCh: [ 276  268]*10^-10 mol/m2s
Na pump:  [-455 -304]*10^-10 mol/m2s
K  ionCh: [-179 -159]*10^-10 mol/m2s
K  pump:  [ 303  203]*10^-10 mol/m2s
K  GJdrif:[   1   -1]*10^-10 mol/m2s
Cl ionCh: [ -53    7]*10^-10 mol/m2s
Cl GJdrif:[  -1    1]*10^-10 mol/m2s

Totals by ion from all sources:
Na total: [-178  -36]*10^-10 mol/m2s
K  total: [ 126   43]*10^-10 mol/m2s
Cl total: [ -53    7]*10^-10 mol/m2s

Grand valence-weighted totals from all sources across all ions:
          [   0   -0]*10^-10 mol/m2s

now the GJs by GJ (if any have non-zero flux):
K  GJ drif: [   1]*10^-10 mol/m2s
Cl GJ drif: [  -1]*10^-10 mol/m2s
Goal deltaV=5.0mV -> final Vmem=[-22 -12]mV, delta=10mV
Final pre-gate GJ diff=[[-3.8e-12 -9e-12 -1.3e-11]], drift=[[7.8e-12 1.9e-10 -1.1e-10]], GJ_gate=[0.49], net=1.5e-10
Breaking 0.010000000000000092 into -0.009749999999999953 and -0.019750000000000045

t=0: dumping short-format...
cc_cells= (moles/m3)
   [ 7.6  6.5] Na
   [ 161  158] K
   [  89   85] Cl
   [  80   80] P
Vm =      [-21.8 -12.1]mV

t=10: dumping long-format...
cc_cells= (moles/m3)
   [ 7.5  6.5] Na
   [ 161  158] K
   [  89   85] Cl
   [  80   80] P
Vm =      [-24.0 -8.9]mV
Na ionCh: [ 287  298]*10^-10 mol/m2s
Na pump:  [-441 -304]*10^-10 mol/m2s
K  ionCh: [-205 -170]*10^-10 mol/m2s
K  pump:  [ 294  202]*10^-10 mol/m2s
K  GJdrif:[   1   -1]*10^-10 mol/m2s
Cl ionCh: [ -64   24]*10^-10 mol/m2s
Cl GJdrif:[  -1    1]*10^-10 mol/m2s

Totals by ion from all sources:
Na total: [-154   -6]*10^-10 mol/m2s
K  total: [  90   31]*10^-10 mol/m2s
Cl total: [ -65   25]*10^-10 mol/m2s

Grand valence-weighted totals from all sources across all ions:
          [   1   -1]*10^-10 mol/m2s

now the GJs by GJ (if any have non-zero flux):
K  GJ drif: [   1]*10^-10 mol/m2s
Cl GJ drif: [  -1]*10^-10 mol/m2s
Goal deltaV=10.0mV -> final Vmem=[-24 -9]mV, delta=15mV
Final pre-gate GJ diff=[[-3.5e-12 -9.1e-12 -1.3e-11]], drift=[[1.2e-11 3e-10 -1.7e-10]], GJ_gate=[0.48], net=2.29e-10
Breaking 0.015000000000000097 into -0.007249999999999951 and -0.022250000000000048

t=0: dumping short-format...
cc_cells= (moles/m3)
   [ 7.5  6.5] Na
   [ 161  158] K
   [  89   85] Cl
   [  80   80] P
Vm =      [-24.0 -8.9]mV

t=10: dumping long-format...
cc_cells= (moles/m3)
   [ 7.4  6.5] Na
   [ 161  158] K
   [  89   85] Cl
   [  80   80] P
Vm =      [-26.0 -6.0]mV
Na ionCh: [ 296  325]*10^-10 mol/m2s
Na pump:  [-429 -305]*10^-10 mol/m2s
K  ionCh: [-230 -181]*10^-10 mol/m2s
K  pump:  [ 286  204]*10^-10 mol/m2s
K  GJdrif:[   2   -2]*10^-10 mol/m2s
Cl ionCh: [ -74   40]*10^-10 mol/m2s
Cl GJdrif:[  -1    1]*10^-10 mol/m2s

Totals by ion from all sources:
Na total: [-132   20]*10^-10 mol/m2s
K  total: [  58   21]*10^-10 mol/m2s
Cl total: [ -76   41]*10^-10 mol/m2s

Grand valence-weighted totals from all sources across all ions:
          [   1   -1]*10^-10 mol/m2s

now the GJs by GJ (if any have non-zero flux):
K  GJ drif: [   2]*10^-10 mol/m2s
Cl GJ drif: [  -1]*10^-10 mol/m2s
Goal deltaV=15.0mV -> final Vmem=[-26 -6]mV, delta=20mV
Final pre-gate GJ diff=[[-3.1e-12 -9.2e-12 -1.2e-11]], drift=[[1.6e-11 4e-10 -2.2e-10]], GJ_gate=[0.46], net=2.93e-10
Breaking 0.0200000000000001 into -0.004749999999999949 and -0.02475000000000005

t=0: dumping short-format...
cc_cells= (moles/m3)
   [ 7.4  6.5] Na
   [ 161  158] K
   [  89   85] Cl
   [  80   80] P
Vm =      [-26.0 -6.0]mV

t=10: dumping long-format...
cc_cells= (moles/m3)
   [ 7.3  6.5] Na
   [ 161  158] K
   [  89   85] Cl
   [  80   80] P
Vm =      [-27.8 -3.5]mV
Na ionCh: [ 305  351]*10^-10 mol/m2s
Na pump:  [-418 -309]*10^-10 mol/m2s
K  ionCh: [-253 -191]*10^-10 mol/m2s
K  pump:  [ 279  206]*10^-10 mol/m2s
K  GJdrif:[   2   -2]*10^-10 mol/m2s
Cl ionCh: [ -84   54]*10^-10 mol/m2s
Cl GJdrif:[  -1    1]*10^-10 mol/m2s

Totals by ion from all sources:
Na total: [-113   42]*10^-10 mol/m2s
K  total: [  29   13]*10^-10 mol/m2s
Cl total: [ -85   55]*10^-10 mol/m2s

Grand valence-weighted totals from all sources across all ions:
          [   1   -0]*10^-10 mol/m2s

now the GJs by GJ (if any have non-zero flux):
K  GJ drif: [   2]*10^-10 mol/m2s
Cl GJ drif: [  -1]*10^-10 mol/m2s
Goal deltaV=20.0mV -> final Vmem=[-28 -3]mV, delta=24mV
Final pre-gate GJ diff=[[-2.8e-12 -9.2e-12 -1.2e-11]], drift=[[2e-11 4.8e-10 -2.7e-10]], GJ_gate=[0.45], net=3.45e-10
Breaking 0.025000000000000105 into -0.0022499999999999465 and -0.027250000000000052

t=0: dumping short-format...
cc_cells= (moles/m3)
   [ 7.3  6.5] Na
   [ 161  158] K
   [  89   85] Cl
   [  80   80] P
Vm =      [-27.8 -3.5]mV

t=10: dumping long-format...
cc_cells= (moles/m3)
   [ 7.3  6.5] Na
   [ 161  158] K
   [  89   85] Cl
   [  80   80] P
Vm =      [-29.4 -1.3]mV
Na ionCh: [ 314  375]*10^-10 mol/m2s
Na pump:  [-410 -313]*10^-10 mol/m2s
K  ionCh: [-274 -200]*10^-10 mol/m2s
K  pump:  [ 273  209]*10^-10 mol/m2s
K  GJdrif:[   2   -2]*10^-10 mol/m2s
Cl ionCh: [ -92   66]*10^-10 mol/m2s
Cl GJdrif:[  -1    1]*10^-10 mol/m2s

Totals by ion from all sources:
Na total: [ -96   61]*10^-10 mol/m2s
K  total: [   2    7]*10^-10 mol/m2s
Cl total: [ -94   68]*10^-10 mol/m2s

Grand valence-weighted totals from all sources across all ions:
          [  -1    1]*10^-10 mol/m2s

now the GJs by GJ (if any have non-zero flux):
K  GJ drif: [   2]*10^-10 mol/m2s
Cl GJ drif: [  -1]*10^-10 mol/m2s
Goal deltaV=25.0mV -> final Vmem=[-29 -1]mV, delta=28mV
Final pre-gate GJ diff=[[-2.5e-12 -9.2e-12 -1.2e-11]], drift=[[2.3e-11 5.6e-10 -3.1e-10]], GJ_gate=[0.43], net=3.84e-10
Breaking 0.03000000000000011 into 0.00025000000000005573 and -0.029750000000000054

t=0: dumping short-format...
cc_cells= (moles/m3)
   [ 7.3  6.5] Na
   [ 161  158] K
   [  89   85] Cl
   [  80   80] P
Vm =      [-29.4 -1.3]mV

t=10: dumping long-format...
cc_cells= (moles/m3)
   [ 7.2  6.6] Na
   [ 161  158] K
   [  88   85] Cl
   [  80   80] P
Vm =      [-31.0  6.0]mV
Na ionCh: [ 322  447]*10^-10 mol/m2s
Na pump:  [-403 -323]*10^-10 mol/m2s
K  ionCh: [-292 -230]*10^-10 mol/m2s
K  pump:  [ 269  216]*10^-10 mol/m2s
K  GJdrif:[   3   -3]*10^-10 mol/m2s
Cl ionCh: [-101  107]*10^-10 mol/m2s
Cl GJdrif:[  -2    2]*10^-10 mol/m2s

Totals by ion from all sources:
Na total: [ -81  124]*10^-10 mol/m2s
K  total: [ -21  -17]*10^-10 mol/m2s
Cl total: [-102  109]*10^-10 mol/m2s

Grand valence-weighted totals from all sources across all ions:
          [   0   -2]*10^-10 mol/m2s

now the GJs by GJ (if any have non-zero flux):
K  GJ drif: [   3]*10^-10 mol/m2s
Cl GJ drif: [  -2]*10^-10 mol/m2s
Goal deltaV=30.0mV -> final Vmem=[-31 6]mV, delta=37mV
Final pre-gate GJ diff=[[-2e-12 -9.2e-12 -1.1e-11]], drift=[[3.1e-11 7.3e-10 -4.1e-10]], GJ_gate=[0.38], net=4.42e-10
Breaking 0.035000000000000114 into 0.002750000000000058 and -0.032250000000000056

t=0: dumping short-format...
cc_cells= (moles/m3)
   [ 7.2  6.6] Na
   [ 161  158] K
   [  88   85] Cl
   [  80   80] P
Vm =      [-31.0  6.0]mV

t=10: dumping long-format...
cc_cells= (moles/m3)
   [ 7.2  6.7] Na
   [ 161  158] K
   [  88   85] Cl
   [  80   80] P
Vm =      [-33.4 11.8]mV
Na ionCh: [ 334  512]*10^-10 mol/m2s
Na pump:  [-397 -338]*10^-10 mol/m2s
K  ionCh: [-319 -256]*10^-10 mol/m2s
K  pump:  [ 265  225]*10^-10 mol/m2s
K  GJdrif:[   3   -3]*10^-10 mol/m2s
Cl ionCh: [-113  140]*10^-10 mol/m2s
Cl GJdrif:[  -1    1]*10^-10 mol/m2s

Totals by ion from all sources:
Na total: [ -63  174]*10^-10 mol/m2s
K  total: [ -51  -33]*10^-10 mol/m2s
Cl total: [-114  142]*10^-10 mol/m2s

Grand valence-weighted totals from all sources across all ions:
          [   0   -2]*10^-10 mol/m2s

now the GJs by GJ (if any have non-zero flux):
K  GJ drif: [   3]*10^-10 mol/m2s
Cl GJ drif: [  -1]*10^-10 mol/m2s
Goal deltaV=35.0mV -> final Vmem=[-33 12]mV, delta=45mV
Final pre-gate GJ diff=[[-1.5e-12 -9.2e-12 -1.1e-11]], drift=[[3.8e-11 8.9e-10 -5e-10]], GJ_gate=[0.3], net=4.28e-10
Breaking 0.04000000000000012 into 0.00525000000000006 and -0.03475000000000006

t=0: dumping short-format...
cc_cells= (moles/m3)
   [ 7.2  6.7] Na
   [ 161  158] K
   [  88   85] Cl
   [  80   80] P
Vm =      [-33.4 11.8]mV

t=10: dumping long-format...
cc_cells= (moles/m3)
   [ 7.2  6.9] Na
   [ 161  158] K
   [  88   85] Cl
   [  80   80] P
Vm =      [-36.3 14.9]mV
Na ionCh: [ 349  550]*10^-10 mol/m2s
Na pump:  [-393 -354]*10^-10 mol/m2s
K  ionCh: [-349 -271]*10^-10 mol/m2s
K  pump:  [ 262  236]*10^-10 mol/m2s
K  GJdrif:[   2   -2]*10^-10 mol/m2s
Cl ionCh: [-128  159]*10^-10 mol/m2s
Cl GJdrif:[  -1    1]*10^-10 mol/m2s

Totals by ion from all sources:
Na total: [ -44  196]*10^-10 mol/m2s
K  total: [ -85  -37]*10^-10 mol/m2s
Cl total: [-129  160]*10^-10 mol/m2s

Grand valence-weighted totals from all sources across all ions:
          [   0   -1]*10^-10 mol/m2s

now the GJs by GJ (if any have non-zero flux):
K  GJ drif: [   2]*10^-10 mol/m2s
Cl GJ drif: [  -1]*10^-10 mol/m2s
Goal deltaV=40.0mV -> final Vmem=[-36 15]mV, delta=51mV
Final pre-gate GJ diff=[[-9.8e-13 -9.1e-12 -1e-11]], drift=[[4.4e-11 1e-09 -5.6e-10]], GJ_gate=[0.23], net=3.72e-10
Breaking 0.04500000000000012 into 0.007750000000000062 and -0.03725000000000006

t=0: dumping short-format...
cc_cells= (moles/m3)
   [ 7.2  6.9] Na
   [ 161  158] K
   [  88   85] Cl
   [  80   80] P
Vm =      [-36.3 14.9]mV

t=10: dumping long-format...
cc_cells= (moles/m3)
   [ 7.1  7.0] Na
   [ 161  158] K
   [  88   85] Cl
   [  80   80] P
Vm =      [-38.9 16.4]mV
Na ionCh: [ 363  570]*10^-10 mol/m2s
Na pump:  [-391 -371]*10^-10 mol/m2s
K  ionCh: [-376 -278]*10^-10 mol/m2s
K  pump:  [ 261  248]*10^-10 mol/m2s
K  GJdrif:[   2   -2]*10^-10 mol/m2s
Cl ionCh: [-141  167]*10^-10 mol/m2s
Cl GJdrif:[  -1    1]*10^-10 mol/m2s

Totals by ion from all sources:
Na total: [ -28  199]*10^-10 mol/m2s
K  total: [-114  -32]*10^-10 mol/m2s
Cl total: [-142  168]*10^-10 mol/m2s

Grand valence-weighted totals from all sources across all ions:
          [  -0   -2]*10^-10 mol/m2s

now the GJs by GJ (if any have non-zero flux):
K  GJ drif: [   2]*10^-10 mol/m2s
Cl GJ drif: [  -1]*10^-10 mol/m2s
Goal deltaV=45.0mV -> final Vmem=[-39 16]mV, delta=55mV
Final pre-gate GJ diff=[[-4.8e-13 -9e-12 -9.5e-12]], drift=[[4.8e-11 1.1e-09 -6.1e-10]], GJ_gate=[0.19], net=3.31e-10
Breaking 0.05000000000000013 into 0.010250000000000065 and -0.03975000000000006

t=0: dumping short-format...
cc_cells= (moles/m3)
   [ 7.1  7.0] Na
   [ 161  158] K
   [  88   85] Cl
   [  80   80] P
Vm =      [-38.9 16.4]mV

t=10: dumping long-format...
cc_cells= (moles/m3)
   [ 7.1  7.1] Na
   [ 161  158] K
   [  88   85] Cl
   [  80   80] P
Vm =      [-41.7 17.7]mV
Na ionCh: [ 378  590]*10^-10 mol/m2s
Na pump:  [-390 -389]*10^-10 mol/m2s
K  ionCh: [-406 -284]*10^-10 mol/m2s
K  pump:  [ 260  259]*10^-10 mol/m2s
K  GJdrif:[   2   -2]*10^-10 mol/m2s
Cl ionCh: [-155  175]*10^-10 mol/m2s
Cl GJdrif:[  -1    1]*10^-10 mol/m2s

Totals by ion from all sources:
Na total: [ -12  201]*10^-10 mol/m2s
K  total: [-144  -27]*10^-10 mol/m2s
Cl total: [-156  176]*10^-10 mol/m2s

Grand valence-weighted totals from all sources across all ions:
          [  -0   -1]*10^-10 mol/m2s

now the GJs by GJ (if any have non-zero flux):
K  GJ drif: [   2]*10^-10 mol/m2s
Cl GJ drif: [  -1]*10^-10 mol/m2s
Goal deltaV=50.0mV -> final Vmem=[-42 18]mV, delta=59mV
Final pre-gate GJ diff=[[-3e-14 -8.7e-12 -8.8e-12]], drift=[[5.3e-11 1.2e-09 -6.5e-10]], GJ_gate=[0.16], net=2.94e-10
Breaking 0.05500000000000013 into 0.012750000000000067 and -0.042250000000000065

t=0: dumping short-format...
cc_cells= (moles/m3)
   [ 7.1  7.1] Na
   [ 161  158] K
   [  88   85] Cl
   [  80   80] P
Vm =      [-41.7 17.7]mV

t=10: dumping long-format...
cc_cells= (moles/m3)
   [ 7.1  7.3] Na
   [ 161  158] K
   [  88   86] Cl
   [  80   80] P
Vm =      [-45.2 20.3]mV
Na ionCh: [ 397  624]*10^-10 mol/m2s
Na pump:  [-390 -408]*10^-10 mol/m2s
K  ionCh: [-442 -297]*10^-10 mol/m2s
K  pump:  [ 260  272]*10^-10 mol/m2s
K  GJdrif:[   2   -2]*10^-10 mol/m2s
Cl ionCh: [-172  190]*10^-10 mol/m2s
Cl GJdrif:[  -1    1]*10^-10 mol/m2s

Totals by ion from all sources:
Na total: [   7  216]*10^-10 mol/m2s
K  total: [-180  -27]*10^-10 mol/m2s
Cl total: [-173  191]*10^-10 mol/m2s

Grand valence-weighted totals from all sources across all ions:
          [  -0   -1]*10^-10 mol/m2s

now the GJs by GJ (if any have non-zero flux):
K  GJ drif: [   2]*10^-10 mol/m2s
Cl GJ drif: [  -1]*10^-10 mol/m2s
Goal deltaV=55.0mV -> final Vmem=[-45 20]mV, delta=65mV
Final pre-gate GJ diff=[[4.3e-13 -8.4e-12 -8.1e-12]], drift=[[5.9e-11 1.3e-09 -7.2e-10]], GJ_gate=[0.12], net=2.57e-10
Breaking 0.06000000000000014 into 0.02575000000000007 and -0.034250000000000065

t=0: dumping short-format...
cc_cells= (moles/m3)
   [ 7.1  7.3] Na
   [ 161  158] K
   [  88   86] Cl
   [  80   80] P
Vm =      [-45.2 20.3]mV

t=10: dumping long-format...
cc_cells= (moles/m3)
   [ 7.1  7.6] Na
   [ 161  158] K
   [  88   86] Cl
   [  80   80] P
Vm =      [-35.7 46.3]mV
Na ionCh: [ 346  943]*10^-10 mol/m2s
Na pump:  [-387 -452]*10^-10 mol/m2s
K  ionCh: [-343 -442]*10^-10 mol/m2s
K  pump:  [ 258  301]*10^-10 mol/m2s
K  GJdrif:[   1   -1]*10^-10 mol/m2s
Cl ionCh: [-124  351]*10^-10 mol/m2s
Cl GJdrif:[  -1    1]*10^-10 mol/m2s

Totals by ion from all sources:
Na total: [ -41  491]*10^-10 mol/m2s
K  total: [ -84 -142]*10^-10 mol/m2s
Cl total: [-125  351]*10^-10 mol/m2s

Grand valence-weighted totals from all sources across all ions:
          [   0   -3]*10^-10 mol/m2s

now the GJs by GJ (if any have non-zero flux):
K  GJ drif: [   1]*10^-10 mol/m2s
Cl GJ drif: [  -1]*10^-10 mol/m2s
Goal deltaV=60.0mV -> final Vmem=[-36 46]mV, delta=82mV
Final pre-gate GJ diff=[[1.6e-12 -8.6e-12 -7.1e-12]], drift=[[7.8e-11 1.6e-09 -9e-10]], GJ_gate=[0.087], net=2.27e-10
Breaking 0.06500000000000014 into 0.028250000000000074 and -0.03675000000000007

t=0: dumping short-format...
cc_cells= (moles/m3)
   [ 7.1  7.6] Na
   [ 161  158] K
   [  88   86] Cl
   [  80   80] P
Vm =      [-35.7 46.3]mV

t=10: dumping long-format...
cc_cells= (moles/m3)
   [ 7.1  7.9] Na
   [ 161  158] K
   [  88   86] Cl
   [  80   80] P
Vm =      [-38.2 49.7]mV
Na ionCh: [  36  100]*10^-9 mol/m2s
Na pump:  [ -38  -50]*10^-9 mol/m2s
K  ionCh: [ -37  -46]*10^-9 mol/m2s
K  pump:  [  26   33]*10^-9 mol/m2s
Cl ionCh: [ -14   37]*10^-9 mol/m2s

Totals by ion from all sources:
Na total: [  -3   50]*10^-9 mol/m2s
K  total: [ -11  -13]*10^-9 mol/m2s
Cl total: [ -14   37]*10^-9 mol/m2s

Grand valence-weighted totals from all sources across all ions:
          [   0   -0]*10^-9 mol/m2s

now the GJs by GJ (if any have non-zero flux):
Goal deltaV=65.0mV -> final Vmem=[-38 50]mV, delta=88mV
Final pre-gate GJ diff=[[2.7e-12 -8.7e-12 -6.1e-12]], drift=[[8.7e-11 1.7e-09 -9.6e-10]], GJ_gate=[0.15], net=4.16e-10
Breaking 0.07000000000000015 into 0.030750000000000076 and -0.03925000000000007

t=0: dumping short-format...
cc_cells= (moles/m3)
   [ 7.1  7.9] Na
   [ 161  158] K
   [  88   86] Cl
   [  80   80] P
Vm =      [-38.2 49.7]mV

t=10: dumping long-format...
cc_cells= (moles/m3)
   [ 7.1  8.2] Na
   [ 161  158] K
   [  88   86] Cl
   [  80   80] P
Vm =      [-40.7 52.0]mV
Na ionCh: [  37  105]*10^-9 mol/m2s
Na pump:  [ -38  -55]*10^-9 mol/m2s
K  ionCh: [ -40  -48]*10^-9 mol/m2s
K  pump:  [  26   36]*10^-9 mol/m2s
Cl ionCh: [ -15   39]*10^-9 mol/m2s

Totals by ion from all sources:
Na total: [  -1   50]*10^-9 mol/m2s
K  total: [ -14  -12]*10^-9 mol/m2s
Cl total: [ -15   39]*10^-9 mol/m2s

Grand valence-weighted totals from all sources across all ions:
          [   0   -0]*10^-9 mol/m2s

now the GJs by GJ (if any have non-zero flux):
Goal deltaV=70.0mV -> final Vmem=[-41 52]mV, delta=93mV
Final pre-gate GJ diff=[[3.8e-12 -8.6e-12 -5e-12]], drift=[[9.5e-11 1.8e-09 -1e-09]], GJ_gate=[0.15], net=4.33e-10
Breaking 0.07500000000000015 into 0.03325000000000008 and -0.04175000000000007

t=0: dumping short-format...
cc_cells= (moles/m3)
   [ 7.1  8.2] Na
   [ 161  158] K
   [  88   86] Cl
   [  80   80] P
Vm =      [-40.7 52.0]mV

t=10: dumping long-format...
cc_cells= (moles/m3)
   [ 7.1  8.5] Na
   [ 161  158] K
   [  88   87] Cl
   [  80   80] P
Vm =      [-44.4 53.6]mV
Na ionCh: [  39  102]*10^-9 mol/m2s
Na pump:  [ -38  -59]*10^-9 mol/m2s
K  ionCh: [ -43  -46]*10^-9 mol/m2s
K  pump:  [  26   39]*10^-9 mol/m2s
Cl ionCh: [ -17   37]*10^-9 mol/m2s

Totals by ion from all sources:
Na total: [   1   43]*10^-9 mol/m2s
K  total: [ -18   -7]*10^-9 mol/m2s
Cl total: [ -17   37]*10^-9 mol/m2s

Grand valence-weighted totals from all sources across all ions:
          [  -0   -1]*10^-9 mol/m2s

now the GJs by GJ (if any have non-zero flux):
Goal deltaV=75.0mV -> final Vmem=[-44 54]mV, delta=98mV
Final pre-gate GJ diff=[[4.7e-12 -8.5e-12 -3.9e-12]], drift=[[1e-10 1.9e-09 -1.1e-09]], GJ_gate=[0.078], net=2.43e-10
Breaking 0.08000000000000015 into 0.03575000000000008 and -0.044250000000000074

t=0: dumping short-format...
cc_cells= (moles/m3)
   [ 7.1  8.5] Na
   [ 161  158] K
   [  88   87] Cl
   [  80   80] P
Vm =      [-44.4 53.6]mV

t=10: dumping long-format...
cc_cells= (moles/m3)
   [ 7.1  8.7] Na
   [ 160  158] K
   [  88   87] Cl
   [  80   80] P
Vm =      [-47.5 54.8]mV
Na ionCh: [ 410  934]*10^-10 mol/m2s
Na pump:  [-387 -619]*10^-10 mol/m2s
K  ionCh: [-466 -402]*10^-10 mol/m2s
K  pump:  [ 258  413]*10^-10 mol/m2s
K  GJdrif:[   2   -2]*10^-10 mol/m2s
Cl ionCh: [-182  329]*10^-10 mol/m2s
Cl GJdrif:[  -1    1]*10^-10 mol/m2s

Totals by ion from all sources:
Na total: [  24  314]*10^-10 mol/m2s
K  total: [-207   10]*10^-10 mol/m2s
Cl total: [-183  330]*10^-10 mol/m2s

Grand valence-weighted totals from all sources across all ions:
          [  -0   -5]*10^-10 mol/m2s

now the GJs by GJ (if any have non-zero flux):
K  GJ drif: [   2]*10^-10 mol/m2s
Cl GJ drif: [  -1]*10^-10 mol/m2s
Goal deltaV=80.0mV -> final Vmem=[-47 55]mV, delta=102mV
Final pre-gate GJ diff=[[5.3e-12 -8e-12 -2.8e-12]], drift=[[1.1e-10 2e-09 -1.1e-09]], GJ_gate=[0.077], net=2.52e-10
Breaking 0.08500000000000016 into 0.03825000000000008 and -0.046750000000000076

t=0: dumping short-format...
cc_cells= (moles/m3)
   [ 7.1  8.7] Na
   [ 160  158] K
   [  88   87] Cl
   [  80   80] P
Vm =      [-47.5 54.8]mV

t=10: dumping long-format...
cc_cells= (moles/m3)
   [ 7.1  8.8] Na
   [ 160  158] K
   [  87   87] Cl
   [  80   80] P
Vm =      [-50.1 56.2]mV
Na ionCh: [ 425  849]*10^-10 mol/m2s
Na pump:  [-390 -640]*10^-10 mol/m2s
K  ionCh: [-493 -346]*10^-10 mol/m2s
K  pump:  [ 260  426]*10^-10 mol/m2s
K  GJdrif:[   2   -2]*10^-10 mol/m2s
Cl ionCh: [-195  284]*10^-10 mol/m2s
Cl GJdrif:[  -1    1]*10^-10 mol/m2s

Totals by ion from all sources:
Na total: [  36  209]*10^-10 mol/m2s
K  total: [-231   79]*10^-10 mol/m2s
Cl total: [-196  285]*10^-10 mol/m2s

Grand valence-weighted totals from all sources across all ions:
          [  -0    3]*10^-10 mol/m2s

now the GJs by GJ (if any have non-zero flux):
K  GJ drif: [   2]*10^-10 mol/m2s
Cl GJ drif: [  -1]*10^-10 mol/m2s
Goal deltaV=85.0mV -> final Vmem=[-50 56]mV, delta=106mV
Final pre-gate GJ diff=[[5.7e-12 -7.4e-12 -1.9e-12]], drift=[[1.2e-10 2.1e-09 -1.2e-09]], GJ_gate=[0.077], net=2.61e-10
Breaking 0.09000000000000016 into 0.040750000000000085 and -0.04925000000000008

t=0: dumping short-format...
cc_cells= (moles/m3)
   [ 7.1  8.8] Na
   [ 160  158] K
   [  87   87] Cl
   [  80   80] P
Vm =      [-50.1 56.2]mV

t=10: dumping long-format...
cc_cells= (moles/m3)
   [ 7.2  8.9] Na
   [ 160  158] K
   [  87   87] Cl
   [  80   80] P
Vm =      [-52.4 58.1]mV
Na ionCh: [ 438  743]*10^-10 mol/m2s
Na pump:  [-393 -650]*10^-10 mol/m2s
K  ionCh: [-516 -290]*10^-10 mol/m2s
K  pump:  [ 262  433]*10^-10 mol/m2s
K  GJdrif:[   2   -2]*10^-10 mol/m2s
Cl ionCh: [-206  240]*10^-10 mol/m2s
Cl GJdrif:[  -1    1]*10^-10 mol/m2s

Totals by ion from all sources:
Na total: [  45   93]*10^-10 mol/m2s
K  total: [-252  141]*10^-10 mol/m2s
Cl total: [-207  240]*10^-10 mol/m2s

Grand valence-weighted totals from all sources across all ions:
          [  -0   -6]*10^-10 mol/m2s

now the GJs by GJ (if any have non-zero flux):
K  GJ drif: [   2]*10^-10 mol/m2s
Cl GJ drif: [  -1]*10^-10 mol/m2s
Goal deltaV=90.0mV -> final Vmem=[-52 58]mV, delta=111mV
Final pre-gate GJ diff=[[5.8e-12 -6.6e-12 -9.4e-13]], drift=[[1.2e-10 2.2e-09 -1.2e-09]], GJ_gate=[0.077], net=2.72e-10
Breaking 0.09500000000000017 into 0.04325000000000009 and -0.05175000000000008

t=0: dumping short-format...
cc_cells= (moles/m3)
   [ 7.2  8.9] Na
   [ 160  158] K
   [  87   87] Cl
   [  80   80] P
Vm =      [-52.4 58.1]mV

t=10: dumping long-format...
cc_cells= (moles/m3)
   [ 7.2  8.9] Na
   [ 160  158] K
   [  87   87] Cl
   [  80   80] P
Vm =      [-56.2 59.0]mV
Na ionCh: [ 460  698]*10^-10 mol/m2s
Na pump:  [-399 -654]*10^-10 mol/m2s
K  ionCh: [-554 -261]*10^-10 mol/m2s
K  pump:  [ 266  436]*10^-10 mol/m2s
K  GJdrif:[   2   -2]*10^-10 mol/m2s
Cl ionCh: [-224  216]*10^-10 mol/m2s
Cl GJdrif:[  -1    1]*10^-10 mol/m2s

Totals by ion from all sources:
Na total: [  62   44]*10^-10 mol/m2s
K  total: [-287  173]*10^-10 mol/m2s
Cl total: [-225  217]*10^-10 mol/m2s

Grand valence-weighted totals from all sources across all ions:
          [  -0    0]*10^-10 mol/m2s

now the GJs by GJ (if any have non-zero flux):
K  GJ drif: [   2]*10^-10 mol/m2s
Cl GJ drif: [  -1]*10^-10 mol/m2s
Goal deltaV=95.0mV -> final Vmem=[-56 59]mV, delta=115mV
Final pre-gate GJ diff=[[5.7e-12 -5.7e-12 -5.2e-14]], drift=[[1.3e-10 2.3e-09 -1.3e-09]], GJ_gate=[0.077], net=2.83e-10
Breaking 0.10000000000000017 into 0.04575000000000009 and -0.05425000000000008

t=0: dumping short-format...
cc_cells= (moles/m3)
   [ 7.2  8.9] Na
   [ 160  158] K
   [  87   87] Cl
   [  80   80] P
Vm =      [-56.2 59.0]mV

t=10: dumping long-format...
cc_cells= (moles/m3)
   [ 7.2  8.9] Na
   [ 160  158] K
   [  87   87] Cl
   [  80   80] P
Vm =      [-59.8 59.0]mV
Na ionCh: [ 482  694]*10^-10 mol/m2s
Na pump:  [-405 -658]*10^-10 mol/m2s
K  ionCh: [-591 -261]*10^-10 mol/m2s
K  pump:  [ 270  439]*10^-10 mol/m2s
K  GJdrif:[   2   -2]*10^-10 mol/m2s
Cl ionCh: [-241  216]*10^-10 mol/m2s
Cl GJdrif:[  -1    1]*10^-10 mol/m2s

Totals by ion from all sources:
Na total: [  77   36]*10^-10 mol/m2s
K  total: [-319  176]*10^-10 mol/m2s
Cl total: [-242  217]*10^-10 mol/m2s

Grand valence-weighted totals from all sources across all ions:
          [  -0   -5]*10^-10 mol/m2s

now the GJs by GJ (if any have non-zero flux):
K  GJ drif: [   2]*10^-10 mol/m2s
Cl GJ drif: [  -1]*10^-10 mol/m2s
Goal deltaV=100.0mV -> final Vmem=[-60 59]mV, delta=119mV
Final pre-gate GJ diff=[[5.7e-12 -4.6e-12 9e-13]], drift=[[1.3e-10 2.3e-09 -1.3e-09]], GJ_gate=[0.077], net=2.92e-10
