Breaking 0.1 into 0.045750000000000006 and -0.05425

t=0: dumping short-format...
cc_cells= (moles/m3)
   [  10   10] Na
   [ 125  125] K
   [  55   55] Cl
   [  80   80] P
Vm =      [ 0.0  0.0]mV

t=5000.29: dumping short-format...
cc_cells= (moles/m3)
   [   7   13] Na
   [ 112  175] K
   [  39  108] Cl
   [  80   80] P
Vm =      [-41.8 43.8]mV

t=10000.585000000001: dumping short-format...
cc_cells= (moles/m3)
   [   7   14] Na
   [ 108  219] K
   [  35  153] Cl
   [  80   80] P
Vm =      [-38.3 40.1]mV

t=15000.675000000001: dumping long-format...
cc_cells= (moles/m3)
   [   7   15] Na
   [ 108  255] K
   [  35  190] Cl
   [  80   80] P
Vm =      [-36.2 37.4]mV
Na ionCh: [ 209  922]*10^-4 mol/m3s
Na pump:  [-229 -896]*10^-4 mol/m3s
Na GJdiff:[   3   -3]*10^-4 mol/m3s
Na GJdrif:[  17  -17]*10^-4 mol/m3s
K  ionCh: [-492 -189]*10^-4 mol/m3s
K  pump:  [ 153  597]*10^-4 mol/m3s
K  GJdiff:[  59  -59]*10^-4 mol/m3s
K  GJdrif:[ 281 -281]*10^-4 mol/m3s
Cl ionCh: [   2   69]*10^-4 mol/m3s

Totals by ion from all sources:
Na total: [  -0    6]*10^-4 mol/m3s
K  total: [   1   68]*10^-4 mol/m3s
Cl total: [   2   69]*10^-4 mol/m3s

Grand valence-weighted totals from all sources across all ions:
          [  -1    5]*10^-4 mol/m3s

now the GJs by GJ (if any have non-zero flux):
Na GJ diff: [   3]*10^-4 mol/m3s
Na GJ drif: [  17]*10^-4 mol/m3s
K  GJ diff: [  59]*10^-4 mol/m3s
K  GJ drif: [ 281]*10^-4 mol/m3s

t=20000.735: dumping short-format...
cc_cells= (moles/m3)
   [   7   16] Na
   [ 109  286] K
   [  36  222] Cl
   [  80   80] P
Vm =      [-34.8 35.3]mV

t=25000.875: dumping short-format...
cc_cells= (moles/m3)
   [   7   17] Na
   [ 111  312] K
   [  38  249] Cl
   [  80   80] P
Vm =      [-33.9 33.8]mV

t=30000.945: dumping short-format...
cc_cells= (moles/m3)
   [   7   18] Na
   [ 112  334] K
   [  39  272] Cl
   [  80   80] P
Vm =      [-33.2 32.5]mV

t=35001.41: dumping long-format...
cc_cells= (moles/m3)
   [   7   18] Na
   [ 113  352] K
   [  40  290] Cl
   [  80   80] P
Vm =      [-32.7 31.4]mV
Na ionCh: [  20  107]*10^-3 mol/m3s
Na pump:  [ -22 -106]*10^-3 mol/m3s
Na GJdrif:[   2   -2]*10^-3 mol/m3s
K  ionCh: [ -58  -24]*10^-3 mol/m3s
K  pump:  [  15   70]*10^-3 mol/m3s
K  GJdiff:[  10  -10]*10^-3 mol/m3s
K  GJdrif:[  34  -34]*10^-3 mol/m3s
Cl ionCh: [   0    3]*10^-3 mol/m3s

Totals by ion from all sources:
K  total: [   0    3]*10^-3 mol/m3s
Cl total: [   0    3]*10^-3 mol/m3s

Grand valence-weighted totals from all sources across all ions:
          [   0   -1]*10^-3 mol/m3s

now the GJs by GJ (if any have non-zero flux):
Na GJ drif: [   2]*10^-3 mol/m3s
K  GJ diff: [  10]*10^-3 mol/m3s
K  GJ drif: [  34]*10^-3 mol/m3s

t=40001.455: dumping short-format...
cc_cells= (moles/m3)
   [   7   19] Na
   [ 114  367] K
   [  41  306] Cl
   [  80   80] P
Vm =      [-32.2 30.4]mV

t=45001.515: dumping short-format...
cc_cells= (moles/m3)
   [   7   20] Na
   [ 115  379] K
   [  42  319] Cl
   [  80   80] P
Vm =      [-31.8 29.7]mV

t=50001.555: dumping short-format...
cc_cells= (moles/m3)
   [   7   20] Na
   [ 115  390] K
   [  42  329] Cl
   [  80   80] P
Vm =      [-31.6 29.2]mV

t=55012.07: dumping long-format...
cc_cells= (moles/m3)
   [   7   20] Na
   [ 116  398] K
   [  43  338] Cl
   [  80   80] P
Vm =      [-31.3 28.6]mV
Na ionCh: [  19  115]*10^-3 mol/m3s
Na pump:  [ -22 -112]*10^-3 mol/m3s
Na GJdiff:[   1   -1]*10^-3 mol/m3s
Na GJdrif:[   2   -2]*10^-3 mol/m3s
K  ionCh: [ -62  -26]*10^-3 mol/m3s
K  pump:  [  15   75]*10^-3 mol/m3s
K  GJdiff:[  11  -11]*10^-3 mol/m3s
K  GJdrif:[  36  -36]*10^-3 mol/m3s
Cl ionCh: [   0    2]*10^-3 mol/m3s

Totals by ion from all sources:
Na total: [  -0    1]*10^-3 mol/m3s
K  total: [  -0    2]*10^-3 mol/m3s
Cl total: [   0    2]*10^-3 mol/m3s

Grand valence-weighted totals from all sources across all ions:
          [  -0    1]*10^-3 mol/m3s

now the GJs by GJ (if any have non-zero flux):
Na GJ diff: [   1]*10^-3 mol/m3s
Na GJ drif: [   2]*10^-3 mol/m3s
K  GJ diff: [  11]*10^-3 mol/m3s
K  GJ drif: [  36]*10^-3 mol/m3s

t=60012.095: dumping short-format...
cc_cells= (moles/m3)
   [   7   21] Na
   [ 116  405] K
   [  43  346] Cl
   [  80   80] P
Vm =      [-31.2 28.4]mV

t=65012.33: dumping short-format...
cc_cells= (moles/m3)
   [   7   21] Na
   [ 116  411] K
   [  43  352] Cl
   [  80   80] P
Vm =      [-31.1 28.1]mV

t=70012.485: dumping short-format...
cc_cells= (moles/m3)
   [   7   21] Na
   [ 117  415] K
   [  44  357] Cl
   [  80   80] P
Vm =      [-30.9 27.7]mV

t=75012.835: dumping long-format...
cc_cells= (moles/m3)
   [   7   21] Na
   [ 117  419] K
   [  44  361] Cl
   [  80   80] P
Vm =      [-30.9 27.6]mV
Na ionCh: [  19  116]*10^-3 mol/m3s
Na pump:  [ -22 -114]*10^-3 mol/m3s
Na GJdiff:[   1   -1]*10^-3 mol/m3s
Na GJdrif:[   2   -2]*10^-3 mol/m3s
K  ionCh: [ -63  -27]*10^-3 mol/m3s
K  pump:  [  14   76]*10^-3 mol/m3s
K  GJdiff:[  12  -12]*10^-3 mol/m3s
K  GJdrif:[  37  -37]*10^-3 mol/m3s
Cl ionCh: [   0    1]*10^-3 mol/m3s

Totals by ion from all sources:
K  total: [   0    1]*10^-3 mol/m3s
Cl total: [   0    1]*10^-3 mol/m3s

Grand valence-weighted totals from all sources across all ions:
          [   0   -1]*10^-3 mol/m3s

now the GJs by GJ (if any have non-zero flux):
Na GJ diff: [   1]*10^-3 mol/m3s
Na GJ drif: [   2]*10^-3 mol/m3s
K  GJ diff: [  12]*10^-3 mol/m3s
K  GJ drif: [  37]*10^-3 mol/m3s

t=80013.5: dumping short-format...
cc_cells= (moles/m3)
   [   7   21] Na
   [ 117  423] K
   [  44  364] Cl
   [  80   80] P
Vm =      [-30.8 27.5]mV

t=85014.145: dumping short-format...
cc_cells= (moles/m3)
   [   7   22] Na
   [ 117  425] K
   [  44  367] Cl
   [  80   80] P
Vm =      [-30.7 27.1]mV

t=90014.29000000001: dumping short-format...
cc_cells= (moles/m3)
   [   7   22] Na
   [ 117  427] K
   [  44  369] Cl
   [  80   80] P
Vm =      [-30.7 27.0]mV

t=95014.865: dumping long-format...
cc_cells= (moles/m3)
   [   7   22] Na
   [ 117  429] K
   [  44  371] Cl
   [  80   80] P
Vm =      [-30.7 27.1]mV
Na ionCh: [  19  117]*10^-3 mol/m3s
Na pump:  [ -22 -115]*10^-3 mol/m3s
Na GJdiff:[   1   -1]*10^-3 mol/m3s
Na GJdrif:[   2   -2]*10^-3 mol/m3s
K  ionCh: [ -64  -27]*10^-3 mol/m3s
K  pump:  [  14   77]*10^-3 mol/m3s
K  GJdiff:[  12  -12]*10^-3 mol/m3s
K  GJdrif:[  37  -37]*10^-3 mol/m3s

Totals by ion from all sources:
Na total: [   0   -1]*10^-3 mol/m3s

Grand valence-weighted totals from all sources across all ions:
          [   0   -1]*10^-3 mol/m3s

now the GJs by GJ (if any have non-zero flux):
Na GJ diff: [   1]*10^-3 mol/m3s
Na GJ drif: [   2]*10^-3 mol/m3s
K  GJ diff: [  12]*10^-3 mol/m3s
K  GJ drif: [  37]*10^-3 mol/m3s

t=100015.0: dumping short-format...
cc_cells= (moles/m3)
   [   7   22] Na
   [ 117  430] K
   [  44  372] Cl
   [  80   80] P
Vm =      [-30.6 27.0]mV

t=105015.5: dumping short-format...
cc_cells= (moles/m3)
   [   7   22] Na
   [ 118  432] K
   [  44  374] Cl
   [  80   80] P
Vm =      [-30.6 26.8]mV

t=110015.51000000001: dumping short-format...
cc_cells= (moles/m3)
   [   7   22] Na
   [ 118  433] K
   [  45  375] Cl
   [  80   80] P
Vm =      [-30.5 26.8]mV

t=115015.55500000001: dumping long-format...
cc_cells= (moles/m3)
   [   7   22] Na
   [ 118  433] K
   [  45  375] Cl
   [  80   80] P
Vm =      [-30.5 26.9]mV
Na ionCh: [  19  118]*10^-3 mol/m3s
Na pump:  [ -22 -116]*10^-3 mol/m3s
Na GJdiff:[   1   -1]*10^-3 mol/m3s
Na GJdrif:[   2   -2]*10^-3 mol/m3s
K  ionCh: [ -64  -27]*10^-3 mol/m3s
K  pump:  [  14   77]*10^-3 mol/m3s
K  GJdiff:[  13  -13]*10^-3 mol/m3s
K  GJdrif:[  37  -37]*10^-3 mol/m3s

Totals by ion from all sources:

Grand valence-weighted totals from all sources across all ions:
          [   0   -0]*10^-3 mol/m3s

now the GJs by GJ (if any have non-zero flux):
Na GJ diff: [   1]*10^-3 mol/m3s
Na GJ drif: [   2]*10^-3 mol/m3s
K  GJ diff: [  13]*10^-3 mol/m3s
K  GJ drif: [  37]*10^-3 mol/m3s

t=120016.09: dumping short-format...
cc_cells= (moles/m3)
   [   7   22] Na
   [ 118  434] K
   [  45  376] Cl
   [  80   80] P
Vm =      [-30.5 26.7]mV

t=125016.145: dumping short-format...
cc_cells= (moles/m3)
   [   7   22] Na
   [ 118  435] K
   [  45  377] Cl
   [  80   80] P
Vm =      [-30.5 26.7]mV

t=130016.255: dumping short-format...
cc_cells= (moles/m3)
   [   7   22] Na
   [ 118  435] K
   [  45  377] Cl
   [  80   80] P
Vm =      [-30.5 26.8]mV

t=135016.265: dumping long-format...
cc_cells= (moles/m3)
   [   7   22] Na
   [ 118  435] K
   [  45  377] Cl
   [  80   80] P
Vm =      [-30.5 26.7]mV
Na ionCh: [  19  119]*10^-3 mol/m3s
Na pump:  [ -22 -116]*10^-3 mol/m3s
Na GJdiff:[   1   -1]*10^-3 mol/m3s
Na GJdrif:[   2   -2]*10^-3 mol/m3s
K  ionCh: [ -64  -27]*10^-3 mol/m3s
K  pump:  [  14   77]*10^-3 mol/m3s
K  GJdiff:[  13  -13]*10^-3 mol/m3s
K  GJdrif:[  37  -37]*10^-3 mol/m3s

Totals by ion from all sources:

Grand valence-weighted totals from all sources across all ions:
          [   0   -0]*10^-3 mol/m3s

now the GJs by GJ (if any have non-zero flux):
Na GJ diff: [   1]*10^-3 mol/m3s
Na GJ drif: [   2]*10^-3 mol/m3s
K  GJ diff: [  13]*10^-3 mol/m3s
K  GJ drif: [  37]*10^-3 mol/m3s

t=140016.62: dumping short-format...
cc_cells= (moles/m3)
   [   7   22] Na
   [ 118  436] K
   [  45  378] Cl
   [  80   80] P
Vm =      [-30.5 26.8]mV

t=145016.935: dumping short-format...
cc_cells= (moles/m3)
   [   7   22] Na
   [ 118  436] K
   [  45  378] Cl
   [  80   80] P
Vm =      [-30.5 26.8]mV

t=150016.995: dumping short-format...
cc_cells= (moles/m3)
   [   7   22] Na
   [ 118  436] K
   [  45  378] Cl
   [  80   80] P
Vm =      [-30.5 26.6]mV

t=155016.995: dumping long-format...
cc_cells= (moles/m3)
   [   7   22] Na
   [ 118  436] K
   [  45  378] Cl
   [  80   80] P
Vm =      [-30.5 26.7]mV
Na ionCh: [  19  119]*10^-3 mol/m3s
Na pump:  [ -22 -116]*10^-3 mol/m3s
Na GJdiff:[   1   -1]*10^-3 mol/m3s
Na GJdrif:[   2   -2]*10^-3 mol/m3s
K  ionCh: [ -64  -27]*10^-3 mol/m3s
K  pump:  [  14   78]*10^-3 mol/m3s
K  GJdiff:[  13  -13]*10^-3 mol/m3s
K  GJdrif:[  37  -37]*10^-3 mol/m3s

Totals by ion from all sources:

Grand valence-weighted totals from all sources across all ions:
          [   0   -0]*10^-3 mol/m3s

now the GJs by GJ (if any have non-zero flux):
Na GJ diff: [   1]*10^-3 mol/m3s
Na GJ drif: [   2]*10^-3 mol/m3s
K  GJ diff: [  13]*10^-3 mol/m3s
K  GJ drif: [  37]*10^-3 mol/m3s

t=160017.405: dumping short-format...
cc_cells= (moles/m3)
   [   7   22] Na
   [ 118  436] K
   [  45  378] Cl
   [  80   80] P
Vm =      [-30.5 26.5]mV

t=165017.93: dumping short-format...
cc_cells= (moles/m3)
   [   7   22] Na
   [ 118  436] K
   [  45  379] Cl
   [  80   80] P
Vm =      [-30.4 26.5]mV

t=170017.95: dumping short-format...
cc_cells= (moles/m3)
   [   7   22] Na
   [ 118  437] K
   [  45  379] Cl
   [  80   80] P
Vm =      [-30.5 26.6]mV

t=175018.06: dumping long-format...
cc_cells= (moles/m3)
   [   7   22] Na
   [ 118  437] K
   [  45  379] Cl
   [  80   80] P
Vm =      [-30.4 26.5]mV
Na ionCh: [  19  119]*10^-3 mol/m3s
Na pump:  [ -22 -116]*10^-3 mol/m3s
Na GJdiff:[   1   -1]*10^-3 mol/m3s
Na GJdrif:[   2   -2]*10^-3 mol/m3s
K  ionCh: [ -65  -27]*10^-3 mol/m3s
K  pump:  [  14   78]*10^-3 mol/m3s
K  GJdiff:[  13  -13]*10^-3 mol/m3s
K  GJdrif:[  37  -37]*10^-3 mol/m3s

Totals by ion from all sources:
Na total: [  -0    1]*10^-3 mol/m3s

Grand valence-weighted totals from all sources across all ions:
          [  -0    1]*10^-3 mol/m3s

now the GJs by GJ (if any have non-zero flux):
Na GJ diff: [   1]*10^-3 mol/m3s
Na GJ drif: [   2]*10^-3 mol/m3s
K  GJ diff: [  13]*10^-3 mol/m3s
K  GJ drif: [  37]*10^-3 mol/m3s

t=180018.52: dumping short-format...
cc_cells= (moles/m3)
   [   7   22] Na
   [ 118  437] K
   [  45  379] Cl
   [  80   80] P
Vm =      [-30.5 26.7]mV

t=185018.68: dumping short-format...
cc_cells= (moles/m3)
   [   7   22] Na
   [ 118  437] K
   [  45  379] Cl
   [  80   80] P
Vm =      [-30.4 26.5]mV

t=190018.72: dumping short-format...
cc_cells= (moles/m3)
   [   7   22] Na
   [ 118  437] K
   [  45  379] Cl
   [  80   80] P
Vm =      [-30.5 26.6]mV

t=195018.835: dumping long-format...
cc_cells= (moles/m3)
   [   7   22] Na
   [ 118  437] K
   [  45  379] Cl
   [  80   80] P
Vm =      [-30.4 26.5]mV
Na ionCh: [  19  119]*10^-3 mol/m3s
Na pump:  [ -22 -116]*10^-3 mol/m3s
Na GJdiff:[   1   -1]*10^-3 mol/m3s
Na GJdrif:[   2   -2]*10^-3 mol/m3s
K  ionCh: [ -65  -27]*10^-3 mol/m3s
K  pump:  [  14   78]*10^-3 mol/m3s
K  GJdiff:[  13  -13]*10^-3 mol/m3s
K  GJdrif:[  37  -37]*10^-3 mol/m3s

Totals by ion from all sources:
Na total: [  -0    1]*10^-3 mol/m3s

Grand valence-weighted totals from all sources across all ions:
          [  -0    1]*10^-3 mol/m3s

now the GJs by GJ (if any have non-zero flux):
Na GJ diff: [   1]*10^-3 mol/m3s
Na GJ drif: [   2]*10^-3 mol/m3s
K  GJ diff: [  13]*10^-3 mol/m3s
K  GJ drif: [  37]*10^-3 mol/m3s
Breaking 0.1 into 0.045750000000000006 and -0.05425

t=0: dumping short-format...
cc_cells= (moles/m3)
   [   7   22] Na
   [ 118  437] K
   [  45  379] Cl
   [  80   80] P
Vm =      [-30.5 26.6]mV

t=10: dumping long-format...
cc_cells= (moles/m3)
   [   7   21] Na
   [ 118  437] K
   [  45  378] Cl
   [  80   80] P
Vm =      [64.5 -72.1]mV
Na ionCh: [  62   55]*10^-9 mol/m2s
Na pump:  [ -38 -191]*10^-9 mol/m2s
Na GJdrif:[  -1    1]*10^-9 mol/m2s
K  ionCh: [ -21 -138]*10^-9 mol/m2s
K  pump:  [  26  127]*10^-9 mol/m2s
K  GJdiff:[   5   -5]*10^-9 mol/m2s
K  GJdrif:[  -9    9]*10^-9 mol/m2s
Cl ionCh: [  24 -142]*10^-9 mol/m2s

Totals by ion from all sources:
Na total: [  23 -135]*10^-9 mol/m2s
K  total: [   1   -7]*10^-9 mol/m2s
Cl total: [  24 -142]*10^-9 mol/m2s

Grand valence-weighted totals from all sources across all ions:
          [  -0    1]*10^-9 mol/m2s

now the GJs by GJ (if any have non-zero flux):
Na GJ drif: [  -1]*10^-9 mol/m2s
K  GJ diff: [   5]*10^-9 mol/m2s
K  GJ drif: [  -9]*10^-9 mol/m2s
Goal deltaV=-100.0mV -> final Vmem=[65 -72]mV, delta=-137mV
Final pre-gate GJ diff=[[9.5e-10 2.1e-08 0]], drift=[[-2.4e-09 -4e-08 0]], GJ_gate=[0.23], net=-4.67e-09
Breaking 0.095 into 0.043250000000000004 and -0.05175

t=0: dumping short-format...
cc_cells= (moles/m3)
   [   7   21] Na
   [ 118  437] K
   [  45  378] Cl
   [  80   80] P
Vm =      [64.5 -72.1]mV

t=10: dumping long-format...
cc_cells= (moles/m3)
   [   7   21] Na
   [ 118  437] K
   [  45  377] Cl
   [  80   80] P
Vm =      [64.2 -67.9]mV
Na ionCh: [  62   53]*10^-9 mol/m2s
Na pump:  [ -40 -187]*10^-9 mol/m2s
Na GJdrif:[  -1    1]*10^-9 mol/m2s
K  ionCh: [ -21 -129]*10^-9 mol/m2s
K  pump:  [  27  125]*10^-9 mol/m2s
K  GJdiff:[   5   -5]*10^-9 mol/m2s
K  GJdrif:[  -9    9]*10^-9 mol/m2s
Cl ionCh: [  24 -135]*10^-9 mol/m2s

Totals by ion from all sources:
Na total: [  22 -134]*10^-9 mol/m2s
K  total: [   2   -0]*10^-9 mol/m2s
Cl total: [  24 -135]*10^-9 mol/m2s

Grand valence-weighted totals from all sources across all ions:
          [  -0    0]*10^-9 mol/m2s

now the GJs by GJ (if any have non-zero flux):
Na GJ drif: [  -1]*10^-9 mol/m2s
K  GJ diff: [   5]*10^-9 mol/m2s
K  GJ drif: [  -9]*10^-9 mol/m2s
Goal deltaV=-95.0mV -> final Vmem=[64 -68]mV, delta=-132mV
Final pre-gate GJ diff=[[8.9e-10 2.1e-08 0]], drift=[[-2.4e-09 -3.9e-08 0]], GJ_gate=[0.23], net=-4.37e-09
Breaking 0.09 into 0.04075 and -0.049249999999999995

t=0: dumping short-format...
cc_cells= (moles/m3)
   [   7   21] Na
   [ 118  437] K
   [  45  377] Cl
   [  80   80] P
Vm =      [64.2 -67.9]mV

t=10: dumping long-format...
cc_cells= (moles/m3)
   [   7   20] Na
   [ 118  437] K
   [  45  377] Cl
   [  80   80] P
Vm =      [62.7 -63.5]mV
Na ionCh: [  67   50]*10^-9 mol/m2s
Na pump:  [ -42 -183]*10^-9 mol/m2s
Na GJdrif:[  -1    1]*10^-9 mol/m2s
K  ionCh: [ -23 -120]*10^-9 mol/m2s
K  pump:  [  28  122]*10^-9 mol/m2s
K  GJdiff:[   5   -5]*10^-9 mol/m2s
K  GJdrif:[  -8    8]*10^-9 mol/m2s
Cl ionCh: [  26 -127]*10^-9 mol/m2s

Totals by ion from all sources:
Na total: [  25 -133]*10^-9 mol/m2s
K  total: [   2    6]*10^-9 mol/m2s
Cl total: [  26 -127]*10^-9 mol/m2s

Grand valence-weighted totals from all sources across all ions:
          [  -0   -0]*10^-9 mol/m2s

now the GJs by GJ (if any have non-zero flux):
Na GJ drif: [  -1]*10^-9 mol/m2s
K  GJ diff: [   5]*10^-9 mol/m2s
K  GJ drif: [  -8]*10^-9 mol/m2s
Goal deltaV=-90.0mV -> final Vmem=[63 -63]mV, delta=-126mV
Final pre-gate GJ diff=[[8.2e-10 2.1e-08 0]], drift=[[-2.3e-09 -3.7e-08 0]], GJ_gate=[0.23], net=-3.97e-09
Breaking 0.08499999999999999 into 0.03825 and -0.04674999999999999

t=0: dumping short-format...
cc_cells= (moles/m3)
   [   7   20] Na
   [ 118  437] K
   [  45  377] Cl
   [  80   80] P
Vm =      [62.7 -63.5]mV

t=10: dumping long-format...
cc_cells= (moles/m3)
   [   8   19] Na
   [ 118  437] K
   [  45  376] Cl
   [  80   80] P
Vm =      [60.2 -60.8]mV
Na ionCh: [  77   48]*10^-9 mol/m2s
Na pump:  [ -45 -179]*10^-9 mol/m2s
Na GJdrif:[  -1    1]*10^-9 mol/m2s
K  ionCh: [ -27 -115]*10^-9 mol/m2s
K  pump:  [  30  119]*10^-9 mol/m2s
K  GJdiff:[   5   -5]*10^-9 mol/m2s
K  GJdrif:[  -8    8]*10^-9 mol/m2s
Cl ionCh: [  31 -122]*10^-9 mol/m2s

Totals by ion from all sources:
Na total: [  32 -130]*10^-9 mol/m2s
K  total: [  -0    8]*10^-9 mol/m2s
Cl total: [  31 -122]*10^-9 mol/m2s

Grand valence-weighted totals from all sources across all ions:
          [   0   -0]*10^-9 mol/m2s

now the GJs by GJ (if any have non-zero flux):
Na GJ drif: [  -1]*10^-9 mol/m2s
K  GJ diff: [   5]*10^-9 mol/m2s
K  GJ drif: [  -8]*10^-9 mol/m2s
Goal deltaV=-85.0mV -> final Vmem=[60 -61]mV, delta=-121mV
Final pre-gate GJ diff=[[7.6e-10 2.1e-08 0]], drift=[[-2.3e-09 -3.6e-08 0]], GJ_gate=[0.23], net=-3.63e-09
Breaking 0.07999999999999999 into 0.03575 and -0.04424999999999999

t=0: dumping short-format...
cc_cells= (moles/m3)
   [   8   19] Na
   [ 118  437] K
   [  45  376] Cl
   [  80   80] P
Vm =      [60.2 -60.8]mV

t=10: dumping long-format...
cc_cells= (moles/m3)
   [   8   18] Na
   [ 118  437] K
   [  46  375] Cl
   [  80   80] P
Vm =      [57.9 -57.8]mV
Na ionCh: [  86   47]*10^-9 mol/m2s
Na pump:  [ -49 -174]*10^-9 mol/m2s
Na GJdrif:[  -1    1]*10^-9 mol/m2s
K  ionCh: [ -31 -109]*10^-9 mol/m2s
K  pump:  [  32  116]*10^-9 mol/m2s
K  GJdiff:[   5   -5]*10^-9 mol/m2s
K  GJdrif:[  -8    8]*10^-9 mol/m2s
Cl ionCh: [  36 -117]*10^-9 mol/m2s

Totals by ion from all sources:
Na total: [  37 -127]*10^-9 mol/m2s
K  total: [  -2   10]*10^-9 mol/m2s
Cl total: [  36 -117]*10^-9 mol/m2s

Grand valence-weighted totals from all sources across all ions:
          [  -0    0]*10^-9 mol/m2s

now the GJs by GJ (if any have non-zero flux):
Na GJ drif: [  -1]*10^-9 mol/m2s
K  GJ diff: [   5]*10^-9 mol/m2s
K  GJ drif: [  -8]*10^-9 mol/m2s
Goal deltaV=-80.0mV -> final Vmem=[58 -58]mV, delta=-116mV
Final pre-gate GJ diff=[[6.9e-10 2.1e-08 0]], drift=[[-2.3e-09 -3.4e-08 0]], GJ_gate=[0.23], net=-3.28e-09
Breaking 0.07499999999999998 into 0.033249999999999995 and -0.04174999999999999

t=0: dumping short-format...
cc_cells= (moles/m3)
   [   8   18] Na
   [ 118  437] K
   [  46  375] Cl
   [  80   80] P
Vm =      [57.9 -57.8]mV

t=10: dumping long-format...
cc_cells= (moles/m3)
   [   8   17] Na
   [ 118  437] K
   [  46  374] Cl
   [  80   80] P
Vm =      [55.7 -54.2]mV
Na ionCh: [  95   44]*10^-9 mol/m2s
Na pump:  [ -52 -169]*10^-9 mol/m2s
Na GJdrif:[  -1    1]*10^-9 mol/m2s
K  ionCh: [ -35 -102]*10^-9 mol/m2s
K  pump:  [  35  113]*10^-9 mol/m2s
K  GJdiff:[   5   -5]*10^-9 mol/m2s
K  GJdrif:[  -7    7]*10^-9 mol/m2s
Cl ionCh: [  40 -111]*10^-9 mol/m2s

Totals by ion from all sources:
Na total: [  42 -124]*10^-9 mol/m2s
K  total: [  -2   13]*10^-9 mol/m2s
Cl total: [  40 -111]*10^-9 mol/m2s

Grand valence-weighted totals from all sources across all ions:
          [  -0    0]*10^-9 mol/m2s

now the GJs by GJ (if any have non-zero flux):
Na GJ drif: [  -1]*10^-9 mol/m2s
K  GJ diff: [   5]*10^-9 mol/m2s
K  GJ drif: [  -7]*10^-9 mol/m2s
Goal deltaV=-75.0mV -> final Vmem=[56 -54]mV, delta=-110mV
Final pre-gate GJ diff=[[6.2e-10 2.1e-08 0]], drift=[[-2.2e-09 -3.2e-08 0]], GJ_gate=[0.23], net=-2.89e-09
Breaking 0.06999999999999998 into 0.030749999999999993 and -0.039249999999999986

t=0: dumping short-format...
cc_cells= (moles/m3)
   [   8   17] Na
   [ 118  437] K
   [  46  374] Cl
   [  80   80] P
Vm =      [55.7 -54.2]mV

t=10: dumping long-format...
cc_cells= (moles/m3)
   [   8   17] Na
   [ 118  437] K
   [  46  374] Cl
   [  80   80] P
Vm =      [53.1 -50.0]mV
Na ionCh: [  98   42]*10^-9 mol/m2s
Na pump:  [ -56 -163]*10^-9 mol/m2s
K  ionCh: [ -36  -94]*10^-9 mol/m2s
K  pump:  [  38  109]*10^-9 mol/m2s
K  GJdiff:[   5   -5]*10^-9 mol/m2s
K  GJdrif:[  -7    7]*10^-9 mol/m2s
Cl ionCh: [  41 -104]*10^-9 mol/m2s

Totals by ion from all sources:
Na total: [  42 -121]*10^-9 mol/m2s
K  total: [  -0   17]*10^-9 mol/m2s
Cl total: [  41 -104]*10^-9 mol/m2s

Grand valence-weighted totals from all sources across all ions:
          [   0    0]*10^-9 mol/m2s

now the GJs by GJ (if any have non-zero flux):
K  GJ diff: [   5]*10^-9 mol/m2s
K  GJ drif: [  -7]*10^-9 mol/m2s
Goal deltaV=-70.0mV -> final Vmem=[53 -50]mV, delta=-103mV
Final pre-gate GJ diff=[[5.5e-10 2.1e-08 0]], drift=[[-2.1e-09 -3e-08 0]], GJ_gate=[0.23], net=-2.43e-09
Breaking 0.06499999999999997 into 0.02824999999999999 and -0.036749999999999984

t=0: dumping short-format...
cc_cells= (moles/m3)
   [   8   17] Na
   [ 118  437] K
   [  46  374] Cl
   [  80   80] P
Vm =      [53.1 -50.0]mV

t=10: dumping long-format...
cc_cells= (moles/m3)
   [   9   16] Na
   [ 118  437] K
   [  46  373] Cl
   [  80   80] P
Vm =      [49.8 -46.9]mV
Na ionCh: [  95   40]*10^-9 mol/m2s
Na pump:  [ -60 -157]*10^-9 mol/m2s
K  ionCh: [ -34  -89]*10^-9 mol/m2s
K  pump:  [  40  105]*10^-9 mol/m2s
K  GJdiff:[   5   -5]*10^-9 mol/m2s
K  GJdrif:[  -7    7]*10^-9 mol/m2s
Cl ionCh: [  39  -99]*10^-9 mol/m2s

Totals by ion from all sources:
Na total: [  35 -116]*10^-9 mol/m2s
K  total: [   4   18]*10^-9 mol/m2s
Cl total: [  39  -99]*10^-9 mol/m2s

Grand valence-weighted totals from all sources across all ions:
          [  -0    0]*10^-9 mol/m2s

now the GJs by GJ (if any have non-zero flux):
K  GJ diff: [   5]*10^-9 mol/m2s
K  GJ drif: [  -7]*10^-9 mol/m2s
Goal deltaV=-65.0mV -> final Vmem=[50 -47]mV, delta=-97mV
Final pre-gate GJ diff=[[4.9e-10 2.1e-08 0]], drift=[[-2.1e-09 -2.8e-08 0]], GJ_gate=[0.24], net=-2.09e-09
Breaking 0.05999999999999997 into 0.025749999999999988 and -0.03424999999999998

t=0: dumping short-format...
cc_cells= (moles/m3)
   [   9   16] Na
   [ 118  437] K
   [  46  373] Cl
   [  80   80] P
Vm =      [49.8 -46.9]mV

t=10: dumping long-format...
cc_cells= (moles/m3)
   [   9   15] Na
   [ 118  437] K
   [  47  373] Cl
   [  80   80] P
Vm =      [45.5 -43.5]mV
Na ionCh: [  91   38]*10^-9 mol/m2s
Na pump:  [ -63 -150]*10^-9 mol/m2s
Na GJdrif:[  -1    1]*10^-9 mol/m2s
K  ionCh: [ -32  -83]*10^-9 mol/m2s
K  pump:  [  42  100]*10^-9 mol/m2s
K  GJdiff:[   6   -6]*10^-9 mol/m2s
K  GJdrif:[  -7    7]*10^-9 mol/m2s
Cl ionCh: [  37  -93]*10^-9 mol/m2s

Totals by ion from all sources:
Na total: [  28 -112]*10^-9 mol/m2s
K  total: [   8   18]*10^-9 mol/m2s
Cl total: [  37  -93]*10^-9 mol/m2s

Grand valence-weighted totals from all sources across all ions:
          [  -0    0]*10^-9 mol/m2s

now the GJs by GJ (if any have non-zero flux):
Na GJ drif: [  -1]*10^-9 mol/m2s
K  GJ diff: [   6]*10^-9 mol/m2s
K  GJ drif: [  -7]*10^-9 mol/m2s
Goal deltaV=-60.0mV -> final Vmem=[46 -44]mV, delta=-89mV
Final pre-gate GJ diff=[[4.3e-10 2.1e-08 0]], drift=[[-1.9e-09 -2.6e-08 0]], GJ_gate=[0.28], net=-1.77e-09
Breaking 0.054999999999999966 into 0.012749999999999984 and -0.04224999999999998

t=0: dumping short-format...
cc_cells= (moles/m3)
   [   9   15] Na
   [ 118  437] K
   [  47  373] Cl
   [  80   80] P
Vm =      [45.5 -43.5]mV

t=10: dumping long-format...
cc_cells= (moles/m3)
   [   9   15] Na
   [ 118  437] K
   [  47  372] Cl
   [  80   80] P
Vm =      [18.4 -53.9]mV
Na ionCh: [  64   44]*10^-9 mol/m2s
Na pump:  [ -63 -144]*10^-9 mol/m2s
Na GJdrif:[  -1    1]*10^-9 mol/m2s
K  ionCh: [ -21 -107]*10^-9 mol/m2s
K  pump:  [  42   96]*10^-9 mol/m2s
K  GJdiff:[   9   -9]*10^-9 mol/m2s
K  GJdrif:[  -9    9]*10^-9 mol/m2s
Cl ionCh: [  21 -110]*10^-9 mol/m2s

Totals by ion from all sources:
Na total: [   1  -99]*10^-9 mol/m2s
K  total: [  20  -11]*10^-9 mol/m2s
Cl total: [  21 -110]*10^-9 mol/m2s

Grand valence-weighted totals from all sources across all ions:
          [   0   -0]*10^-9 mol/m2s

now the GJs by GJ (if any have non-zero flux):
Na GJ drif: [  -1]*10^-9 mol/m2s
K  GJ diff: [   9]*10^-9 mol/m2s
K  GJ drif: [  -9]*10^-9 mol/m2s
Goal deltaV=-55.0mV -> final Vmem=[18 -54]mV, delta=-72mV
Final pre-gate GJ diff=[[3.9e-10 2.1e-08 0]], drift=[[-1.6e-09 -2.1e-08 0]], GJ_gate=[0.4], net=-4.7e-10
Breaking 0.04999999999999996 into 0.010249999999999981 and -0.03974999999999998

t=0: dumping short-format...
cc_cells= (moles/m3)
   [   9   15] Na
   [ 118  437] K
   [  47  372] Cl
   [  80   80] P
Vm =      [18.4 -53.9]mV

t=10: dumping long-format...
cc_cells= (moles/m3)
   [   9   14] Na
   [ 118  437] K
   [  47  371] Cl
   [  80   80] P
Vm =      [15.6 -49.8]mV
Na ionCh: [  61   42]*10^-9 mol/m2s
Na pump:  [ -62 -137]*10^-9 mol/m2s
Na GJdrif:[  -1    1]*10^-9 mol/m2s
K  ionCh: [ -20  -99]*10^-9 mol/m2s
K  pump:  [  42   92]*10^-9 mol/m2s
K  GJdiff:[   9   -9]*10^-9 mol/m2s
K  GJdrif:[  -8    8]*10^-9 mol/m2s
Cl ionCh: [  20 -103]*10^-9 mol/m2s

Totals by ion from all sources:
Na total: [  -2  -95]*10^-9 mol/m2s
K  total: [  22   -8]*10^-9 mol/m2s
Cl total: [  20 -103]*10^-9 mol/m2s

Grand valence-weighted totals from all sources across all ions:
          [  -0    0]*10^-9 mol/m2s

now the GJs by GJ (if any have non-zero flux):
Na GJ drif: [  -1]*10^-9 mol/m2s
K  GJ diff: [   9]*10^-9 mol/m2s
K  GJ drif: [  -8]*10^-9 mol/m2s
Goal deltaV=-50.0mV -> final Vmem=[16 -50]mV, delta=-65mV
Final pre-gate GJ diff=[[3.5e-10 2.1e-08 0]], drift=[[-1.4e-09 -1.9e-08 0]], GJ_gate=[0.44], net=4.03e-10
Breaking 0.04499999999999996 into 0.007749999999999979 and -0.03724999999999998

t=0: dumping short-format...
cc_cells= (moles/m3)
   [   9   14] Na
   [ 118  437] K
   [  47  371] Cl
   [  80   80] P
Vm =      [15.6 -49.8]mV

t=10: dumping long-format...
cc_cells= (moles/m3)
   [   9   13] Na
   [ 118  437] K
   [  47  371] Cl
   [  80   80] P
Vm =      [14.2 -46.4]mV
Na ionCh: [  59   40]*10^-9 mol/m2s
Na pump:  [ -62 -131]*10^-9 mol/m2s
Na GJdrif:[  -1    1]*10^-9 mol/m2s
K  ionCh: [ -20  -92]*10^-9 mol/m2s
K  pump:  [  41   87]*10^-9 mol/m2s
K  GJdiff:[  10  -10]*10^-9 mol/m2s
K  GJdrif:[  -8    8]*10^-9 mol/m2s
Cl ionCh: [  19  -97]*10^-9 mol/m2s

Totals by ion from all sources:
Na total: [  -4  -90]*10^-9 mol/m2s
K  total: [  23   -7]*10^-9 mol/m2s
Cl total: [  19  -97]*10^-9 mol/m2s

Grand valence-weighted totals from all sources across all ions:
          [  -0    0]*10^-9 mol/m2s

now the GJs by GJ (if any have non-zero flux):
Na GJ drif: [  -1]*10^-9 mol/m2s
K  GJ diff: [  10]*10^-9 mol/m2s
K  GJ drif: [  -8]*10^-9 mol/m2s
Goal deltaV=-45.0mV -> final Vmem=[14 -46]mV, delta=-61mV
Final pre-gate GJ diff=[[3.1e-10 2.1e-08 0]], drift=[[-1.3e-09 -1.8e-08 0]], GJ_gate=[0.46], net=1.09e-09
Breaking 0.03999999999999995 into 0.005249999999999977 and -0.034749999999999975

t=0: dumping short-format...
cc_cells= (moles/m3)
   [   9   13] Na
   [ 118  437] K
   [  47  371] Cl
   [  80   80] P
Vm =      [14.2 -46.4]mV

t=10: dumping long-format...
cc_cells= (moles/m3)
   [   9   13] Na
   [ 118  437] K
   [  47  370] Cl
   [  80   80] P
Vm =      [12.8 -43.0]mV
Na ionCh: [  57   38]*10^-9 mol/m2s
Na pump:  [ -62 -124]*10^-9 mol/m2s
Na GJdrif:[  -1    1]*10^-9 mol/m2s
K  ionCh: [ -19  -87]*10^-9 mol/m2s
K  pump:  [  41   83]*10^-9 mol/m2s
K  GJdiff:[  10  -10]*10^-9 mol/m2s
K  GJdrif:[  -8    8]*10^-9 mol/m2s
Cl ionCh: [  19  -92]*10^-9 mol/m2s

Totals by ion from all sources:
Na total: [  -5  -85]*10^-9 mol/m2s
K  total: [  24   -7]*10^-9 mol/m2s
Cl total: [  19  -92]*10^-9 mol/m2s

Grand valence-weighted totals from all sources across all ions:
          [   0   -0]*10^-9 mol/m2s

now the GJs by GJ (if any have non-zero flux):
Na GJ drif: [  -1]*10^-9 mol/m2s
K  GJ diff: [  10]*10^-9 mol/m2s
K  GJ drif: [  -8]*10^-9 mol/m2s
Goal deltaV=-40.0mV -> final Vmem=[13 -43]mV, delta=-56mV
Final pre-gate GJ diff=[[2.8e-10 2.1e-08 0]], drift=[[-1.2e-09 -1.6e-08 0]], GJ_gate=[0.48], net=1.83e-09
Breaking 0.03499999999999995 into 0.0027499999999999747 and -0.03224999999999997

t=0: dumping short-format...
cc_cells= (moles/m3)
   [   9   13] Na
   [ 118  437] K
   [  47  370] Cl
   [  80   80] P
Vm =      [12.8 -43.0]mV

t=10: dumping long-format...
cc_cells= (moles/m3)
   [   9   12] Na
   [ 119  437] K
   [  47  370] Cl
   [  80   80] P
Vm =      [ 9.6 -39.4]mV
Na ionCh: [  53   36]*10^-9 mol/m2s
Na pump:  [ -61 -117]*10^-9 mol/m2s
Na GJdrif:[  -1    1]*10^-9 mol/m2s
K  ionCh: [ -18  -80]*10^-9 mol/m2s
K  pump:  [  40   78]*10^-9 mol/m2s
K  GJdiff:[  10  -10]*10^-9 mol/m2s
K  GJdrif:[  -7    7]*10^-9 mol/m2s
Cl ionCh: [  17  -86]*10^-9 mol/m2s

Totals by ion from all sources:
Na total: [  -8  -81]*10^-9 mol/m2s
K  total: [  25   -5]*10^-9 mol/m2s
Cl total: [  17  -86]*10^-9 mol/m2s

Grand valence-weighted totals from all sources across all ions:
          [   0    0]*10^-9 mol/m2s

now the GJs by GJ (if any have non-zero flux):
Na GJ drif: [  -1]*10^-9 mol/m2s
K  GJ diff: [  10]*10^-9 mol/m2s
K  GJ drif: [  -7]*10^-9 mol/m2s
Goal deltaV=-35.0mV -> final Vmem=[10 -39]mV, delta=-49mV
Final pre-gate GJ diff=[[2.5e-10 2.1e-08 0]], drift=[[-1.1e-09 -1.5e-08 0]], GJ_gate=[0.49], net=2.92e-09
Breaking 0.029999999999999943 into 0.00024999999999997247 and -0.02974999999999997

t=0: dumping short-format...
cc_cells= (moles/m3)
   [   9   12] Na
   [ 119  437] K
   [  47  370] Cl
   [  80   80] P
Vm =      [ 9.6 -39.4]mV

t=10: dumping long-format...
cc_cells= (moles/m3)
   [   9   12] Na
   [ 119  437] K
   [  47  369] Cl
   [  80   80] P
Vm =      [ 3.9 -36.3]mV
Na ionCh: [  46   35]*10^-9 mol/m2s
Na pump:  [ -59 -110]*10^-9 mol/m2s
K  ionCh: [ -16  -75]*10^-9 mol/m2s
K  pump:  [  40   74]*10^-9 mol/m2s
K  GJdiff:[  11  -11]*10^-9 mol/m2s
K  GJdrif:[  -6    6]*10^-9 mol/m2s
Cl ionCh: [  14  -81]*10^-9 mol/m2s

Totals by ion from all sources:
Na total: [ -14  -76]*10^-9 mol/m2s
K  total: [  28   -6]*10^-9 mol/m2s
Cl total: [  14  -81]*10^-9 mol/m2s

Grand valence-weighted totals from all sources across all ions:
          [   0    0]*10^-9 mol/m2s

now the GJs by GJ (if any have non-zero flux):
K  GJ diff: [  11]*10^-9 mol/m2s
K  GJ drif: [  -6]*10^-9 mol/m2s
Goal deltaV=-30.0mV -> final Vmem=[4 -36]mV, delta=-40mV
Final pre-gate GJ diff=[[2.2e-10 2.1e-08 0]], drift=[[-8.6e-10 -1.2e-08 0]], GJ_gate=[0.51], net=4.4e-09
Breaking 0.02499999999999994 into -0.0022500000000000298 and -0.02724999999999997

t=0: dumping short-format...
cc_cells= (moles/m3)
   [   9   12] Na
   [ 119  437] K
   [  47  369] Cl
   [  80   80] P
Vm =      [ 3.9 -36.3]mV

t=10: dumping long-format...
cc_cells= (moles/m3)
   [   8   11] Na
   [ 119  437] K
   [  47  369] Cl
   [  80   80] P
Vm =      [-3.1 -34.1]mV
Na ionCh: [  38   33]*10^-9 mol/m2s
Na pump:  [ -57 -104]*10^-9 mol/m2s
K  ionCh: [ -14  -71]*10^-9 mol/m2s
K  pump:  [  38   69]*10^-9 mol/m2s
K  GJdiff:[  11  -11]*10^-9 mol/m2s
K  GJdrif:[  -5    5]*10^-9 mol/m2s
Cl ionCh: [  11  -78]*10^-9 mol/m2s

Totals by ion from all sources:
Na total: [ -19  -70]*10^-9 mol/m2s
K  total: [  30   -7]*10^-9 mol/m2s
Cl total: [  11  -78]*10^-9 mol/m2s

Grand valence-weighted totals from all sources across all ions:
          [   0    0]*10^-9 mol/m2s

now the GJs by GJ (if any have non-zero flux):
K  GJ diff: [  11]*10^-9 mol/m2s
K  GJ drif: [  -5]*10^-9 mol/m2s
Goal deltaV=-25.0mV -> final Vmem=[-3 -34]mV, delta=-31mV
Final pre-gate GJ diff=[[2e-10 2.1e-08 0]], drift=[[-6.5e-10 -9.2e-09 0]], GJ_gate=[0.52], net=5.98e-09
Breaking 0.019999999999999934 into -0.004750000000000032 and -0.024749999999999966

t=0: dumping short-format...
cc_cells= (moles/m3)
   [   8   11] Na
   [ 119  437] K
   [  47  369] Cl
   [  80   80] P
Vm =      [-3.1 -34.1]mV

t=10: dumping long-format...
cc_cells= (moles/m3)
   [   8   11] Na
   [ 119  437] K
   [  47  368] Cl
   [  80   80] P
Vm =      [-4.9 -31.5]mV
Na ionCh: [ 357  321]*10^-10 mol/m2s
Na pump:  [-555 -979]*10^-10 mol/m2s
Na GJdiff:[   1   -1]*10^-10 mol/m2s
Na GJdrif:[  -3    3]*10^-10 mol/m2s
K  ionCh: [-138 -666]*10^-10 mol/m2s
K  pump:  [ 370  653]*10^-10 mol/m2s
K  GJdiff:[ 111 -111]*10^-10 mol/m2s
K  GJdrif:[ -41   41]*10^-10 mol/m2s
Cl ionCh: [ 101 -738]*10^-10 mol/m2s

Totals by ion from all sources:
Na total: [-200 -655]*10^-10 mol/m2s
K  total: [ 302  -82]*10^-10 mol/m2s
Cl total: [ 101 -738]*10^-10 mol/m2s

Grand valence-weighted totals from all sources across all ions:
          [   0    0]*10^-10 mol/m2s

now the GJs by GJ (if any have non-zero flux):
Na GJ diff: [   1]*10^-10 mol/m2s
Na GJ drif: [  -3]*10^-10 mol/m2s
K  GJ diff: [ 111]*10^-10 mol/m2s
K  GJ drif: [ -41]*10^-10 mol/m2s
Goal deltaV=-20.0mV -> final Vmem=[-5 -31]mV, delta=-27mV
Final pre-gate GJ diff=[[1.8e-10 2.1e-08 0]], drift=[[-5.5e-10 -7.9e-09 0]], GJ_gate=[0.52], net=6.74e-09
Breaking 0.01499999999999993 into -0.007250000000000034 and -0.022249999999999964

t=0: dumping short-format...
cc_cells= (moles/m3)
   [   8   11] Na
   [ 119  437] K
   [  47  368] Cl
   [  80   80] P
Vm =      [-4.9 -31.5]mV

t=10: dumping long-format...
cc_cells= (moles/m3)
   [   8   11] Na
   [ 119  437] K
   [  47  368] Cl
   [  80   80] P
Vm =      [-6.8 -28.6]mV
Na ionCh: [ 327  307]*10^-10 mol/m2s
Na pump:  [-535 -920]*10^-10 mol/m2s
Na GJdiff:[   1   -1]*10^-10 mol/m2s
Na GJdrif:[  -2    2]*10^-10 mol/m2s
K  ionCh: [-132 -620]*10^-10 mol/m2s
K  pump:  [ 357  613]*10^-10 mol/m2s
K  GJdiff:[ 111 -111]*10^-10 mol/m2s
K  GJdrif:[ -34   34]*10^-10 mol/m2s
Cl ionCh: [  92 -695]*10^-10 mol/m2s

Totals by ion from all sources:
Na total: [-209 -611]*10^-10 mol/m2s
K  total: [ 302  -84]*10^-10 mol/m2s
Cl total: [  92 -695]*10^-10 mol/m2s

Grand valence-weighted totals from all sources across all ions:
          [   0    0]*10^-10 mol/m2s

now the GJs by GJ (if any have non-zero flux):
Na GJ diff: [   1]*10^-10 mol/m2s
Na GJ drif: [  -2]*10^-10 mol/m2s
K  GJ diff: [ 111]*10^-10 mol/m2s
K  GJ drif: [ -34]*10^-10 mol/m2s
Goal deltaV=-15.0mV -> final Vmem=[-7 -29]mV, delta=-22mV
Final pre-gate GJ diff=[[1.7e-10 2.1e-08 0]], drift=[[-4.4e-10 -6.5e-09 0]], GJ_gate=[0.52], net=7.56e-09
Breaking 0.009999999999999926 into -0.009750000000000036 and -0.019749999999999962

t=0: dumping short-format...
cc_cells= (moles/m3)
   [   8   11] Na
   [ 119  437] K
   [  47  368] Cl
   [  80   80] P
Vm =      [-6.8 -28.6]mV

t=10: dumping long-format...
cc_cells= (moles/m3)
   [   8   10] Na
   [ 119  437] K
   [  47  367] Cl
   [  80   80] P
Vm =      [-8.9 -25.5]mV
Na ionCh: [ 296  292]*10^-10 mol/m2s
Na pump:  [-514 -863]*10^-10 mol/m2s
Na GJdiff:[   1   -1]*10^-10 mol/m2s
Na GJdrif:[  -2    2]*10^-10 mol/m2s
K  ionCh: [-126 -567]*10^-10 mol/m2s
K  pump:  [ 343  575]*10^-10 mol/m2s
K  GJdiff:[ 112 -112]*10^-10 mol/m2s
K  GJdrif:[ -26   26]*10^-10 mol/m2s
Cl ionCh: [  83 -648]*10^-10 mol/m2s

Totals by ion from all sources:
Na total: [-219 -570]*10^-10 mol/m2s
K  total: [ 302  -77]*10^-10 mol/m2s
Cl total: [  83 -648]*10^-10 mol/m2s

Grand valence-weighted totals from all sources across all ions:
          [   0    0]*10^-10 mol/m2s

now the GJs by GJ (if any have non-zero flux):
Na GJ diff: [   1]*10^-10 mol/m2s
Na GJ drif: [  -2]*10^-10 mol/m2s
K  GJ diff: [ 112]*10^-10 mol/m2s
K  GJ drif: [ -26]*10^-10 mol/m2s
Goal deltaV=-10.0mV -> final Vmem=[-9 -25]mV, delta=-17mV
Final pre-gate GJ diff=[[1.5e-10 2.1e-08 0]], drift=[[-3.3e-10 -4.9e-09 0]], GJ_gate=[0.53], net=8.47e-09
Breaking 0.004999999999999921 into -0.012250000000000039 and -0.01724999999999996

t=0: dumping short-format...
cc_cells= (moles/m3)
   [   8   10] Na
   [ 119  437] K
   [  47  367] Cl
   [  80   80] P
Vm =      [-8.9 -25.5]mV

t=10: dumping long-format...
cc_cells= (moles/m3)
   [   8   10] Na
   [ 120  437] K
   [  48  367] Cl
   [  80   80] P
Vm =      [-11.3 -21.9]mV
Na ionCh: [ 262  275]*10^-10 mol/m2s
Na pump:  [-493 -811]*10^-10 mol/m2s
Na GJdiff:[   1   -1]*10^-10 mol/m2s
Na GJdrif:[  -1    1]*10^-10 mol/m2s
K  ionCh: [-120 -506]*10^-10 mol/m2s
K  pump:  [ 328  540]*10^-10 mol/m2s
K  GJdiff:[ 112 -112]*10^-10 mol/m2s
K  GJdrif:[ -17   17]*10^-10 mol/m2s
Cl ionCh: [  72 -597]*10^-10 mol/m2s

Totals by ion from all sources:
Na total: [-231 -535]*10^-10 mol/m2s
K  total: [ 304  -61]*10^-10 mol/m2s
Cl total: [  72 -597]*10^-10 mol/m2s

Grand valence-weighted totals from all sources across all ions:
          [   0    0]*10^-10 mol/m2s

now the GJs by GJ (if any have non-zero flux):
Na GJ diff: [   1]*10^-10 mol/m2s
Na GJ drif: [  -1]*10^-10 mol/m2s
K  GJ diff: [ 112]*10^-10 mol/m2s
K  GJ drif: [ -17]*10^-10 mol/m2s
Goal deltaV=-5.0mV -> final Vmem=[-11 -22]mV, delta=-11mV
Final pre-gate GJ diff=[[1.4e-10 2.1e-08 0]], drift=[[-2.1e-10 -3.2e-09 0]], GJ_gate=[0.53], net=9.48e-09
Breaking 8.326672684688674e-17 into -0.014749999999999958 and -0.01475000000000004

t=0: dumping short-format...
cc_cells= (moles/m3)
   [   8   10] Na
   [ 120  437] K
   [  48  367] Cl
   [  80   80] P
Vm =      [-11.3 -21.9]mV

t=10: dumping long-format...
cc_cells= (moles/m3)
   [   8   10] Na
   [ 120  437] K
   [  48  367] Cl
   [  80   80] P
Vm =      [-13.5 -17.8]mV
Na ionCh: [ 239  256]*10^-10 mol/m2s
Na pump:  [-471 -759]*10^-10 mol/m2s
Na GJdiff:[   1   -1]*10^-10 mol/m2s
K  ionCh: [-124 -436]*10^-10 mol/m2s
K  pump:  [ 314  506]*10^-10 mol/m2s
K  GJdiff:[ 112 -112]*10^-10 mol/m2s
K  GJdrif:[  -7    7]*10^-10 mol/m2s
Cl ionCh: [  63 -539]*10^-10 mol/m2s

Totals by ion from all sources:
Na total: [-232 -504]*10^-10 mol/m2s
K  total: [ 295  -35]*10^-10 mol/m2s
Cl total: [  63 -539]*10^-10 mol/m2s

Grand valence-weighted totals from all sources across all ions:
          [   0    0]*10^-10 mol/m2s

now the GJs by GJ (if any have non-zero flux):
Na GJ diff: [   1]*10^-10 mol/m2s
K  GJ diff: [ 112]*10^-10 mol/m2s
K  GJ drif: [  -7]*10^-10 mol/m2s
Goal deltaV=0.0mV -> final Vmem=[-14 -18]mV, delta=-4mV
Final pre-gate GJ diff=[[1.3e-10 2.1e-08 0]], drift=[[-8.3e-11 -1.3e-09 0]], GJ_gate=[0.53], net=1.06e-08
Breaking 0.005000000000000088 into -0.012249999999999955 and -0.017250000000000043

t=0: dumping short-format...
cc_cells= (moles/m3)
   [   8   10] Na
   [ 120  437] K
   [  48  367] Cl
   [  80   80] P
Vm =      [-13.5 -17.8]mV

t=10: dumping long-format...
cc_cells= (moles/m3)
   [ 7.6  9.3] Na
   [ 120  437] K
   [  48  366] Cl
   [  80   80] P
Vm =      [-15.1 -14.9]mV
Na ionCh: [ 246  279]*10^-10 mol/m2s
Na pump:  [-452 -715]*10^-10 mol/m2s
Na GJdiff:[   1   -1]*10^-10 mol/m2s
K  ionCh: [-152 -426]*10^-10 mol/m2s
K  pump:  [ 301  477]*10^-10 mol/m2s
K  GJdiff:[ 112 -112]*10^-10 mol/m2s
K  GJdrif:[   1   -1]*10^-10 mol/m2s
Cl ionCh: [  56 -499]*10^-10 mol/m2s

Totals by ion from all sources:
Na total: [-206 -437]*10^-10 mol/m2s
K  total: [ 262  -63]*10^-10 mol/m2s
Cl total: [  56 -499]*10^-10 mol/m2s

Grand valence-weighted totals from all sources across all ions:
          [   1   -1]*10^-10 mol/m2s

now the GJs by GJ (if any have non-zero flux):
Na GJ diff: [   1]*10^-10 mol/m2s
K  GJ diff: [ 112]*10^-10 mol/m2s
K  GJ drif: [   1]*10^-10 mol/m2s
Goal deltaV=5.0mV -> final Vmem=[-15 -15]mV, delta=0mV
Final pre-gate GJ diff=[[1.2e-10 2.1e-08 0]], drift=[[4e-12 1.9e-10 -0]], GJ_gate=[0.53], net=1.14e-08
Breaking 0.010000000000000092 into -0.009749999999999953 and -0.019750000000000045

t=0: dumping short-format...
cc_cells= (moles/m3)
   [ 7.6  9.3] Na
   [ 120  437] K
   [  48  366] Cl
   [  80   80] P
Vm =      [-15.1 -14.9]mV

t=10: dumping long-format...
cc_cells= (moles/m3)
   [ 7.5  9.1] Na
   [ 120  437] K
   [  48  366] Cl
   [  80   80] P
Vm =      [-16.0 -13.4]mV
Na ionCh: [ 250  320]*10^-10 mol/m2s
Na pump:  [-435 -679]*10^-10 mol/m2s
Na GJdiff:[   1   -1]*10^-10 mol/m2s
K  ionCh: [-181 -440]*10^-10 mol/m2s
K  pump:  [ 290  453]*10^-10 mol/m2s
K  GJdiff:[ 112 -112]*10^-10 mol/m2s
K  GJdrif:[  15  -15]*10^-10 mol/m2s
Cl ionCh: [  52 -477]*10^-10 mol/m2s

Totals by ion from all sources:
Na total: [-185 -360]*10^-10 mol/m2s
K  total: [ 236 -115]*10^-10 mol/m2s
Cl total: [  52 -477]*10^-10 mol/m2s

Grand valence-weighted totals from all sources across all ions:
          [  -0    2]*10^-10 mol/m2s

now the GJs by GJ (if any have non-zero flux):
Na GJ diff: [   1]*10^-10 mol/m2s
K  GJ diff: [ 112]*10^-10 mol/m2s
K  GJ drif: [  15]*10^-10 mol/m2s
Goal deltaV=10.0mV -> final Vmem=[-16 -13]mV, delta=3mV
Final pre-gate GJ diff=[[1.1e-10 2.1e-08 0]], drift=[[6e-11 2.9e-09 -0]], GJ_gate=[0.53], net=1.28e-08
Breaking 0.015000000000000097 into -0.007249999999999951 and -0.022250000000000048

t=0: dumping short-format...
cc_cells= (moles/m3)
   [ 7.5  9.1] Na
   [ 120  437] K
   [  48  366] Cl
   [  80   80] P
Vm =      [-16.0 -13.4]mV

t=10: dumping long-format...
cc_cells= (moles/m3)
   [ 7.4  8.9] Na
   [ 120  437] K
   [  48  366] Cl
   [  80   80] P
Vm =      [-17.0 -11.8]mV
Na ionCh: [ 254  359]*10^-10 mol/m2s
Na pump:  [-421 -651]*10^-10 mol/m2s
Na GJdiff:[   1   -1]*10^-10 mol/m2s
Na GJdrif:[   1   -1]*10^-10 mol/m2s
K  ionCh: [-209 -455]*10^-10 mol/m2s
K  pump:  [ 281  434]*10^-10 mol/m2s
K  GJdiff:[ 112 -112]*10^-10 mol/m2s
K  GJdrif:[  30  -30]*10^-10 mol/m2s
Cl ionCh: [  48 -455]*10^-10 mol/m2s

Totals by ion from all sources:
Na total: [-166 -293]*10^-10 mol/m2s
K  total: [ 214 -163]*10^-10 mol/m2s
Cl total: [  48 -455]*10^-10 mol/m2s

Grand valence-weighted totals from all sources across all ions:
          [   0   -0]*10^-10 mol/m2s

now the GJs by GJ (if any have non-zero flux):
Na GJ diff: [   1]*10^-10 mol/m2s
Na GJ drif: [   1]*10^-10 mol/m2s
K  GJ diff: [ 112]*10^-10 mol/m2s
K  GJ drif: [  30]*10^-10 mol/m2s
Goal deltaV=15.0mV -> final Vmem=[-17 -12]mV, delta=5mV
Final pre-gate GJ diff=[[1e-10 2.1e-08 0]], drift=[[1.1e-10 5.6e-09 -0]], GJ_gate=[0.53], net=1.43e-08
Breaking 0.0200000000000001 into -0.004749999999999949 and -0.02475000000000005

t=0: dumping short-format...
cc_cells= (moles/m3)
   [ 7.4  8.9] Na
   [ 120  437] K
   [  48  366] Cl
   [  80   80] P
Vm =      [-17.0 -11.8]mV

t=10: dumping long-format...
cc_cells= (moles/m3)
   [ 7.3  8.8] Na
   [ 120  437] K
   [  48  366] Cl
   [  80   80] P
Vm =      [-17.9 -10.5]mV
Na ionCh: [ 258  397]*10^-10 mol/m2s
Na pump:  [-408 -628]*10^-10 mol/m2s
Na GJdiff:[   1   -1]*10^-10 mol/m2s
Na GJdrif:[   1   -1]*10^-10 mol/m2s
K  ionCh: [-235 -467]*10^-10 mol/m2s
K  pump:  [ 272  419]*10^-10 mol/m2s
K  GJdiff:[ 112 -112]*10^-10 mol/m2s
K  GJdrif:[  42  -42]*10^-10 mol/m2s
Cl ionCh: [  44 -437]*10^-10 mol/m2s

Totals by ion from all sources:
Na total: [-148 -232]*10^-10 mol/m2s
K  total: [ 191 -203]*10^-10 mol/m2s
Cl total: [  44 -437]*10^-10 mol/m2s

Grand valence-weighted totals from all sources across all ions:
          [  -1    3]*10^-10 mol/m2s

now the GJs by GJ (if any have non-zero flux):
Na GJ diff: [   1]*10^-10 mol/m2s
Na GJ drif: [   1]*10^-10 mol/m2s
K  GJ diff: [ 112]*10^-10 mol/m2s
K  GJ drif: [  42]*10^-10 mol/m2s
Goal deltaV=20.0mV -> final Vmem=[-18 -11]mV, delta=7mV
Final pre-gate GJ diff=[[9.9e-11 2.1e-08 0]], drift=[[1.6e-10 8e-09 -0]], GJ_gate=[0.53], net=1.56e-08
Breaking 0.025000000000000105 into -0.0022499999999999465 and -0.027250000000000052

t=0: dumping short-format...
cc_cells= (moles/m3)
   [ 7.3  8.8] Na
   [ 120  437] K
   [  48  366] Cl
   [  80   80] P
Vm =      [-17.9 -10.5]mV

t=10: dumping long-format...
cc_cells= (moles/m3)
   [ 7.2  8.6] Na
   [ 121  437] K
   [  48  365] Cl
   [  80   80] P
Vm =      [-18.8 -9.1]mV
Na ionCh: [ 263  433]*10^-10 mol/m2s
Na pump:  [-397 -610]*10^-10 mol/m2s
Na GJdiff:[   1   -1]*10^-10 mol/m2s
Na GJdrif:[   1   -1]*10^-10 mol/m2s
K  ionCh: [-259 -480]*10^-10 mol/m2s
K  pump:  [ 264  407]*10^-10 mol/m2s
K  GJdiff:[ 112 -112]*10^-10 mol/m2s
K  GJdrif:[  56  -56]*10^-10 mol/m2s
Cl ionCh: [  40 -419]*10^-10 mol/m2s

Totals by ion from all sources:
Na total: [-132 -179]*10^-10 mol/m2s
K  total: [ 173 -241]*10^-10 mol/m2s
Cl total: [  40 -419]*10^-10 mol/m2s

Grand valence-weighted totals from all sources across all ions:
          [   1   -2]*10^-10 mol/m2s

now the GJs by GJ (if any have non-zero flux):
Na GJ diff: [   1]*10^-10 mol/m2s
Na GJ drif: [   1]*10^-10 mol/m2s
K  GJ diff: [ 112]*10^-10 mol/m2s
K  GJ drif: [  56]*10^-10 mol/m2s
Goal deltaV=25.0mV -> final Vmem=[-19 -9]mV, delta=10mV
Final pre-gate GJ diff=[[9.7e-11 2.1e-08 0]], drift=[[2.1e-10 1.1e-08 -0]], GJ_gate=[0.53], net=1.69e-08
Breaking 0.03000000000000011 into 0.00025000000000005573 and -0.029750000000000054

t=0: dumping short-format...
cc_cells= (moles/m3)
   [ 7.2  8.6] Na
   [ 121  437] K
   [  48  365] Cl
   [  80   80] P
Vm =      [-18.8 -9.1]mV

t=10: dumping long-format...
cc_cells= (moles/m3)
   [ 7.1  8.6] Na
   [ 121  436] K
   [  48  365] Cl
   [  80   80] P
Vm =      [-18.9 -5.0]mV
Na ionCh: [ 263  555]*10^-10 mol/m2s
Na pump:  [-386 -605]*10^-10 mol/m2s
Na GJdiff:[   1   -1]*10^-10 mol/m2s
Na GJdrif:[   2   -2]*10^-10 mol/m2s
K  ionCh: [-289 -521]*10^-10 mol/m2s
K  pump:  [ 257  404]*10^-10 mol/m2s
K  GJdiff:[ 111 -111]*10^-10 mol/m2s
K  GJdrif:[  80  -80]*10^-10 mol/m2s
Cl ionCh: [  40 -365]*10^-10 mol/m2s

Totals by ion from all sources:
Na total: [-121  -53]*10^-10 mol/m2s
K  total: [ 160 -309]*10^-10 mol/m2s
Cl total: [  40 -365]*10^-10 mol/m2s

Grand valence-weighted totals from all sources across all ions:
          [  -1    3]*10^-10 mol/m2s

now the GJs by GJ (if any have non-zero flux):
Na GJ diff: [   1]*10^-10 mol/m2s
Na GJ drif: [   2]*10^-10 mol/m2s
K  GJ diff: [ 111]*10^-10 mol/m2s
K  GJ drif: [  80]*10^-10 mol/m2s
Goal deltaV=30.0mV -> final Vmem=[-19 -5]mV, delta=14mV
Final pre-gate GJ diff=[[1e-10 2.1e-08 0]], drift=[[3e-10 1.5e-08 -0]], GJ_gate=[0.53], net=1.93e-08
Breaking 0.035000000000000114 into 0.002750000000000058 and -0.032250000000000056

t=0: dumping short-format...
cc_cells= (moles/m3)
   [ 7.1  8.6] Na
   [ 121  436] K
   [  48  365] Cl
   [  80   80] P
Vm =      [-18.9 -5.0]mV

t=10: dumping long-format...
cc_cells= (moles/m3)
   [ 7.0  8.6] Na
   [ 121  436] K
   [  48  365] Cl
   [  80   80] P
Vm =      [-19.9 -1.3]mV
Na ionCh: [ 268  670]*10^-10 mol/m2s
Na pump:  [-377 -611]*10^-10 mol/m2s
Na GJdiff:[   1   -1]*10^-10 mol/m2s
Na GJdrif:[   2   -2]*10^-10 mol/m2s
K  ionCh: [-328 -560]*10^-10 mol/m2s
K  pump:  [ 251  407]*10^-10 mol/m2s
K  GJdiff:[ 111 -111]*10^-10 mol/m2s
K  GJdrif:[ 106 -106]*10^-10 mol/m2s
Cl ionCh: [  35 -317]*10^-10 mol/m2s

Totals by ion from all sources:
Na total: [-107   57]*10^-10 mol/m2s
K  total: [ 141 -370]*10^-10 mol/m2s
Cl total: [  35 -317]*10^-10 mol/m2s

Grand valence-weighted totals from all sources across all ions:
          [  -1    3]*10^-10 mol/m2s

now the GJs by GJ (if any have non-zero flux):
Na GJ diff: [   1]*10^-10 mol/m2s
Na GJ drif: [   2]*10^-10 mol/m2s
K  GJ diff: [ 111]*10^-10 mol/m2s
K  GJ drif: [ 106]*10^-10 mol/m2s
Goal deltaV=35.0mV -> final Vmem=[-20 -1]mV, delta=19mV
Final pre-gate GJ diff=[[1.1e-10 2.1e-08 0]], drift=[[4e-10 2e-08 -0]], GJ_gate=[0.53], net=2.2e-08
Breaking 0.04000000000000012 into 0.00525000000000006 and -0.03475000000000006

t=0: dumping short-format...
cc_cells= (moles/m3)
   [ 7.0  8.6] Na
   [ 121  436] K
   [  48  365] Cl
   [  80   80] P
Vm =      [-19.9 -1.3]mV

t=10: dumping long-format...
cc_cells= (moles/m3)
   [ 7.0  8.7] Na
   [ 121  436] K
   [  48  365] Cl
   [  80   80] P
Vm =      [-22.0  0.8]mV
Na ionCh: [ 278  742]*10^-10 mol/m2s
Na pump:  [-369 -623]*10^-10 mol/m2s
Na GJdiff:[   1   -1]*10^-10 mol/m2s
Na GJdrif:[   3   -3]*10^-10 mol/m2s
K  ionCh: [-370 -584]*10^-10 mol/m2s
K  pump:  [ 246  415]*10^-10 mol/m2s
K  GJdiff:[ 110 -110]*10^-10 mol/m2s
K  GJdrif:[ 130 -130]*10^-10 mol/m2s
Cl ionCh: [  27 -289]*10^-10 mol/m2s

Totals by ion from all sources:
Na total: [ -89  116]*10^-10 mol/m2s
K  total: [ 116 -409]*10^-10 mol/m2s
Cl total: [  27 -289]*10^-10 mol/m2s

Grand valence-weighted totals from all sources across all ions:
          [   1   -4]*10^-10 mol/m2s

now the GJs by GJ (if any have non-zero flux):
Na GJ diff: [   1]*10^-10 mol/m2s
Na GJ drif: [   3]*10^-10 mol/m2s
K  GJ diff: [ 110]*10^-10 mol/m2s
K  GJ drif: [ 130]*10^-10 mol/m2s
Goal deltaV=40.0mV -> final Vmem=[-22 1]mV, delta=23mV
Final pre-gate GJ diff=[[1.2e-10 2.1e-08 0]], drift=[[5e-10 2.5e-08 -0]], GJ_gate=[0.52], net=2.43e-08
Breaking 0.04500000000000012 into 0.007750000000000062 and -0.03725000000000006

t=0: dumping short-format...
cc_cells= (moles/m3)
   [ 7.0  8.7] Na
   [ 121  436] K
   [  48  365] Cl
   [  80   80] P
Vm =      [-22.0  0.8]mV

t=10: dumping long-format...
cc_cells= (moles/m3)
   [ 6.9  8.8] Na
   [ 121  436] K
   [  48  365] Cl
   [  80   80] P
Vm =      [-24.1  1.7]mV
Na ionCh: [ 288  783]*10^-10 mol/m2s
Na pump:  [-363 -637]*10^-10 mol/m2s
Na GJdiff:[   1   -1]*10^-10 mol/m2s
Na GJdrif:[   3   -3]*10^-10 mol/m2s
K  ionCh: [-407 -593]*10^-10 mol/m2s
K  pump:  [ 242  425]*10^-10 mol/m2s
K  GJdiff:[ 110 -110]*10^-10 mol/m2s
K  GJdrif:[ 146 -146]*10^-10 mol/m2s
Cl ionCh: [  18 -278]*10^-10 mol/m2s

Totals by ion from all sources:
Na total: [ -72  142]*10^-10 mol/m2s
K  total: [  91 -424]*10^-10 mol/m2s
Cl total: [  18 -278]*10^-10 mol/m2s

Grand valence-weighted totals from all sources across all ions:
          [   1   -3]*10^-10 mol/m2s

now the GJs by GJ (if any have non-zero flux):
Na GJ diff: [   1]*10^-10 mol/m2s
Na GJ drif: [   3]*10^-10 mol/m2s
K  GJ diff: [ 110]*10^-10 mol/m2s
K  GJ drif: [ 146]*10^-10 mol/m2s
Goal deltaV=45.0mV -> final Vmem=[-24 2]mV, delta=26mV
Final pre-gate GJ diff=[[1.3e-10 2.1e-08 0]], drift=[[5.7e-10 2.8e-08 -0]], GJ_gate=[0.52], net=2.59e-08
Breaking 0.05000000000000013 into 0.010250000000000065 and -0.03975000000000006

t=0: dumping short-format...
cc_cells= (moles/m3)
   [ 6.9  8.8] Na
   [ 121  436] K
   [  48  365] Cl
   [  80   80] P
Vm =      [-24.1  1.7]mV

t=10: dumping long-format...
cc_cells= (moles/m3)
   [ 6.9  8.9] Na
   [ 121  435] K
   [  48  364] Cl
   [  80   80] P
Vm =      [-26.5  2.3]mV
Na ionCh: [ 299  826]*10^-10 mol/m2s
Na pump:  [-359 -653]*10^-10 mol/m2s
Na GJdiff:[   1   -1]*10^-10 mol/m2s
Na GJdrif:[   3   -3]*10^-10 mol/m2s
K  ionCh: [-447 -600]*10^-10 mol/m2s
K  pump:  [ 239  436]*10^-10 mol/m2s
K  GJdiff:[ 109 -109]*10^-10 mol/m2s
K  GJdrif:[ 163 -163]*10^-10 mol/m2s
Cl ionCh: [   9 -270]*10^-10 mol/m2s

Totals by ion from all sources:
Na total: [ -55  168]*10^-10 mol/m2s
K  total: [  63 -436]*10^-10 mol/m2s
Cl total: [   9 -270]*10^-10 mol/m2s

Grand valence-weighted totals from all sources across all ions:
          [  -1    3]*10^-10 mol/m2s

now the GJs by GJ (if any have non-zero flux):
Na GJ diff: [   1]*10^-10 mol/m2s
Na GJ drif: [   3]*10^-10 mol/m2s
K  GJ diff: [ 109]*10^-10 mol/m2s
K  GJ drif: [ 163]*10^-10 mol/m2s
Goal deltaV=50.0mV -> final Vmem=[-26 2]mV, delta=29mV
Final pre-gate GJ diff=[[1.3e-10 2.1e-08 0]], drift=[[6.4e-10 3.1e-08 -0]], GJ_gate=[0.52], net=2.76e-08
Breaking 0.05500000000000013 into 0.012750000000000067 and -0.042250000000000065

t=0: dumping short-format...
cc_cells= (moles/m3)
   [ 6.9  8.9] Na
   [ 121  435] K
   [  48  364] Cl
   [  80   80] P
Vm =      [-26.5  2.3]mV

t=10: dumping long-format...
cc_cells= (moles/m3)
   [ 6.9  9.1] Na
   [ 121  435] K
   [  48  364] Cl
   [  80   80] P
Vm =      [-29.5  4.1]mV
Na ionCh: [ 314  898]*10^-10 mol/m2s
Na pump:  [-356 -675]*10^-10 mol/m2s
Na GJdiff:[   1   -1]*10^-10 mol/m2s
Na GJdrif:[   4   -4]*10^-10 mol/m2s
K  ionCh: [-500 -620]*10^-10 mol/m2s
K  pump:  [ 237  450]*10^-10 mol/m2s
K  GJdiff:[ 108 -108]*10^-10 mol/m2s
K  GJdrif:[ 188 -188]*10^-10 mol/m2s
Cl ionCh: [  -3 -248]*10^-10 mol/m2s

Totals by ion from all sources:
Na total: [ -37  219]*10^-10 mol/m2s
K  total: [  33 -466]*10^-10 mol/m2s
Cl total: [  -3 -248]*10^-10 mol/m2s

Grand valence-weighted totals from all sources across all ions:
          [  -0    1]*10^-10 mol/m2s

now the GJs by GJ (if any have non-zero flux):
Na GJ diff: [   1]*10^-10 mol/m2s
Na GJ drif: [   4]*10^-10 mol/m2s
K  GJ diff: [ 108]*10^-10 mol/m2s
K  GJ drif: [ 188]*10^-10 mol/m2s
Goal deltaV=55.0mV -> final Vmem=[-30 4]mV, delta=34mV
Final pre-gate GJ diff=[[1.5e-10 2.1e-08 0]], drift=[[7.6e-10 3.7e-08 -0]], GJ_gate=[0.52], net=3.01e-08
Breaking 0.06000000000000014 into 0.02575000000000007 and -0.034250000000000065

t=0: dumping short-format...
cc_cells= (moles/m3)
   [ 6.9  9.1] Na
   [ 121  435] K
   [  48  364] Cl
   [  80   80] P
Vm =      [-29.5  4.1]mV

t=10: dumping long-format...
cc_cells= (moles/m3)
   [   7   10] Na
   [ 121  435] K
   [  48  364] Cl
   [  80   80] P
Vm =      [-15.0 29.2]mV
Na ionCh: [  25  160]*10^-9 mol/m2s
Na pump:  [ -35  -76]*10^-9 mol/m2s
Na GJdrif:[   1   -1]*10^-9 mol/m2s
K  ionCh: [ -43  -95]*10^-9 mol/m2s
K  pump:  [  23   51]*10^-9 mol/m2s
K  GJdiff:[  10  -10]*10^-9 mol/m2s
K  GJdrif:[  24  -24]*10^-9 mol/m2s
Cl ionCh: [   6    4]*10^-9 mol/m2s

Totals by ion from all sources:
Na total: [ -10   83]*10^-9 mol/m2s
K  total: [  15  -79]*10^-9 mol/m2s
Cl total: [   6    4]*10^-9 mol/m2s

Grand valence-weighted totals from all sources across all ions:
          [  -0    0]*10^-9 mol/m2s

now the GJs by GJ (if any have non-zero flux):
Na GJ drif: [   1]*10^-9 mol/m2s
K  GJ diff: [  10]*10^-9 mol/m2s
K  GJ drif: [  24]*10^-9 mol/m2s
Goal deltaV=60.0mV -> final Vmem=[-15 29]mV, delta=44mV
Final pre-gate GJ diff=[[1.8e-10 2.1e-08 0]], drift=[[1.1e-09 4.8e-08 -0]], GJ_gate=[0.5], net=3.51e-08
Breaking 0.06500000000000014 into 0.028250000000000074 and -0.03675000000000007

t=0: dumping short-format...
cc_cells= (moles/m3)
   [   7   10] Na
   [ 121  435] K
   [  48  364] Cl
   [  80   80] P
Vm =      [-15.0 29.2]mV

t=10: dumping long-format...
cc_cells= (moles/m3)
   [   7   10] Na
   [ 121  434] K
   [  48  364] Cl
   [  80   80] P
Vm =      [-17.2 32.8]mV
Na ionCh: [  26  174]*10^-9 mol/m2s
Na pump:  [ -34  -84]*10^-9 mol/m2s
Na GJdrif:[   1   -1]*10^-9 mol/m2s
K  ionCh: [ -47 -100]*10^-9 mol/m2s
K  pump:  [  23   56]*10^-9 mol/m2s
K  GJdiff:[  10  -10]*10^-9 mol/m2s
K  GJdrif:[  27  -27]*10^-9 mol/m2s
Cl ionCh: [   5    8]*10^-9 mol/m2s

Totals by ion from all sources:
Na total: [  -8   89]*10^-9 mol/m2s
K  total: [  12  -81]*10^-9 mol/m2s
Cl total: [   5    8]*10^-9 mol/m2s

Grand valence-weighted totals from all sources across all ions:
          [  -0    0]*10^-9 mol/m2s

now the GJs by GJ (if any have non-zero flux):
Na GJ drif: [   1]*10^-9 mol/m2s
K  GJ diff: [  10]*10^-9 mol/m2s
K  GJ drif: [  27]*10^-9 mol/m2s
Goal deltaV=65.0mV -> final Vmem=[-17 33]mV, delta=50mV
Final pre-gate GJ diff=[[2.2e-10 2.1e-08 0]], drift=[[1.3e-09 5.4e-08 -0]], GJ_gate=[0.49], net=3.75e-08
Breaking 0.07000000000000015 into 0.030750000000000076 and -0.03925000000000007

t=0: dumping short-format...
cc_cells= (moles/m3)
   [   7   10] Na
   [ 121  434] K
   [  48  364] Cl
   [  80   80] P
Vm =      [-17.2 32.8]mV

t=10: dumping long-format...
cc_cells= (moles/m3)
   [   7   11] Na
   [ 121  434] K
   [  48  364] Cl
   [  80   80] P
Vm =      [-19.7 35.6]mV
Na ionCh: [  27  184]*10^-9 mol/m2s
Na pump:  [ -34  -93]*10^-9 mol/m2s
Na GJdrif:[   1   -1]*10^-9 mol/m2s
K  ionCh: [ -51 -104]*10^-9 mol/m2s
K  pump:  [  22   62]*10^-9 mol/m2s
K  GJdiff:[  10  -10]*10^-9 mol/m2s
K  GJdrif:[  28  -28]*10^-9 mol/m2s
Cl ionCh: [   4   11]*10^-9 mol/m2s

Totals by ion from all sources:
Na total: [  -6   90]*10^-9 mol/m2s
K  total: [  10  -80]*10^-9 mol/m2s
Cl total: [   4   11]*10^-9 mol/m2s

Grand valence-weighted totals from all sources across all ions:
          [   0   -1]*10^-9 mol/m2s

now the GJs by GJ (if any have non-zero flux):
Na GJ drif: [   1]*10^-9 mol/m2s
K  GJ diff: [  10]*10^-9 mol/m2s
K  GJ drif: [  28]*10^-9 mol/m2s
Goal deltaV=70.0mV -> final Vmem=[-20 36]mV, delta=55mV
Final pre-gate GJ diff=[[2.7e-10 2.1e-08 0]], drift=[[1.5e-09 6e-08 -0]], GJ_gate=[0.48], net=3.92e-08
Breaking 0.07500000000000015 into 0.03325000000000008 and -0.04175000000000007

t=0: dumping short-format...
cc_cells= (moles/m3)
   [   7   11] Na
   [ 121  434] K
   [  48  364] Cl
   [  80   80] P
Vm =      [-19.7 35.6]mV

t=10: dumping long-format...
cc_cells= (moles/m3)
   [   7   11] Na
   [ 121  433] K
   [  48  364] Cl
   [  80   80] P
Vm =      [-23.8 37.1]mV
Na ionCh: [  29  185]*10^-9 mol/m2s
Na pump:  [ -33 -101]*10^-9 mol/m2s
Na GJdrif:[   1   -1]*10^-9 mol/m2s
K  ionCh: [ -56 -100]*10^-9 mol/m2s
K  pump:  [  22   68]*10^-9 mol/m2s
K  GJdiff:[  10  -10]*10^-9 mol/m2s
K  GJdrif:[  30  -30]*10^-9 mol/m2s
Cl ionCh: [   2   11]*10^-9 mol/m2s

Totals by ion from all sources:
Na total: [  -4   82]*10^-9 mol/m2s
K  total: [   6  -72]*10^-9 mol/m2s
Cl total: [   2   11]*10^-9 mol/m2s

Grand valence-weighted totals from all sources across all ions:
          [   0   -1]*10^-9 mol/m2s

now the GJs by GJ (if any have non-zero flux):
Na GJ drif: [   1]*10^-9 mol/m2s
K  GJ diff: [  10]*10^-9 mol/m2s
K  GJ drif: [  30]*10^-9 mol/m2s
Goal deltaV=75.0mV -> final Vmem=[-24 37]mV, delta=61mV
Final pre-gate GJ diff=[[3e-10 2.1e-08 0]], drift=[[1.7e-09 6.6e-08 -0]], GJ_gate=[0.46], net=4.06e-08
Breaking 0.08000000000000015 into 0.03575000000000008 and -0.044250000000000074

t=0: dumping short-format...
cc_cells= (moles/m3)
   [   7   11] Na
   [ 121  433] K
   [  48  364] Cl
   [  80   80] P
Vm =      [-23.8 37.1]mV

t=10: dumping long-format...
cc_cells= (moles/m3)
   [   7   12] Na
   [ 121  433] K
   [  48  364] Cl
   [  80   80] P
Vm =      [-27.6 38.0]mV
Na ionCh: [  31  174]*10^-9 mol/m2s
Na pump:  [ -33 -108]*10^-9 mol/m2s
Na GJdrif:[   1   -1]*10^-9 mol/m2s
K  ionCh: [ -60  -88]*10^-9 mol/m2s
K  pump:  [  22   72]*10^-9 mol/m2s
K  GJdiff:[   9   -9]*10^-9 mol/m2s
K  GJdrif:[  31  -31]*10^-9 mol/m2s
Cl ionCh: [   0   11]*10^-9 mol/m2s

Totals by ion from all sources:
Na total: [  -2   66]*10^-9 mol/m2s
K  total: [   2  -56]*10^-9 mol/m2s
Cl total: [   0   11]*10^-9 mol/m2s

Grand valence-weighted totals from all sources across all ions:
          [   0   -1]*10^-9 mol/m2s

now the GJs by GJ (if any have non-zero flux):
Na GJ drif: [   1]*10^-9 mol/m2s
K  GJ diff: [   9]*10^-9 mol/m2s
K  GJ drif: [  31]*10^-9 mol/m2s
Goal deltaV=80.0mV -> final Vmem=[-28 38]mV, delta=66mV
Final pre-gate GJ diff=[[3.3e-10 2.1e-08 0]], drift=[[1.9e-09 7.1e-08 -0]], GJ_gate=[0.44], net=4.11e-08
Breaking 0.08500000000000016 into 0.03825000000000008 and -0.046750000000000076

t=0: dumping short-format...
cc_cells= (moles/m3)
   [   7   12] Na
   [ 121  433] K
   [  48  364] Cl
   [  80   80] P
Vm =      [-27.6 38.0]mV

t=10: dumping long-format...
cc_cells= (moles/m3)
   [   7   12] Na
   [ 121  433] K
   [  48  365] Cl
   [  80   80] P
Vm =      [-31.1 39.2]mV
Na ionCh: [  32  164]*10^-9 mol/m2s
Na pump:  [ -33 -112]*10^-9 mol/m2s
Na GJdrif:[   1   -1]*10^-9 mol/m2s
K  ionCh: [ -63  -75]*10^-9 mol/m2s
K  pump:  [  22   75]*10^-9 mol/m2s
K  GJdiff:[   9   -9]*10^-9 mol/m2s
K  GJdrif:[  31  -31]*10^-9 mol/m2s
Cl ionCh: [  -1   10]*10^-9 mol/m2s

Totals by ion from all sources:
Na total: [   0   51]*10^-9 mol/m2s
K  total: [  -1  -41]*10^-9 mol/m2s
Cl total: [  -1   10]*10^-9 mol/m2s

Grand valence-weighted totals from all sources across all ions:
          [   0    0]*10^-9 mol/m2s

now the GJs by GJ (if any have non-zero flux):
Na GJ drif: [   1]*10^-9 mol/m2s
K  GJ diff: [   9]*10^-9 mol/m2s
K  GJ drif: [  31]*10^-9 mol/m2s
Goal deltaV=85.0mV -> final Vmem=[-31 39]mV, delta=70mV
Final pre-gate GJ diff=[[3.5e-10 2.1e-08 0]], drift=[[2.1e-09 7.6e-08 -0]], GJ_gate=[0.41], net=4.09e-08
Breaking 0.09000000000000016 into 0.040750000000000085 and -0.04925000000000008

t=0: dumping short-format...
cc_cells= (moles/m3)
   [   7   12] Na
   [ 121  433] K
   [  48  365] Cl
   [  80   80] P
Vm =      [-31.1 39.2]mV

t=10: dumping long-format...
cc_cells= (moles/m3)
   [   7   12] Na
   [ 121  432] K
   [  48  365] Cl
   [  80   80] P
Vm =      [-34.5 40.9]mV
Na ionCh: [  34  150]*10^-9 mol/m2s
Na pump:  [ -33 -115]*10^-9 mol/m2s
Na GJdrif:[   1   -1]*10^-9 mol/m2s
K  ionCh: [ -65  -63]*10^-9 mol/m2s
K  pump:  [  22   77]*10^-9 mol/m2s
K  GJdiff:[   8   -8]*10^-9 mol/m2s
K  GJdrif:[  31  -31]*10^-9 mol/m2s
Cl ionCh: [  -2    9]*10^-9 mol/m2s

Totals by ion from all sources:
Na total: [   2   34]*10^-9 mol/m2s
K  total: [  -4  -25]*10^-9 mol/m2s
Cl total: [  -2    9]*10^-9 mol/m2s

Grand valence-weighted totals from all sources across all ions:
          [  -0   -1]*10^-9 mol/m2s

now the GJs by GJ (if any have non-zero flux):
Na GJ drif: [   1]*10^-9 mol/m2s
K  GJ diff: [   8]*10^-9 mol/m2s
K  GJ drif: [  31]*10^-9 mol/m2s
Goal deltaV=90.0mV -> final Vmem=[-35 41]mV, delta=75mV
Final pre-gate GJ diff=[[3.7e-10 2.1e-08 0]], drift=[[2.3e-09 8.1e-08 -0]], GJ_gate=[0.38], net=3.97e-08
Breaking 0.09500000000000017 into 0.04325000000000009 and -0.05175000000000008

t=0: dumping short-format...
cc_cells= (moles/m3)
   [   7   12] Na
   [ 121  432] K
   [  48  365] Cl
   [  80   80] P
Vm =      [-34.5 40.9]mV

t=10: dumping long-format...
cc_cells= (moles/m3)
   [   7   12] Na
   [ 121  432] K
   [  48  365] Cl
   [  80   80] P
Vm =      [-40.5 42.1]mV
Na ionCh: [  37  141]*10^-9 mol/m2s
Na pump:  [ -34 -117]*10^-9 mol/m2s
Na GJdrif:[   1   -1]*10^-9 mol/m2s
K  ionCh: [ -67  -57]*10^-9 mol/m2s
K  pump:  [  22   78]*10^-9 mol/m2s
K  GJdiff:[   7   -7]*10^-9 mol/m2s
K  GJdrif:[  29  -29]*10^-9 mol/m2s
Cl ionCh: [  -4    9]*10^-9 mol/m2s

Totals by ion from all sources:
Na total: [   4   23]*10^-9 mol/m2s
K  total: [  -9  -15]*10^-9 mol/m2s
Cl total: [  -4    9]*10^-9 mol/m2s

Grand valence-weighted totals from all sources across all ions:
          [  -0   -0]*10^-9 mol/m2s

now the GJs by GJ (if any have non-zero flux):
Na GJ drif: [   1]*10^-9 mol/m2s
K  GJ diff: [   7]*10^-9 mol/m2s
K  GJ drif: [  29]*10^-9 mol/m2s
Goal deltaV=95.0mV -> final Vmem=[-40 42]mV, delta=83mV
Final pre-gate GJ diff=[[3.7e-10 2.1e-08 0]], drift=[[2.5e-09 8.9e-08 -0]], GJ_gate=[0.32], net=3.64e-08
Breaking 0.10000000000000017 into 0.04575000000000009 and -0.05425000000000008

t=0: dumping short-format...
cc_cells= (moles/m3)
   [   7   12] Na
   [ 121  432] K
   [  48  365] Cl
   [  80   80] P
Vm =      [-40.5 42.1]mV

t=10: dumping long-format...
cc_cells= (moles/m3)
   [   7   12] Na
   [ 121  432] K
   [  48  365] Cl
   [  80   80] P
Vm =      [-45.9 42.2]mV
Na ionCh: [  40  138]*10^-9 mol/m2s
Na pump:  [ -34 -119]*10^-9 mol/m2s
Na GJdrif:[   1   -1]*10^-9 mol/m2s
K  ionCh: [ -69  -57]*10^-9 mol/m2s
K  pump:  [  23   79]*10^-9 mol/m2s
K  GJdiff:[   6   -6]*10^-9 mol/m2s
K  GJdrif:[  27  -27]*10^-9 mol/m2s
Cl ionCh: [  -6    9]*10^-9 mol/m2s

Totals by ion from all sources:
Na total: [   7   19]*10^-9 mol/m2s
K  total: [ -13  -11]*10^-9 mol/m2s
Cl total: [  -6    9]*10^-9 mol/m2s

Grand valence-weighted totals from all sources across all ions:
          [  -0   -1]*10^-9 mol/m2s

now the GJs by GJ (if any have non-zero flux):
Na GJ drif: [   1]*10^-9 mol/m2s
K  GJ diff: [   6]*10^-9 mol/m2s
K  GJ drif: [  27]*10^-9 mol/m2s
Goal deltaV=100.0mV -> final Vmem=[-46 42]mV, delta=88mV
Final pre-gate GJ diff=[[3.8e-10 2.1e-08 0]], drift=[[2.7e-09 9.5e-08 -0]], GJ_gate=[0.28], net=3.37e-08
