Breaking 0.1 into 0.045750000000000006 and -0.05425

t=0: dumping short-format...
cc_cells= (moles/m3)
   [  10   10] Na
   [ 125  125] K
   [  55   55] Cl
   [  80   80] P
Vm =      [ 0.0  0.0]mV

t=5000.075: dumping short-format...
cc_cells= (moles/m3)
   [   8   10] Na
   [ 103  189] K
   [  31  119] Cl
   [  80   80] P
Vm =      [-55.2 55.6]mV

t=10000.19: dumping short-format...
cc_cells= (moles/m3)
   [   8   10] Na
   [  96  245] K
   [  23  175] Cl
   [  80   80] P
Vm =      [-54.1 52.9]mV

t=15000.635: dumping long-format...
cc_cells= (moles/m3)
   [   8   11] Na
   [  94  294] K
   [  21  225] Cl
   [  80   80] P
Vm =      [-53.6 50.8]mV
Na ionCh: [ 267  578]*10^-4 mol/m3s
Na pump:  [-268 -573]*10^-4 mol/m3s
Na GJdrif:[   1   -1]*10^-4 mol/m3s
K  ionCh: [-207 -262]*10^-4 mol/m3s
K  pump:  [ 179  382]*10^-4 mol/m3s
K  GJdiff:[   4   -4]*10^-4 mol/m3s
K  GJdrif:[  23  -23]*10^-4 mol/m3s
Cl ionCh: [  -4   95]*10^-4 mol/m3s
Cl GJdiff:[   4   -4]*10^-4 mol/m3s
Cl GJdrif:[  -2    2]*10^-4 mol/m3s

Totals by ion from all sources:
Na total: [  -0    4]*10^-4 mol/m3s
K  total: [  -2   92]*10^-4 mol/m3s
Cl total: [  -2   93]*10^-4 mol/m3s

Grand valence-weighted totals from all sources across all ions:
          [  -0    4]*10^-4 mol/m3s

now the GJs by GJ (if any have non-zero flux):
Na GJ drif: [   1]*10^-4 mol/m3s
K  GJ diff: [   4]*10^-4 mol/m3s
K  GJ drif: [  23]*10^-4 mol/m3s
Cl GJ diff: [   4]*10^-4 mol/m3s
Cl GJ drif: [  -2]*10^-4 mol/m3s

t=20000.835: dumping short-format...
cc_cells= (moles/m3)
   [   8   11] Na
   [  93  337] K
   [  21  269] Cl
   [  80   80] P
Vm =      [-53.3 49.2]mV

t=25000.995: dumping short-format...
cc_cells= (moles/m3)
   [   8   12] Na
   [  93  376] K
   [  21  307] Cl
   [  80   80] P
Vm =      [-53.2 47.8]mV

t=30001.085: dumping short-format...
cc_cells= (moles/m3)
   [   8   12] Na
   [  94  409] K
   [  21  341] Cl
   [  80   80] P
Vm =      [-53.1 46.9]mV

t=35028.925: dumping long-format...
cc_cells= (moles/m3)
   [   8   12] Na
   [  94  439] K
   [  22  371] Cl
   [  80   80] P
Vm =      [-53.0 45.8]mV
Na ionCh: [ 265  696]*10^-4 mol/m3s
Na pump:  [-266 -693]*10^-4 mol/m3s
Na GJdrif:[   1   -1]*10^-4 mol/m3s
K  ionCh: [-216 -367]*10^-4 mol/m3s
K  pump:  [ 177  462]*10^-4 mol/m3s
K  GJdiff:[   7   -7]*10^-4 mol/m3s
K  GJdrif:[  32  -32]*10^-4 mol/m3s
Cl ionCh: [  -5   61]*10^-4 mol/m3s
Cl GJdiff:[   7   -7]*10^-4 mol/m3s
Cl GJdrif:[  -2    2]*10^-4 mol/m3s

Totals by ion from all sources:
Na total: [  -0    2]*10^-4 mol/m3s
K  total: [   1   56]*10^-4 mol/m3s
Cl total: [   1   56]*10^-4 mol/m3s

Grand valence-weighted totals from all sources across all ions:
          [  -0    2]*10^-4 mol/m3s

now the GJs by GJ (if any have non-zero flux):
Na GJ drif: [   1]*10^-4 mol/m3s
K  GJ diff: [   7]*10^-4 mol/m3s
K  GJ drif: [  32]*10^-4 mol/m3s
Cl GJ diff: [   7]*10^-4 mol/m3s
Cl GJ drif: [  -2]*10^-4 mol/m3s

t=40029.715000000004: dumping short-format...
cc_cells= (moles/m3)
   [   8   12] Na
   [  95  465] K
   [  22  398] Cl
   [  80   80] P
Vm =      [-52.9 45.0]mV

t=45029.99: dumping short-format...
cc_cells= (moles/m3)
   [   8   13] Na
   [  95  488] K
   [  22  421] Cl
   [  80   80] P
Vm =      [-52.9 44.3]mV

t=50030.085: dumping short-format...
cc_cells= (moles/m3)
   [   8   13] Na
   [  95  508] K
   [  23  441] Cl
   [  80   80] P
Vm =      [-52.8 43.8]mV

t=55030.445: dumping long-format...
cc_cells= (moles/m3)
   [   8   13] Na
   [  95  525] K
   [  23  458] Cl
   [  80   80] P
Vm =      [-52.7 43.4]mV
Na ionCh: [ 264  755]*10^-4 mol/m3s
Na pump:  [-265 -755]*10^-4 mol/m3s
Na GJdrif:[   1   -1]*10^-4 mol/m3s
K  ionCh: [-224 -424]*10^-4 mol/m3s
K  pump:  [ 177  503]*10^-4 mol/m3s
K  GJdiff:[   9   -9]*10^-4 mol/m3s
K  GJdrif:[  38  -38]*10^-4 mol/m3s
Cl ionCh: [  -6   40]*10^-4 mol/m3s
Cl GJdiff:[   9   -9]*10^-4 mol/m3s
Cl GJdrif:[  -2    2]*10^-4 mol/m3s

Totals by ion from all sources:
Na total: [  -0   -1]*10^-4 mol/m3s
K  total: [  -0   33]*10^-4 mol/m3s
Cl total: [   1   33]*10^-4 mol/m3s

Grand valence-weighted totals from all sources across all ions:
          [  -1   -1]*10^-4 mol/m3s

now the GJs by GJ (if any have non-zero flux):
Na GJ drif: [   1]*10^-4 mol/m3s
K  GJ diff: [   9]*10^-4 mol/m3s
K  GJ drif: [  38]*10^-4 mol/m3s
Cl GJ diff: [   9]*10^-4 mol/m3s
Cl GJ drif: [  -2]*10^-4 mol/m3s

t=60030.665: dumping short-format...
cc_cells= (moles/m3)
   [   8   13] Na
   [  96  541] K
   [  23  474] Cl
   [  80   80] P
Vm =      [-52.7 43.0]mV

t=65030.815: dumping short-format...
cc_cells= (moles/m3)
   [   8   13] Na
   [  96  554] K
   [  23  487] Cl
   [  80   80] P
Vm =      [-52.7 42.5]mV

t=70034.125: dumping short-format...
cc_cells= (moles/m3)
   [   8   13] Na
   [  96  566] K
   [  24  499] Cl
   [  80   80] P
Vm =      [-52.7 42.2]mV

t=75034.63: dumping long-format...
cc_cells= (moles/m3)
   [   8   13] Na
   [  96  576] K
   [  24  510] Cl
   [  80   80] P
Vm =      [-52.6 41.9]mV
Na ionCh: [ 264  795]*10^-4 mol/m3s
Na pump:  [-265 -789]*10^-4 mol/m3s
Na GJdrif:[   1   -1]*10^-4 mol/m3s
K  ionCh: [-227 -456]*10^-4 mol/m3s
K  pump:  [ 177  526]*10^-4 mol/m3s
K  GJdiff:[  10  -10]*10^-4 mol/m3s
K  GJdrif:[  41  -41]*10^-4 mol/m3s
Cl ionCh: [  -8   27]*10^-4 mol/m3s
Cl GJdiff:[  10  -10]*10^-4 mol/m3s
Cl GJdrif:[  -2    2]*10^-4 mol/m3s

Totals by ion from all sources:
Na total: [  -0    4]*10^-4 mol/m3s
K  total: [   0   20]*10^-4 mol/m3s
Cl total: [   0   19]*10^-4 mol/m3s

Grand valence-weighted totals from all sources across all ions:
          [  -0    5]*10^-4 mol/m3s

now the GJs by GJ (if any have non-zero flux):
Na GJ drif: [   1]*10^-4 mol/m3s
K  GJ diff: [  10]*10^-4 mol/m3s
K  GJ drif: [  41]*10^-4 mol/m3s
Cl GJ diff: [  10]*10^-4 mol/m3s
Cl GJ drif: [  -2]*10^-4 mol/m3s

t=80034.855: dumping short-format...
cc_cells= (moles/m3)
   [   8   14] Na
   [  96  585] K
   [  24  519] Cl
   [  80   80] P
Vm =      [-52.6 41.7]mV

t=85035.085: dumping short-format...
cc_cells= (moles/m3)
   [   8   14] Na
   [  96  593] K
   [  24  526] Cl
   [  80   80] P
Vm =      [-52.6 41.7]mV

t=90035.535: dumping short-format...
cc_cells= (moles/m3)
   [   8   14] Na
   [  97  600] K
   [  24  533] Cl
   [  80   80] P
Vm =      [-52.6 41.5]mV

t=95035.64: dumping long-format...
cc_cells= (moles/m3)
   [   8   14] Na
   [  97  606] K
   [  24  539] Cl
   [  80   80] P
Vm =      [-52.6 41.2]mV
Na ionCh: [ 264  814]*10^-4 mol/m3s
Na pump:  [-265 -808]*10^-4 mol/m3s
Na GJdrif:[   1   -1]*10^-4 mol/m3s
K  ionCh: [-229 -474]*10^-4 mol/m3s
K  pump:  [ 176  539]*10^-4 mol/m3s
K  GJdiff:[  10  -10]*10^-4 mol/m3s
K  GJdrif:[  43  -43]*10^-4 mol/m3s
Cl ionCh: [  -8   19]*10^-4 mol/m3s
Cl GJdiff:[  10  -10]*10^-4 mol/m3s
Cl GJdrif:[  -2    2]*10^-4 mol/m3s

Totals by ion from all sources:
Na total: [  -0    4]*10^-4 mol/m3s
K  total: [   0   12]*10^-4 mol/m3s
Cl total: [   0   11]*10^-4 mol/m3s

Grand valence-weighted totals from all sources across all ions:
          [  -0    5]*10^-4 mol/m3s

now the GJs by GJ (if any have non-zero flux):
Na GJ drif: [   1]*10^-4 mol/m3s
K  GJ diff: [  10]*10^-4 mol/m3s
K  GJ drif: [  43]*10^-4 mol/m3s
Cl GJ diff: [  10]*10^-4 mol/m3s
Cl GJ drif: [  -2]*10^-4 mol/m3s

t=100036.94: dumping short-format...
cc_cells= (moles/m3)
   [   8   14] Na
   [  97  611] K
   [  24  544] Cl
   [  80   80] P
Vm =      [-52.6 41.1]mV

t=105036.955: dumping short-format...
cc_cells= (moles/m3)
   [   8   14] Na
   [  97  615] K
   [  24  549] Cl
   [  80   80] P
Vm =      [-52.6 41.1]mV

t=110038.11: dumping short-format...
cc_cells= (moles/m3)
   [   8   14] Na
   [  97  619] K
   [  24  553] Cl
   [  80   80] P
Vm =      [-52.6 41.1]mV

t=115038.175: dumping long-format...
cc_cells= (moles/m3)
   [   8   14] Na
   [  97  622] K
   [  24  556] Cl
   [  80   80] P
Vm =      [-52.6 40.9]mV
Na ionCh: [ 263  821]*10^-4 mol/m3s
Na pump:  [-264 -819]*10^-4 mol/m3s
Na GJdrif:[   1   -1]*10^-4 mol/m3s
K  ionCh: [-230 -485]*10^-4 mol/m3s
K  pump:  [ 176  546]*10^-4 mol/m3s
K  GJdiff:[  11  -11]*10^-4 mol/m3s
K  GJdrif:[  44  -44]*10^-4 mol/m3s
Cl ionCh: [  -9   15]*10^-4 mol/m3s
Cl GJdiff:[  11  -11]*10^-4 mol/m3s
Cl GJdrif:[  -2    2]*10^-4 mol/m3s

Totals by ion from all sources:
Na total: [  -0    1]*10^-4 mol/m3s
K  total: [   0    6]*10^-4 mol/m3s
Cl total: [   0    6]*10^-4 mol/m3s

Grand valence-weighted totals from all sources across all ions:
          [  -0    1]*10^-4 mol/m3s

now the GJs by GJ (if any have non-zero flux):
Na GJ drif: [   1]*10^-4 mol/m3s
K  GJ diff: [  11]*10^-4 mol/m3s
K  GJ drif: [  44]*10^-4 mol/m3s
Cl GJ diff: [  11]*10^-4 mol/m3s
Cl GJ drif: [  -2]*10^-4 mol/m3s

t=120038.235: dumping short-format...
cc_cells= (moles/m3)
   [   8   14] Na
   [  97  625] K
   [  24  559] Cl
   [  80   80] P
Vm =      [-52.5 40.9]mV

t=125038.38500000001: dumping short-format...
cc_cells= (moles/m3)
   [   8   14] Na
   [  97  628] K
   [  24  562] Cl
   [  80   80] P
Vm =      [-52.5 40.8]mV

t=130038.515: dumping short-format...
cc_cells= (moles/m3)
   [   7   14] Na
   [  97  630] K
   [  25  564] Cl
   [  80   80] P
Vm =      [-52.5 40.8]mV

t=135038.615: dumping long-format...
cc_cells= (moles/m3)
   [   7   14] Na
   [  97  632] K
   [  25  566] Cl
   [  80   80] P
Vm =      [-52.5 40.6]mV
Na ionCh: [ 263  829]*10^-4 mol/m3s
Na pump:  [-264 -825]*10^-4 mol/m3s
Na GJdrif:[   1   -1]*10^-4 mol/m3s
K  ionCh: [-231 -491]*10^-4 mol/m3s
K  pump:  [ 176  550]*10^-4 mol/m3s
K  GJdiff:[  11  -11]*10^-4 mol/m3s
K  GJdrif:[  44  -44]*10^-4 mol/m3s
Cl ionCh: [  -9   13]*10^-4 mol/m3s
Cl GJdiff:[  11  -11]*10^-4 mol/m3s
Cl GJdrif:[  -2    2]*10^-4 mol/m3s

Totals by ion from all sources:
Na total: [  -0    3]*10^-4 mol/m3s
K  total: [   0    4]*10^-4 mol/m3s
Cl total: [   0    3]*10^-4 mol/m3s

Grand valence-weighted totals from all sources across all ions:
          [  -0    4]*10^-4 mol/m3s

now the GJs by GJ (if any have non-zero flux):
Na GJ drif: [   1]*10^-4 mol/m3s
K  GJ diff: [  11]*10^-4 mol/m3s
K  GJ drif: [  44]*10^-4 mol/m3s
Cl GJ diff: [  11]*10^-4 mol/m3s
Cl GJ drif: [  -2]*10^-4 mol/m3s

t=140038.67500000002: dumping short-format...
cc_cells= (moles/m3)
   [   7   14] Na
   [  97  634] K
   [  25  568] Cl
   [  80   80] P
Vm =      [-52.5 40.7]mV

t=145039.2: dumping short-format...
cc_cells= (moles/m3)
   [   7   14] Na
   [  97  635] K
   [  25  569] Cl
   [  80   80] P
Vm =      [-52.5 40.5]mV

t=150039.905: dumping short-format...
cc_cells= (moles/m3)
   [   7   14] Na
   [  97  637] K
   [  25  571] Cl
   [  80   80] P
Vm =      [-52.5 40.5]mV

t=155041.995: dumping long-format...
cc_cells= (moles/m3)
   [   7   14] Na
   [  97  638] K
   [  25  572] Cl
   [  80   80] P
Vm =      [-52.5 40.4]mV
Na ionCh: [ 263  834]*10^-4 mol/m3s
Na pump:  [-264 -828]*10^-4 mol/m3s
Na GJdrif:[   1   -1]*10^-4 mol/m3s
K  ionCh: [-231 -494]*10^-4 mol/m3s
K  pump:  [ 176  552]*10^-4 mol/m3s
K  GJdiff:[  11  -11]*10^-4 mol/m3s
K  GJdrif:[  44  -44]*10^-4 mol/m3s
Cl ionCh: [  -9   11]*10^-4 mol/m3s
Cl GJdiff:[  11  -11]*10^-4 mol/m3s
Cl GJdrif:[  -2    2]*10^-4 mol/m3s

Totals by ion from all sources:
Na total: [   0    4]*10^-4 mol/m3s
K  total: [  -0    3]*10^-4 mol/m3s
Cl total: [   0    2]*10^-4 mol/m3s

Grand valence-weighted totals from all sources across all ions:
          [  -0    5]*10^-4 mol/m3s

now the GJs by GJ (if any have non-zero flux):
Na GJ drif: [   1]*10^-4 mol/m3s
K  GJ diff: [  11]*10^-4 mol/m3s
K  GJ drif: [  44]*10^-4 mol/m3s
Cl GJ diff: [  11]*10^-4 mol/m3s
Cl GJ drif: [  -2]*10^-4 mol/m3s

t=160042.97: dumping short-format...
cc_cells= (moles/m3)
   [   7   14] Na
   [  97  639] K
   [  25  573] Cl
   [  80   80] P
Vm =      [-52.5 40.4]mV

t=165042.98: dumping short-format...
cc_cells= (moles/m3)
   [   7   14] Na
   [  97  640] K
   [  25  574] Cl
   [  80   80] P
Vm =      [-52.5 40.5]mV

t=170043.08000000002: dumping short-format...
cc_cells= (moles/m3)
   [   7   14] Na
   [  97  640] K
   [  25  574] Cl
   [  80   80] P
Vm =      [-52.5 40.4]mV

t=175043.575: dumping long-format...
cc_cells= (moles/m3)
   [   7   14] Na
   [  97  641] K
   [  25  575] Cl
   [  80   80] P
Vm =      [-52.4 40.4]mV
Na ionCh: [ 263  832]*10^-4 mol/m3s
Na pump:  [-264 -830]*10^-4 mol/m3s
Na GJdrif:[   1   -1]*10^-4 mol/m3s
K  ionCh: [-232 -497]*10^-4 mol/m3s
K  pump:  [ 176  554]*10^-4 mol/m3s
K  GJdiff:[  11  -11]*10^-4 mol/m3s
K  GJdrif:[  45  -45]*10^-4 mol/m3s
Cl ionCh: [  -9   10]*10^-4 mol/m3s
Cl GJdiff:[  11  -11]*10^-4 mol/m3s
Cl GJdrif:[  -2    2]*10^-4 mol/m3s

Totals by ion from all sources:
Na total: [  -0    1]*10^-4 mol/m3s
K  total: [  -1    1]*10^-4 mol/m3s
Cl total: [   0    1]*10^-4 mol/m3s

Grand valence-weighted totals from all sources across all ions:
          [  -1    1]*10^-4 mol/m3s

now the GJs by GJ (if any have non-zero flux):
Na GJ drif: [   1]*10^-4 mol/m3s
K  GJ diff: [  11]*10^-4 mol/m3s
K  GJ drif: [  45]*10^-4 mol/m3s
Cl GJ diff: [  11]*10^-4 mol/m3s
Cl GJ drif: [  -2]*10^-4 mol/m3s

t=180043.815: dumping short-format...
cc_cells= (moles/m3)
   [   7   14] Na
   [  97  642] K
   [  25  576] Cl
   [  80   80] P
Vm =      [-52.5 40.4]mV

t=185044.79: dumping short-format...
cc_cells= (moles/m3)
   [   7   14] Na
   [  97  642] K
   [  25  576] Cl
   [  80   80] P
Vm =      [-52.4 40.5]mV

t=190044.82: dumping short-format...
cc_cells= (moles/m3)
   [   7   14] Na
   [  97  642] K
   [  25  577] Cl
   [  80   80] P
Vm =      [-52.5 40.4]mV

t=195044.875: dumping long-format...
cc_cells= (moles/m3)
   [   7   14] Na
   [  97  643] K
   [  25  577] Cl
   [  80   80] P
Vm =      [-52.5 40.4]mV
Na ionCh: [ 263  832]*10^-4 mol/m3s
Na pump:  [-264 -831]*10^-4 mol/m3s
Na GJdrif:[   1   -1]*10^-4 mol/m3s
K  ionCh: [-232 -498]*10^-4 mol/m3s
K  pump:  [ 176  554]*10^-4 mol/m3s
K  GJdiff:[  11  -11]*10^-4 mol/m3s
K  GJdrif:[  45  -45]*10^-4 mol/m3s
Cl ionCh: [  -9   10]*10^-4 mol/m3s
Cl GJdiff:[  11  -11]*10^-4 mol/m3s
Cl GJdrif:[  -2    2]*10^-4 mol/m3s

Totals by ion from all sources:
Na total: [   0   -1]*10^-4 mol/m3s
K  total: [   0    1]*10^-4 mol/m3s
Cl total: [   0    1]*10^-4 mol/m3s

Grand valence-weighted totals from all sources across all ions:
          [   0   -1]*10^-4 mol/m3s

now the GJs by GJ (if any have non-zero flux):
Na GJ drif: [   1]*10^-4 mol/m3s
K  GJ diff: [  11]*10^-4 mol/m3s
K  GJ drif: [  45]*10^-4 mol/m3s
Cl GJ diff: [  11]*10^-4 mol/m3s
Cl GJ drif: [  -2]*10^-4 mol/m3s
Breaking 0.1 into 0.045750000000000006 and -0.05425

t=0: dumping short-format...
cc_cells= (moles/m3)
   [   7   14] Na
   [  97  643] K
   [  25  577] Cl
   [  80   80] P
Vm =      [-52.5 40.3]mV

t=10: dumping long-format...
cc_cells= (moles/m3)
   [   8   14] Na
   [  97  642] K
   [  25  576] Cl
   [  80   80] P
Vm =      [64.0 -70.5]mV
Na ionCh: [  59   55]*10^-9 mol/m2s
Na pump:  [ -46 -133]*10^-9 mol/m2s
K  ionCh: [ -17 -228]*10^-9 mol/m2s
K  pump:  [  30   88]*10^-9 mol/m2s
Cl ionCh: [  24 -215]*10^-9 mol/m2s
Cl GJdrif:[   2   -2]*10^-9 mol/m2s

Totals by ion from all sources:
Na total: [  13  -78]*10^-9 mol/m2s
K  total: [  14 -139]*10^-9 mol/m2s
Cl total: [  27 -217]*10^-9 mol/m2s

Grand valence-weighted totals from all sources across all ions:
          [  -0   -0]*10^-9 mol/m2s

now the GJs by GJ (if any have non-zero flux):
Cl GJ drif: [   2]*10^-9 mol/m2s
Goal deltaV=-100.0mV -> final Vmem=[64 -71]mV, delta=-135mV
Final pre-gate GJ diff=[[2e-11 1.8e-09 1.8e-09]], drift=[[-1.3e-10 -1.6e-09 9.7e-09]], GJ_gate=[0.23], net=-2.62e-09
Breaking 0.095 into 0.043250000000000004 and -0.05175

t=0: dumping short-format...
cc_cells= (moles/m3)
   [   8   14] Na
   [  97  642] K
   [  25  576] Cl
   [  80   80] P
Vm =      [64.0 -70.5]mV

t=10: dumping long-format...
cc_cells= (moles/m3)
   [   8   13] Na
   [  97  641] K
   [  25  575] Cl
   [  80   80] P
Vm =      [63.8 -65.8]mV
Na ionCh: [  59   52]*10^-9 mol/m2s
Na pump:  [ -47 -127]*10^-9 mol/m2s
K  ionCh: [ -17 -213]*10^-9 mol/m2s
K  pump:  [  31   85]*10^-9 mol/m2s
Cl ionCh: [  24 -202]*10^-9 mol/m2s
Cl GJdrif:[   2   -2]*10^-9 mol/m2s

Totals by ion from all sources:
Na total: [  12  -75]*10^-9 mol/m2s
K  total: [  14 -129]*10^-9 mol/m2s
Cl total: [  27 -204]*10^-9 mol/m2s

Grand valence-weighted totals from all sources across all ions:
          [  -0    1]*10^-9 mol/m2s

now the GJs by GJ (if any have non-zero flux):
Cl GJ drif: [   2]*10^-9 mol/m2s
Goal deltaV=-95.0mV -> final Vmem=[64 -66]mV, delta=-130mV
Final pre-gate GJ diff=[[1.8e-11 1.8e-09 1.8e-09]], drift=[[-1.2e-10 -1.6e-09 9.3e-09]], GJ_gate=[0.23], net=-2.52e-09
Breaking 0.09 into 0.04075 and -0.049249999999999995

t=0: dumping short-format...
cc_cells= (moles/m3)
   [   8   13] Na
   [  97  641] K
   [  25  575] Cl
   [  80   80] P
Vm =      [63.8 -65.8]mV

t=10: dumping long-format...
cc_cells= (moles/m3)
   [   8   13] Na
   [  97  641] K
   [  25  573] Cl
   [  80   80] P
Vm =      [62.5 -60.7]mV
Na ionCh: [  64   49]*10^-9 mol/m2s
Na pump:  [ -48 -121]*10^-9 mol/m2s
K  ionCh: [ -19 -199]*10^-9 mol/m2s
K  pump:  [  32   81]*10^-9 mol/m2s
Cl ionCh: [  27 -189]*10^-9 mol/m2s
Cl GJdrif:[   2   -2]*10^-9 mol/m2s

Totals by ion from all sources:
Na total: [  16  -72]*10^-9 mol/m2s
K  total: [  13 -118]*10^-9 mol/m2s
Cl total: [  29 -191]*10^-9 mol/m2s

Grand valence-weighted totals from all sources across all ions:
          [  -0    1]*10^-9 mol/m2s

now the GJs by GJ (if any have non-zero flux):
Cl GJ drif: [   2]*10^-9 mol/m2s
Goal deltaV=-90.0mV -> final Vmem=[62 -61]mV, delta=-123mV
Final pre-gate GJ diff=[[1.6e-11 1.8e-09 1.8e-09]], drift=[[-1.2e-10 -1.5e-09 8.8e-09]], GJ_gate=[0.23], net=-2.39e-09
Breaking 0.08499999999999999 into 0.03825 and -0.04674999999999999

t=0: dumping short-format...
cc_cells= (moles/m3)
   [   8   13] Na
   [  97  641] K
   [  25  573] Cl
   [  80   80] P
Vm =      [62.5 -60.7]mV

t=10: dumping long-format...
cc_cells= (moles/m3)
   [   8   12] Na
   [  97  640] K
   [  25  572] Cl
   [  80   80] P
Vm =      [60.3 -57.6]mV
Na ionCh: [  73   47]*10^-9 mol/m2s
Na pump:  [ -50 -115]*10^-9 mol/m2s
K  ionCh: [ -22 -192]*10^-9 mol/m2s
K  pump:  [  34   77]*10^-9 mol/m2s
Cl ionCh: [  32 -181]*10^-9 mol/m2s
Cl GJdrif:[   2   -2]*10^-9 mol/m2s

Totals by ion from all sources:
Na total: [  23  -68]*10^-9 mol/m2s
K  total: [  11 -115]*10^-9 mol/m2s
Cl total: [  34 -183]*10^-9 mol/m2s

Grand valence-weighted totals from all sources across all ions:
          [  -0   -0]*10^-9 mol/m2s

now the GJs by GJ (if any have non-zero flux):
Cl GJ drif: [   2]*10^-9 mol/m2s
Goal deltaV=-85.0mV -> final Vmem=[60 -58]mV, delta=-118mV
Final pre-gate GJ diff=[[1.4e-11 1.8e-09 1.8e-09]], drift=[[-1.2e-10 -1.4e-09 8.4e-09]], GJ_gate=[0.23], net=-2.28e-09
Breaking 0.07999999999999999 into 0.03575 and -0.04424999999999999

t=0: dumping short-format...
cc_cells= (moles/m3)
   [   8   12] Na
   [  97  640] K
   [  25  572] Cl
   [  80   80] P
Vm =      [60.3 -57.6]mV

t=10: dumping long-format...
cc_cells= (moles/m3)
   [   8   12] Na
   [  98  639] K
   [  26  571] Cl
   [  80   80] P
Vm =      [58.1 -54.2]mV
Na ionCh: [  82   45]*10^-9 mol/m2s
Na pump:  [ -53 -109]*10^-9 mol/m2s
K  ionCh: [ -26 -182]*10^-9 mol/m2s
K  pump:  [  35   73]*10^-9 mol/m2s
Cl ionCh: [  36 -172]*10^-9 mol/m2s
Cl GJdrif:[   2   -2]*10^-9 mol/m2s

Totals by ion from all sources:
Na total: [  29  -65]*10^-9 mol/m2s
K  total: [  10 -109]*10^-9 mol/m2s
Cl total: [  39 -174]*10^-9 mol/m2s

Grand valence-weighted totals from all sources across all ions:
          [  -0    0]*10^-9 mol/m2s

now the GJs by GJ (if any have non-zero flux):
Cl GJ drif: [   2]*10^-9 mol/m2s
Goal deltaV=-80.0mV -> final Vmem=[58 -54]mV, delta=-112mV
Final pre-gate GJ diff=[[1.2e-11 1.8e-09 1.8e-09]], drift=[[-1.1e-10 -1.4e-09 8e-09]], GJ_gate=[0.23], net=-2.17e-09
Breaking 0.07499999999999998 into 0.033249999999999995 and -0.04174999999999999

t=0: dumping short-format...
cc_cells= (moles/m3)
   [   8   12] Na
   [  98  639] K
   [  26  571] Cl
   [  80   80] P
Vm =      [58.1 -54.2]mV

t=10: dumping long-format...
cc_cells= (moles/m3)
   [   8   11] Na
   [  98  639] K
   [  26  570] Cl
   [  80   80] P
Vm =      [56.0 -50.1]mV
Na ionCh: [  91   42]*10^-9 mol/m2s
Na pump:  [ -56 -104]*10^-9 mol/m2s
K  ionCh: [ -29 -171]*10^-9 mol/m2s
K  pump:  [  38   69]*10^-9 mol/m2s
Cl ionCh: [  41 -162]*10^-9 mol/m2s
Cl GJdrif:[   2   -2]*10^-9 mol/m2s

Totals by ion from all sources:
Na total: [  34  -62]*10^-9 mol/m2s
K  total: [   9 -102]*10^-9 mol/m2s
Cl total: [  43 -164]*10^-9 mol/m2s

Grand valence-weighted totals from all sources across all ions:
          [  -0    1]*10^-9 mol/m2s

now the GJs by GJ (if any have non-zero flux):
Cl GJ drif: [   2]*10^-9 mol/m2s
Goal deltaV=-75.0mV -> final Vmem=[56 -50]mV, delta=-106mV
Final pre-gate GJ diff=[[1e-11 1.8e-09 1.8e-09]], drift=[[-1.1e-10 -1.3e-09 7.6e-09]], GJ_gate=[0.23], net=-2.05e-09
Breaking 0.06999999999999998 into 0.030749999999999993 and -0.039249999999999986

t=0: dumping short-format...
cc_cells= (moles/m3)
   [   8   11] Na
   [  98  639] K
   [  26  570] Cl
   [  80   80] P
Vm =      [56.0 -50.1]mV

t=10: dumping long-format...
cc_cells= (moles/m3)
   [   9   11] Na
   [  98  638] K
   [  26  569] Cl
   [  80   80] P
Vm =      [53.6 -45.2]mV
Na ionCh: [  94   40]*10^-9 mol/m2s
Na pump:  [ -60  -98]*10^-9 mol/m2s
K  ionCh: [ -30 -159]*10^-9 mol/m2s
K  pump:  [  40   66]*10^-9 mol/m2s
Cl ionCh: [  42 -150]*10^-9 mol/m2s
Cl GJdrif:[   2   -2]*10^-9 mol/m2s

Totals by ion from all sources:
Na total: [  34  -59]*10^-9 mol/m2s
K  total: [  10  -94]*10^-9 mol/m2s
Cl total: [  44 -152]*10^-9 mol/m2s

Grand valence-weighted totals from all sources across all ions:
          [  -0   -0]*10^-9 mol/m2s

now the GJs by GJ (if any have non-zero flux):
Cl GJ drif: [   2]*10^-9 mol/m2s
Goal deltaV=-70.0mV -> final Vmem=[54 -45]mV, delta=-99mV
Final pre-gate GJ diff=[[8.4e-12 1.8e-09 1.8e-09]], drift=[[-1.1e-10 -1.2e-09 7e-09]], GJ_gate=[0.23], net=-1.94e-09
Breaking 0.06499999999999997 into 0.02824999999999999 and -0.036749999999999984

t=0: dumping short-format...
cc_cells= (moles/m3)
   [   9   11] Na
   [  98  638] K
   [  26  569] Cl
   [  80   80] P
Vm =      [53.6 -45.2]mV

t=10: dumping long-format...
cc_cells= (moles/m3)
   [   9   11] Na
   [  98  638] K
   [  26  568] Cl
   [  80   80] P
Vm =      [50.3 -41.7]mV
Na ionCh: [  92   38]*10^-9 mol/m2s
Na pump:  [ -62  -93]*10^-9 mol/m2s
K  ionCh: [ -29 -151]*10^-9 mol/m2s
K  pump:  [  42   62]*10^-9 mol/m2s
Cl ionCh: [  40 -142]*10^-9 mol/m2s
Cl GJdrif:[   2   -2]*10^-9 mol/m2s

Totals by ion from all sources:
Na total: [  29  -56]*10^-9 mol/m2s
K  total: [  13  -89]*10^-9 mol/m2s
Cl total: [  42 -144]*10^-9 mol/m2s

Grand valence-weighted totals from all sources across all ions:
          [  -0   -0]*10^-9 mol/m2s

now the GJs by GJ (if any have non-zero flux):
Cl GJ drif: [   2]*10^-9 mol/m2s
Goal deltaV=-65.0mV -> final Vmem=[50 -42]mV, delta=-92mV
Final pre-gate GJ diff=[[6.6e-12 1.8e-09 1.8e-09]], drift=[[-1e-10 -1.1e-09 6.5e-09]], GJ_gate=[0.26], net=-2.02e-09
Breaking 0.05999999999999997 into 0.025749999999999988 and -0.03424999999999998

t=0: dumping short-format...
cc_cells= (moles/m3)
   [   9   11] Na
   [  98  638] K
   [  26  568] Cl
   [  80   80] P
Vm =      [50.3 -41.7]mV

t=10: dumping long-format...
cc_cells= (moles/m3)
   [   9   10] Na
   [  98  637] K
   [  27  568] Cl
   [  80   80] P
Vm =      [46.0 -37.9]mV
Na ionCh: [  89   36]*10^-9 mol/m2s
Na pump:  [ -65  -88]*10^-9 mol/m2s
K  ionCh: [ -27 -142]*10^-9 mol/m2s
K  pump:  [  43   59]*10^-9 mol/m2s
K  GJdiff:[   1   -1]*10^-9 mol/m2s
Cl ionCh: [  38 -133]*10^-9 mol/m2s
Cl GJdiff:[   1   -1]*10^-9 mol/m2s
Cl GJdrif:[   2   -2]*10^-9 mol/m2s

Totals by ion from all sources:
Na total: [  24  -52]*10^-9 mol/m2s
K  total: [  16  -84]*10^-9 mol/m2s
Cl total: [  40 -136]*10^-9 mol/m2s

Grand valence-weighted totals from all sources across all ions:
          [  -0   -0]*10^-9 mol/m2s

now the GJs by GJ (if any have non-zero flux):
K  GJ diff: [   1]*10^-9 mol/m2s
Cl GJ diff: [   1]*10^-9 mol/m2s
Cl GJ drif: [   2]*10^-9 mol/m2s
Goal deltaV=-60.0mV -> final Vmem=[46 -38]mV, delta=-84mV
Final pre-gate GJ diff=[[5e-12 1.8e-09 1.8e-09]], drift=[[-9.3e-11 -1e-09 5.9e-09]], GJ_gate=[0.31], net=-2.2e-09
Breaking 0.054999999999999966 into 0.012749999999999984 and -0.04224999999999998

t=0: dumping short-format...
cc_cells= (moles/m3)
   [   9   10] Na
   [  98  637] K
   [  27  568] Cl
   [  80   80] P
Vm =      [46.0 -37.9]mV

t=10: dumping long-format...
cc_cells= (moles/m3)
   [   9   10] Na
   [  98  637] K
   [  27  567] Cl
   [  80   80] P
Vm =      [18.0 -50.1]mV
Na ionCh: [  65   42]*10^-9 mol/m2s
Na pump:  [ -65  -84]*10^-9 mol/m2s
K  ionCh: [ -17 -177]*10^-9 mol/m2s
K  pump:  [  43   56]*10^-9 mol/m2s
K  GJdiff:[   1   -1]*10^-9 mol/m2s
Cl ionCh: [  23 -161]*10^-9 mol/m2s
Cl GJdiff:[   1   -1]*10^-9 mol/m2s
Cl GJdrif:[   2   -2]*10^-9 mol/m2s

Totals by ion from all sources:
Na total: [  -0  -41]*10^-9 mol/m2s
K  total: [  26 -122]*10^-9 mol/m2s
Cl total: [  26 -164]*10^-9 mol/m2s

Grand valence-weighted totals from all sources across all ions:
          [  -0    0]*10^-9 mol/m2s

now the GJs by GJ (if any have non-zero flux):
K  GJ diff: [   1]*10^-9 mol/m2s
Cl GJ diff: [   1]*10^-9 mol/m2s
Cl GJ drif: [   2]*10^-9 mol/m2s
Goal deltaV=-55.0mV -> final Vmem=[18 -50]mV, delta=-68mV
Final pre-gate GJ diff=[[4.1e-12 1.8e-09 1.8e-09]], drift=[[-7.5e-11 -8.3e-10 4.8e-09]], GJ_gate=[0.43], net=-2.44e-09
Breaking 0.04999999999999996 into 0.010249999999999981 and -0.03974999999999998

t=0: dumping short-format...
cc_cells= (moles/m3)
   [   9   10] Na
   [  98  637] K
   [  27  567] Cl
   [  80   80] P
Vm =      [18.0 -50.1]mV

t=10: dumping long-format...
cc_cells= (moles/m3)
   [   9   10] Na
   [  98  636] K
   [  27  566] Cl
   [  80   80] P
Vm =      [14.8 -45.4]mV
Na ionCh: [  62   40]*10^-9 mol/m2s
Na pump:  [ -64  -80]*10^-9 mol/m2s
K  ionCh: [ -17 -165]*10^-9 mol/m2s
K  pump:  [  43   53]*10^-9 mol/m2s
K  GJdiff:[   1   -1]*10^-9 mol/m2s
Cl ionCh: [  22 -150]*10^-9 mol/m2s
Cl GJdiff:[   1   -1]*10^-9 mol/m2s
Cl GJdrif:[   2   -2]*10^-9 mol/m2s

Totals by ion from all sources:
Na total: [  -2  -40]*10^-9 mol/m2s
K  total: [  27 -112]*10^-9 mol/m2s
Cl total: [  24 -153]*10^-9 mol/m2s

Grand valence-weighted totals from all sources across all ions:
          [  -0    1]*10^-9 mol/m2s

now the GJs by GJ (if any have non-zero flux):
K  GJ diff: [   1]*10^-9 mol/m2s
Cl GJ diff: [   1]*10^-9 mol/m2s
Cl GJ drif: [   2]*10^-9 mol/m2s
Goal deltaV=-50.0mV -> final Vmem=[15 -45]mV, delta=-60mV
Final pre-gate GJ diff=[[3.3e-12 1.8e-09 1.8e-09]], drift=[[-6.6e-11 -7.4e-10 4.2e-09]], GJ_gate=[0.46], net=-2.33e-09
Breaking 0.04499999999999996 into 0.007749999999999979 and -0.03724999999999998

t=0: dumping short-format...
cc_cells= (moles/m3)
   [   9   10] Na
   [  98  636] K
   [  27  566] Cl
   [  80   80] P
Vm =      [14.8 -45.4]mV

t=10: dumping long-format...
cc_cells= (moles/m3)
   [   9   10] Na
   [  98  635] K
   [  27  565] Cl
   [  80   80] P
Vm =      [13.0 -41.6]mV
Na ionCh: [  60   38]*10^-9 mol/m2s
Na pump:  [ -64  -76]*10^-9 mol/m2s
K  ionCh: [ -16 -155]*10^-9 mol/m2s
K  pump:  [  43   51]*10^-9 mol/m2s
K  GJdiff:[   1   -1]*10^-9 mol/m2s
Cl ionCh: [  21 -141]*10^-9 mol/m2s
Cl GJdiff:[   1   -1]*10^-9 mol/m2s
Cl GJdrif:[   2   -2]*10^-9 mol/m2s

Totals by ion from all sources:
Na total: [  -4  -38]*10^-9 mol/m2s
K  total: [  27 -105]*10^-9 mol/m2s
Cl total: [  23 -143]*10^-9 mol/m2s

Grand valence-weighted totals from all sources across all ions:
          [  -0    1]*10^-9 mol/m2s

now the GJs by GJ (if any have non-zero flux):
K  GJ diff: [   1]*10^-9 mol/m2s
Cl GJ diff: [   1]*10^-9 mol/m2s
Cl GJ drif: [   2]*10^-9 mol/m2s
Goal deltaV=-45.0mV -> final Vmem=[13 -42]mV, delta=-55mV
Final pre-gate GJ diff=[[2.6e-12 1.8e-09 1.8e-09]], drift=[[-6e-11 -6.7e-10 3.8e-09]], GJ_gate=[0.48], net=-2.19e-09
Breaking 0.03999999999999995 into 0.005249999999999977 and -0.034749999999999975

t=0: dumping short-format...
cc_cells= (moles/m3)
   [   9   10] Na
   [  98  635] K
   [  27  565] Cl
   [  80   80] P
Vm =      [13.0 -41.6]mV

t=10: dumping long-format...
cc_cells= (moles/m3)
   [ 8.8  9.4] Na
   [  98  635] K
   [  27  564] Cl
   [  80   80] P
Vm =      [11.2 -38.0]mV
Na ionCh: [  59   36]*10^-9 mol/m2s
Na pump:  [ -64  -72]*10^-9 mol/m2s
K  ionCh: [ -16 -146]*10^-9 mol/m2s
K  pump:  [  42   48]*10^-9 mol/m2s
K  GJdiff:[   1   -1]*10^-9 mol/m2s
Cl ionCh: [  20 -133]*10^-9 mol/m2s
Cl GJdiff:[   1   -1]*10^-9 mol/m2s
Cl GJdrif:[   2   -2]*10^-9 mol/m2s

Totals by ion from all sources:
Na total: [  -5  -37]*10^-9 mol/m2s
K  total: [  27  -98]*10^-9 mol/m2s
Cl total: [  23 -135]*10^-9 mol/m2s

Grand valence-weighted totals from all sources across all ions:
          [   0    0]*10^-9 mol/m2s

now the GJs by GJ (if any have non-zero flux):
K  GJ diff: [   1]*10^-9 mol/m2s
Cl GJ diff: [   1]*10^-9 mol/m2s
Cl GJ drif: [   2]*10^-9 mol/m2s
Goal deltaV=-40.0mV -> final Vmem=[11 -38]mV, delta=-49mV
Final pre-gate GJ diff=[[1.9e-12 1.8e-09 1.8e-09]], drift=[[-5.4e-11 -6e-10 3.5e-09]], GJ_gate=[0.49], net=-2.03e-09
Breaking 0.03499999999999995 into 0.0027499999999999747 and -0.03224999999999997

t=0: dumping short-format...
cc_cells= (moles/m3)
   [ 8.8  9.4] Na
   [  98  635] K
   [  27  564] Cl
   [  80   80] P
Vm =      [11.2 -38.0]mV

t=10: dumping long-format...
cc_cells= (moles/m3)
   [ 8.8  9.2] Na
   [  99  634] K
   [  27  563] Cl
   [  80   80] P
Vm =      [ 7.4 -33.8]mV
Na ionCh: [  55   33]*10^-9 mol/m2s
Na pump:  [ -63  -69]*10^-9 mol/m2s
K  ionCh: [ -14 -135]*10^-9 mol/m2s
K  pump:  [  42   46]*10^-9 mol/m2s
K  GJdiff:[   1   -1]*10^-9 mol/m2s
Cl ionCh: [  18 -123]*10^-9 mol/m2s
Cl GJdiff:[   1   -1]*10^-9 mol/m2s
Cl GJdrif:[   1   -1]*10^-9 mol/m2s

Totals by ion from all sources:
Na total: [  -7  -35]*10^-9 mol/m2s
K  total: [  28  -90]*10^-9 mol/m2s
Cl total: [  21 -125]*10^-9 mol/m2s

Grand valence-weighted totals from all sources across all ions:
          [   0   -0]*10^-9 mol/m2s

now the GJs by GJ (if any have non-zero flux):
K  GJ diff: [   1]*10^-9 mol/m2s
Cl GJ diff: [   1]*10^-9 mol/m2s
Cl GJ drif: [   1]*10^-9 mol/m2s
Goal deltaV=-35.0mV -> final Vmem=[7 -34]mV, delta=-41mV
Final pre-gate GJ diff=[[1.3e-12 1.8e-09 1.8e-09]], drift=[[-4.5e-11 -5.1e-10 2.9e-09]], GJ_gate=[0.51], net=-1.74e-09
Breaking 0.029999999999999943 into 0.00024999999999997247 and -0.02974999999999997

t=0: dumping short-format...
cc_cells= (moles/m3)
   [ 8.8  9.2] Na
   [  99  634] K
   [  27  563] Cl
   [  80   80] P
Vm =      [ 7.4 -33.8]mV

t=10: dumping long-format...
cc_cells= (moles/m3)
   [ 8.7  8.9] Na
   [  99  634] K
   [  27  563] Cl
   [  80   80] P
Vm =      [ 0.4 -30.3]mV
Na ionCh: [  50   32]*10^-9 mol/m2s
Na pump:  [ -62  -65]*10^-9 mol/m2s
K  ionCh: [ -13 -126]*10^-9 mol/m2s
K  pump:  [  41   44]*10^-9 mol/m2s
K  GJdiff:[   1   -1]*10^-9 mol/m2s
Cl ionCh: [  15 -115]*10^-9 mol/m2s
Cl GJdiff:[   1   -1]*10^-9 mol/m2s
Cl GJdrif:[   1   -1]*10^-9 mol/m2s

Totals by ion from all sources:
Na total: [ -12  -34]*10^-9 mol/m2s
K  total: [  29  -83]*10^-9 mol/m2s
Cl total: [  17 -118]*10^-9 mol/m2s

Grand valence-weighted totals from all sources across all ions:
          [   0    0]*10^-9 mol/m2s

now the GJs by GJ (if any have non-zero flux):
K  GJ diff: [   1]*10^-9 mol/m2s
Cl GJ diff: [   1]*10^-9 mol/m2s
Cl GJ drif: [   1]*10^-9 mol/m2s
Goal deltaV=-30.0mV -> final Vmem=[0 -30]mV, delta=-31mV
Final pre-gate GJ diff=[[8.6e-13 1.8e-09 1.8e-09]], drift=[[-3.3e-11 -3.8e-10 2.2e-09]], GJ_gate=[0.52], net=-1.33e-09
Breaking 0.02499999999999994 into -0.0022500000000000298 and -0.02724999999999997

t=0: dumping short-format...
cc_cells= (moles/m3)
   [ 8.7  8.9] Na
   [  99  634] K
   [  27  563] Cl
   [  80   80] P
Vm =      [ 0.4 -30.3]mV

t=10: dumping long-format...
cc_cells= (moles/m3)
   [ 8.6  8.7] Na
   [  99  633] K
   [  28  562] Cl
   [  80   80] P
Vm =      [-8.5 -27.7]mV
Na ionCh: [  43   30]*10^-9 mol/m2s
Na pump:  [ -60  -62]*10^-9 mol/m2s
K  ionCh: [ -10 -120]*10^-9 mol/m2s
K  pump:  [  40   42]*10^-9 mol/m2s
K  GJdiff:[   1   -1]*10^-9 mol/m2s
Cl ionCh: [  12 -110]*10^-9 mol/m2s
Cl GJdiff:[   1   -1]*10^-9 mol/m2s
Cl GJdrif:[   1   -1]*10^-9 mol/m2s

Totals by ion from all sources:
Na total: [ -17  -32]*10^-9 mol/m2s
K  total: [  30  -80]*10^-9 mol/m2s
Cl total: [  13 -111]*10^-9 mol/m2s

Grand valence-weighted totals from all sources across all ions:
          [   0   -0]*10^-9 mol/m2s

now the GJs by GJ (if any have non-zero flux):
K  GJ diff: [   1]*10^-9 mol/m2s
Cl GJ diff: [   1]*10^-9 mol/m2s
Cl GJ drif: [   1]*10^-9 mol/m2s
Goal deltaV=-25.0mV -> final Vmem=[-9 -28]mV, delta=-19mV
Final pre-gate GJ diff=[[5.5e-13 1.8e-09 1.8e-09]], drift=[[-2e-11 -2.4e-10 1.3e-09]], GJ_gate=[0.53], net=-8.41e-10
Breaking 0.019999999999999934 into -0.004750000000000032 and -0.024749999999999966

t=0: dumping short-format...
cc_cells= (moles/m3)
   [ 8.6  8.7] Na
   [  99  633] K
   [  28  562] Cl
   [  80   80] P
Vm =      [-8.5 -27.7]mV

t=10: dumping long-format...
cc_cells= (moles/m3)
   [ 8.5  8.5] Na
   [  99  633] K
   [  28  561] Cl
   [  80   80] P
Vm =      [-11.2 -24.9]mV
Na ionCh: [  40   29]*10^-9 mol/m2s
Na pump:  [ -58  -59]*10^-9 mol/m2s
K  ionCh: [ -10 -113]*10^-9 mol/m2s
K  pump:  [  39   40]*10^-9 mol/m2s
K  GJdiff:[   1   -1]*10^-9 mol/m2s
Cl ionCh: [  11 -104]*10^-9 mol/m2s
Cl GJdiff:[   1   -1]*10^-9 mol/m2s
Cl GJdrif:[   1   -1]*10^-9 mol/m2s

Totals by ion from all sources:
Na total: [ -18  -30]*10^-9 mol/m2s
K  total: [  30  -75]*10^-9 mol/m2s
Cl total: [  12 -105]*10^-9 mol/m2s

Grand valence-weighted totals from all sources across all ions:
          [   0    0]*10^-9 mol/m2s

now the GJs by GJ (if any have non-zero flux):
K  GJ diff: [   1]*10^-9 mol/m2s
Cl GJ diff: [   1]*10^-9 mol/m2s
Cl GJ drif: [   1]*10^-9 mol/m2s
Goal deltaV=-20.0mV -> final Vmem=[-11 -25]mV, delta=-14mV
Final pre-gate GJ diff=[[2.9e-13 1.8e-09 1.8e-09]], drift=[[-1.4e-11 -1.7e-10 9.6e-10]], GJ_gate=[0.53], net=-6.04e-10
Breaking 0.01499999999999993 into -0.007250000000000034 and -0.022249999999999964

t=0: dumping short-format...
cc_cells= (moles/m3)
   [ 8.5  8.5] Na
   [  99  633] K
   [  28  561] Cl
   [  80   80] P
Vm =      [-11.2 -24.9]mV

t=10: dumping long-format...
cc_cells= (moles/m3)
   [ 8.3  8.3] Na
   [  99  632] K
   [  28  561] Cl
   [  80   80] P
Vm =      [-14.2 -21.7]mV
Na ionCh: [  38   28]*10^-9 mol/m2s
Na pump:  [ -56  -57]*10^-9 mol/m2s
K  ionCh: [  -9 -106]*10^-9 mol/m2s
K  pump:  [  38   38]*10^-9 mol/m2s
K  GJdiff:[   1   -1]*10^-9 mol/m2s
Cl ionCh: [   9  -97]*10^-9 mol/m2s
Cl GJdiff:[   1   -1]*10^-9 mol/m2s

Totals by ion from all sources:
Na total: [ -19  -29]*10^-9 mol/m2s
K  total: [  29  -69]*10^-9 mol/m2s
Cl total: [  11  -98]*10^-9 mol/m2s

Grand valence-weighted totals from all sources across all ions:
          [   0    0]*10^-9 mol/m2s

now the GJs by GJ (if any have non-zero flux):
K  GJ diff: [   1]*10^-9 mol/m2s
Cl GJ diff: [   1]*10^-9 mol/m2s
Goal deltaV=-15.0mV -> final Vmem=[-14 -22]mV, delta=-7mV
Final pre-gate GJ diff=[[6.3e-14 1.8e-09 1.8e-09]], drift=[[-7.8e-12 -9.3e-11 5.2e-10]], GJ_gate=[0.53], net=-3.3e-10
Breaking 0.009999999999999926 into -0.009750000000000036 and -0.019749999999999962

t=0: dumping short-format...
cc_cells= (moles/m3)
   [ 8.3  8.3] Na
   [  99  632] K
   [  28  561] Cl
   [  80   80] P
Vm =      [-14.2 -21.7]mV

t=10: dumping long-format...
cc_cells= (moles/m3)
   [ 8.2  8.2] Na
   [ 100  632] K
   [  28  560] Cl
   [  80   80] P
Vm =      [-17.7 -18.1]mV
Na ionCh: [ 347  258]*10^-10 mol/m2s
Na pump:  [-544 -538]*10^-10 mol/m2s
K  ionCh: [ -85 -973]*10^-10 mol/m2s
K  pump:  [ 363  358]*10^-10 mol/m2s
K  GJdiff:[   9   -9]*10^-10 mol/m2s
Cl ionCh: [  81 -897]*10^-10 mol/m2s
Cl GJdiff:[   9   -9]*10^-10 mol/m2s

Totals by ion from all sources:
Na total: [-196 -279]*10^-10 mol/m2s
K  total: [ 287 -624]*10^-10 mol/m2s
Cl total: [  91 -907]*10^-10 mol/m2s

Grand valence-weighted totals from all sources across all ions:
          [   0    4]*10^-10 mol/m2s

now the GJs by GJ (if any have non-zero flux):
K  GJ diff: [   9]*10^-10 mol/m2s
Cl GJ diff: [   9]*10^-10 mol/m2s
Goal deltaV=-10.0mV -> final Vmem=[-18 -18]mV, delta=-0mV
Final pre-gate GJ diff=[[-1.2e-13 1.8e-09 1.8e-09]], drift=[[-4.3e-13 -5.2e-12 2.9e-11]], GJ_gate=[0.53], net=-1.84e-11
Breaking 0.004999999999999921 into -0.012250000000000039 and -0.01724999999999996

t=0: dumping short-format...
cc_cells= (moles/m3)
   [ 8.2  8.2] Na
   [ 100  632] K
   [  28  560] Cl
   [  80   80] P
Vm =      [-17.7 -18.1]mV

t=10: dumping long-format...
cc_cells= (moles/m3)
   [ 8.1  8.0] Na
   [ 100  632] K
   [  28  560] Cl
   [  80   80] P
Vm =      [-21.6 -13.7]mV
Na ionCh: [ 315  239]*10^-10 mol/m2s
Na pump:  [-524 -512]*10^-10 mol/m2s
K  ionCh: [ -77 -879]*10^-10 mol/m2s
K  pump:  [ 349  341]*10^-10 mol/m2s
K  GJdiff:[   9   -9]*10^-10 mol/m2s
K  GJdrif:[   3   -3]*10^-10 mol/m2s
Cl ionCh: [  67 -812]*10^-10 mol/m2s
Cl GJdiff:[   9   -9]*10^-10 mol/m2s

Totals by ion from all sources:
Na total: [-209 -273]*10^-10 mol/m2s
K  total: [ 285 -550]*10^-10 mol/m2s
Cl total: [  76 -821]*10^-10 mol/m2s

Grand valence-weighted totals from all sources across all ions:
          [   0   -2]*10^-10 mol/m2s

now the GJs by GJ (if any have non-zero flux):
K  GJ diff: [   9]*10^-10 mol/m2s
K  GJ drif: [   3]*10^-10 mol/m2s
Cl GJ diff: [   9]*10^-10 mol/m2s
Goal deltaV=-5.0mV -> final Vmem=[-22 -14]mV, delta=8mV
Final pre-gate GJ diff=[[-2.5e-13 1.8e-09 1.8e-09]], drift=[[7.9e-12 6.2e-10 -2.7e-11]], GJ_gate=[0.53], net=3.48e-10
Breaking 8.326672684688674e-17 into -0.014749999999999958 and -0.01475000000000004

t=0: dumping short-format...
cc_cells= (moles/m3)
   [ 8.1  8.0] Na
   [ 100  632] K
   [  28  560] Cl
   [  80   80] P
Vm =      [-21.6 -13.7]mV

t=10: dumping long-format...
cc_cells= (moles/m3)
   [ 7.9  7.8] Na
   [ 100  631] K
   [  28  559] Cl
   [  80   80] P
Vm =      [-25.2 -8.8]mV
Na ionCh: [ 292  218]*10^-10 mol/m2s
Na pump:  [-504 -487]*10^-10 mol/m2s
K  ionCh: [ -76 -766]*10^-10 mol/m2s
K  pump:  [ 336  325]*10^-10 mol/m2s
K  GJdiff:[   9   -9]*10^-10 mol/m2s
K  GJdrif:[   7   -7]*10^-10 mol/m2s
Cl ionCh: [  55 -717]*10^-10 mol/m2s
Cl GJdiff:[   9   -9]*10^-10 mol/m2s

Totals by ion from all sources:
Na total: [-212 -269]*10^-10 mol/m2s
K  total: [ 276 -457]*10^-10 mol/m2s
Cl total: [  64 -726]*10^-10 mol/m2s

Grand valence-weighted totals from all sources across all ions:
          [   0   -1]*10^-10 mol/m2s

now the GJs by GJ (if any have non-zero flux):
K  GJ diff: [   9]*10^-10 mol/m2s
K  GJ drif: [   7]*10^-10 mol/m2s
Cl GJ diff: [   9]*10^-10 mol/m2s
Goal deltaV=0.0mV -> final Vmem=[-25 -9]mV, delta=16mV
Final pre-gate GJ diff=[[-3.7e-13 1.8e-09 1.8e-09]], drift=[[1.6e-11 1.3e-09 -5.7e-11]], GJ_gate=[0.53], net=7.21e-10
Breaking 0.005000000000000088 into -0.012249999999999955 and -0.017250000000000043

t=0: dumping short-format...
cc_cells= (moles/m3)
   [ 7.9  7.8] Na
   [ 100  631] K
   [  28  559] Cl
   [  80   80] P
Vm =      [-25.2 -8.8]mV

t=10: dumping long-format...
cc_cells= (moles/m3)
   [ 7.8  7.7] Na
   [ 100  631] K
   [  28  559] Cl
   [  80   80] P
Vm =      [-26.4 -6.2]mV
Na ionCh: [ 298  238]*10^-10 mol/m2s
Na pump:  [-487 -466]*10^-10 mol/m2s
K  ionCh: [ -94 -740]*10^-10 mol/m2s
K  pump:  [ 324  311]*10^-10 mol/m2s
K  GJdiff:[   9   -9]*10^-10 mol/m2s
K  GJdrif:[   8   -8]*10^-10 mol/m2s
Cl ionCh: [  51 -669]*10^-10 mol/m2s
Cl GJdiff:[   9   -9]*10^-10 mol/m2s

Totals by ion from all sources:
Na total: [-188 -228]*10^-10 mol/m2s
K  total: [ 248 -447]*10^-10 mol/m2s
Cl total: [  60 -678]*10^-10 mol/m2s

Grand valence-weighted totals from all sources across all ions:
          [   0    3]*10^-10 mol/m2s

now the GJs by GJ (if any have non-zero flux):
K  GJ diff: [   9]*10^-10 mol/m2s
K  GJ drif: [   8]*10^-10 mol/m2s
Cl GJ diff: [   9]*10^-10 mol/m2s
Goal deltaV=5.0mV -> final Vmem=[-26 -6]mV, delta=20mV
Final pre-gate GJ diff=[[-4.6e-13 1.8e-09 1.8e-09]], drift=[[1.9e-11 1.6e-09 -7e-11]], GJ_gate=[0.53], net=8.82e-10
Breaking 0.010000000000000092 into -0.009749999999999953 and -0.019750000000000045

t=0: dumping short-format...
cc_cells= (moles/m3)
   [ 7.8  7.7] Na
   [ 100  631] K
   [  28  559] Cl
   [  80   80] P
Vm =      [-26.4 -6.2]mV

t=10: dumping long-format...
cc_cells= (moles/m3)
   [ 7.7  7.6] Na
   [ 100  631] K
   [  28  558] Cl
   [  80   80] P
Vm =      [-27.6 -5.0]mV
Na ionCh: [ 304  275]*10^-10 mol/m2s
Na pump:  [-471 -450]*10^-10 mol/m2s
K  ionCh: [-110 -758]*10^-10 mol/m2s
K  pump:  [ 314  300]*10^-10 mol/m2s
K  GJdiff:[   9   -9]*10^-10 mol/m2s
K  GJdrif:[   9   -9]*10^-10 mol/m2s
Cl ionCh: [  47 -646]*10^-10 mol/m2s
Cl GJdiff:[   9   -9]*10^-10 mol/m2s

Totals by ion from all sources:
Na total: [-167 -175]*10^-10 mol/m2s
K  total: [ 223 -477]*10^-10 mol/m2s
Cl total: [  56 -655]*10^-10 mol/m2s

Grand valence-weighted totals from all sources across all ions:
          [   0    3]*10^-10 mol/m2s

now the GJs by GJ (if any have non-zero flux):
K  GJ diff: [   9]*10^-10 mol/m2s
K  GJ drif: [   9]*10^-10 mol/m2s
Cl GJ diff: [   9]*10^-10 mol/m2s
Goal deltaV=10.0mV -> final Vmem=[-28 -5]mV, delta=23mV
Final pre-gate GJ diff=[[-4.8e-13 1.8e-09 1.8e-09]], drift=[[2.1e-11 1.8e-09 -7.9e-11]], GJ_gate=[0.52], net=9.85e-10
Breaking 0.015000000000000097 into -0.007249999999999951 and -0.022250000000000048

t=0: dumping short-format...
cc_cells= (moles/m3)
   [ 7.7  7.6] Na
   [ 100  631] K
   [  28  558] Cl
   [  80   80] P
Vm =      [-27.6 -5.0]mV

t=10: dumping long-format...
cc_cells= (moles/m3)
   [ 7.6  7.5] Na
   [ 100  630] K
   [  28  558] Cl
   [  80   80] P
Vm =      [-28.8 -3.8]mV
Na ionCh: [ 310  310]*10^-10 mol/m2s
Na pump:  [-457 -438]*10^-10 mol/m2s
K  ionCh: [-125 -775]*10^-10 mol/m2s
K  pump:  [ 305  292]*10^-10 mol/m2s
K  GJdiff:[   9   -9]*10^-10 mol/m2s
K  GJdrif:[  10  -10]*10^-10 mol/m2s
Cl ionCh: [  43 -624]*10^-10 mol/m2s
Cl GJdiff:[   9   -9]*10^-10 mol/m2s

Totals by ion from all sources:
Na total: [-147 -129]*10^-10 mol/m2s
K  total: [ 199 -503]*10^-10 mol/m2s
Cl total: [  52 -633]*10^-10 mol/m2s

Grand valence-weighted totals from all sources across all ions:
          [   0    2]*10^-10 mol/m2s

now the GJs by GJ (if any have non-zero flux):
K  GJ diff: [   9]*10^-10 mol/m2s
K  GJ drif: [  10]*10^-10 mol/m2s
Cl GJ diff: [   9]*10^-10 mol/m2s
Goal deltaV=15.0mV -> final Vmem=[-29 -4]mV, delta=25mV
Final pre-gate GJ diff=[[-4.4e-13 1.8e-09 1.8e-09]], drift=[[2.3e-11 2e-09 -8.7e-11]], GJ_gate=[0.52], net=1.08e-09
Breaking 0.0200000000000001 into -0.004749999999999949 and -0.02475000000000005

t=0: dumping short-format...
cc_cells= (moles/m3)
   [ 7.6  7.5] Na
   [ 100  630] K
   [  28  558] Cl
   [  80   80] P
Vm =      [-28.8 -3.8]mV

t=10: dumping long-format...
cc_cells= (moles/m3)
   [ 7.5  7.4] Na
   [ 100  630] K
   [  28  558] Cl
   [  80   80] P
Vm =      [-29.9 -2.7]mV
Na ionCh: [ 316  343]*10^-10 mol/m2s
Na pump:  [-446 -430]*10^-10 mol/m2s
K  ionCh: [-140 -792]*10^-10 mol/m2s
K  pump:  [ 297  287]*10^-10 mol/m2s
K  GJdiff:[   9   -9]*10^-10 mol/m2s
K  GJdrif:[  11  -11]*10^-10 mol/m2s
Cl ionCh: [  39 -604]*10^-10 mol/m2s
Cl GJdiff:[   9   -9]*10^-10 mol/m2s

Totals by ion from all sources:
Na total: [-130  -87]*10^-10 mol/m2s
K  total: [ 178 -525]*10^-10 mol/m2s
Cl total: [  48 -612]*10^-10 mol/m2s

Grand valence-weighted totals from all sources across all ions:
          [   0   -1]*10^-10 mol/m2s

now the GJs by GJ (if any have non-zero flux):
K  GJ diff: [   9]*10^-10 mol/m2s
K  GJ drif: [  11]*10^-10 mol/m2s
Cl GJ diff: [   9]*10^-10 mol/m2s
Goal deltaV=20.0mV -> final Vmem=[-30 -3]mV, delta=27mV
Final pre-gate GJ diff=[[-3.5e-13 1.8e-09 1.8e-09]], drift=[[2.5e-11 2.1e-09 -9.5e-11]], GJ_gate=[0.52], net=1.18e-09
Breaking 0.025000000000000105 into -0.0022499999999999465 and -0.027250000000000052

t=0: dumping short-format...
cc_cells= (moles/m3)
   [ 7.5  7.4] Na
   [ 100  630] K
   [  28  558] Cl
   [  80   80] P
Vm =      [-29.9 -2.7]mV

t=10: dumping long-format...
cc_cells= (moles/m3)
   [ 7.5  7.4] Na
   [ 101  630] K
   [  28  557] Cl
   [  80   80] P
Vm =      [-31.0 -1.7]mV
Na ionCh: [ 321  376]*10^-10 mol/m2s
Na pump:  [-435 -426]*10^-10 mol/m2s
K  ionCh: [-153 -806]*10^-10 mol/m2s
K  pump:  [ 290  284]*10^-10 mol/m2s
K  GJdiff:[   9   -9]*10^-10 mol/m2s
K  GJdrif:[  12  -12]*10^-10 mol/m2s
Cl ionCh: [  36 -587]*10^-10 mol/m2s
Cl GJdiff:[   9   -9]*10^-10 mol/m2s
Cl GJdrif:[  -1    1]*10^-10 mol/m2s

Totals by ion from all sources:
Na total: [-114  -50]*10^-10 mol/m2s
K  total: [ 158 -543]*10^-10 mol/m2s
Cl total: [  44 -595]*10^-10 mol/m2s

Grand valence-weighted totals from all sources across all ions:
          [   0    2]*10^-10 mol/m2s

now the GJs by GJ (if any have non-zero flux):
K  GJ diff: [   9]*10^-10 mol/m2s
K  GJ drif: [  12]*10^-10 mol/m2s
Cl GJ diff: [   9]*10^-10 mol/m2s
Cl GJ drif: [  -1]*10^-10 mol/m2s
Goal deltaV=25.0mV -> final Vmem=[-31 -2]mV, delta=29mV
Final pre-gate GJ diff=[[-2.2e-13 1.8e-09 1.8e-09]], drift=[[2.7e-11 2.3e-09 -1e-10]], GJ_gate=[0.52], net=1.26e-09
Breaking 0.03000000000000011 into 0.00025000000000005573 and -0.029750000000000054

t=0: dumping short-format...
cc_cells= (moles/m3)
   [ 7.5  7.4] Na
   [ 101  630] K
   [  28  557] Cl
   [  80   80] P
Vm =      [-31.0 -1.7]mV

t=10: dumping long-format...
cc_cells= (moles/m3)
   [ 7.4  7.4] Na
   [ 101  629] K
   [  28  557] Cl
   [  80   80] P
Vm =      [-32.0  1.7]mV
Na ionCh: [ 326  487]*10^-10 mol/m2s
Na pump:  [-426 -431]*10^-10 mol/m2s
K  ionCh: [-166 -859]*10^-10 mol/m2s
K  pump:  [ 284  287]*10^-10 mol/m2s
K  GJdiff:[   9   -9]*10^-10 mol/m2s
K  GJdrif:[  14  -14]*10^-10 mol/m2s
Cl ionCh: [  33 -527]*10^-10 mol/m2s
Cl GJdiff:[   9   -9]*10^-10 mol/m2s
Cl GJdrif:[  -1    1]*10^-10 mol/m2s

Totals by ion from all sources:
Na total: [-100   56]*10^-10 mol/m2s
K  total: [ 141 -595]*10^-10 mol/m2s
Cl total: [  41 -535]*10^-10 mol/m2s

Grand valence-weighted totals from all sources across all ions:
          [   0   -4]*10^-10 mol/m2s

now the GJs by GJ (if any have non-zero flux):
K  GJ diff: [   9]*10^-10 mol/m2s
K  GJ drif: [  14]*10^-10 mol/m2s
Cl GJ diff: [   9]*10^-10 mol/m2s
Cl GJ drif: [  -1]*10^-10 mol/m2s
Goal deltaV=30.0mV -> final Vmem=[-32 2]mV, delta=34mV
Final pre-gate GJ diff=[[1.2e-13 1.8e-09 1.8e-09]], drift=[[3.1e-11 2.6e-09 -1.2e-10]], GJ_gate=[0.52], net=1.44e-09
Breaking 0.035000000000000114 into 0.002750000000000058 and -0.032250000000000056

t=0: dumping short-format...
cc_cells= (moles/m3)
   [ 7.4  7.4] Na
   [ 101  629] K
   [  28  557] Cl
   [  80   80] P
Vm =      [-32.0  1.7]mV

t=10: dumping long-format...
cc_cells= (moles/m3)
   [ 7.3  7.5] Na
   [ 101  629] K
   [  28  557] Cl
   [  80   80] P
Vm =      [-33.6  4.7]mV
Na ionCh: [ 335  594]*10^-10 mol/m2s
Na pump:  [-419 -445]*10^-10 mol/m2s
K  ionCh: [-184 -909]*10^-10 mol/m2s
K  pump:  [ 279  297]*10^-10 mol/m2s
K  GJdiff:[   9   -9]*10^-10 mol/m2s
K  GJdrif:[  15  -15]*10^-10 mol/m2s
Cl ionCh: [  28 -475]*10^-10 mol/m2s
Cl GJdiff:[   9   -9]*10^-10 mol/m2s
Cl GJdrif:[  -1    1]*10^-10 mol/m2s

Totals by ion from all sources:
Na total: [ -84  149]*10^-10 mol/m2s
K  total: [ 120 -636]*10^-10 mol/m2s
Cl total: [  36 -483]*10^-10 mol/m2s

Grand valence-weighted totals from all sources across all ions:
          [   0   -4]*10^-10 mol/m2s

now the GJs by GJ (if any have non-zero flux):
K  GJ diff: [   9]*10^-10 mol/m2s
K  GJ drif: [  15]*10^-10 mol/m2s
Cl GJ diff: [   9]*10^-10 mol/m2s
Cl GJ drif: [  -1]*10^-10 mol/m2s
Goal deltaV=35.0mV -> final Vmem=[-34 5]mV, delta=38mV
Final pre-gate GJ diff=[[6.3e-13 1.8e-09 1.8e-09]], drift=[[3.6e-11 3e-09 -1.3e-10]], GJ_gate=[0.51], net=1.62e-09
Breaking 0.04000000000000012 into 0.00525000000000006 and -0.03475000000000006

t=0: dumping short-format...
cc_cells= (moles/m3)
   [ 7.3  7.5] Na
   [ 101  629] K
   [  28  557] Cl
   [  80   80] P
Vm =      [-33.6  4.7]mV

t=10: dumping long-format...
cc_cells= (moles/m3)
   [ 7.3  7.7] Na
   [ 101  629] K
   [  28  556] Cl
   [  80   80] P
Vm =      [-35.7  6.5]mV
Na ionCh: [ 346  662]*10^-10 mol/m2s
Na pump:  [-413 -464]*10^-10 mol/m2s
K  ionCh: [-205 -938]*10^-10 mol/m2s
K  pump:  [ 275  309]*10^-10 mol/m2s
K  GJdiff:[   9   -9]*10^-10 mol/m2s
K  GJdrif:[  17  -17]*10^-10 mol/m2s
Cl ionCh: [  21 -445]*10^-10 mol/m2s
Cl GJdiff:[   9   -9]*10^-10 mol/m2s
Cl GJdrif:[  -1    1]*10^-10 mol/m2s

Totals by ion from all sources:
Na total: [ -67  198]*10^-10 mol/m2s
K  total: [  96 -654]*10^-10 mol/m2s
Cl total: [  29 -453]*10^-10 mol/m2s

Grand valence-weighted totals from all sources across all ions:
          [   0   -4]*10^-10 mol/m2s

now the GJs by GJ (if any have non-zero flux):
K  GJ diff: [   9]*10^-10 mol/m2s
K  GJ drif: [  17]*10^-10 mol/m2s
Cl GJ diff: [   9]*10^-10 mol/m2s
Cl GJ drif: [  -1]*10^-10 mol/m2s
Goal deltaV=40.0mV -> final Vmem=[-36 6]mV, delta=42mV
Final pre-gate GJ diff=[[1.2e-12 1.8e-09 1.8e-09]], drift=[[4e-11 3.3e-09 -1.5e-10]], GJ_gate=[0.5], net=1.76e-09
Breaking 0.04500000000000012 into 0.007750000000000062 and -0.03725000000000006

t=0: dumping short-format...
cc_cells= (moles/m3)
   [ 7.3  7.7] Na
   [ 101  629] K
   [  28  556] Cl
   [  80   80] P
Vm =      [-35.7  6.5]mV

t=10: dumping long-format...
cc_cells= (moles/m3)
   [ 7.3  7.8] Na
   [ 101  628] K
   [  28  556] Cl
   [  80   80] P
Vm =      [-37.6  7.3]mV
Na ionCh: [ 356  698]*10^-10 mol/m2s
Na pump:  [-408 -484]*10^-10 mol/m2s
K  ionCh: [-223 -952]*10^-10 mol/m2s
K  pump:  [ 272  323]*10^-10 mol/m2s
K  GJdiff:[   9   -9]*10^-10 mol/m2s
K  GJdrif:[  18  -18]*10^-10 mol/m2s
Cl ionCh: [  15 -431]*10^-10 mol/m2s
Cl GJdiff:[   9   -9]*10^-10 mol/m2s
Cl GJdrif:[  -1    1]*10^-10 mol/m2s

Totals by ion from all sources:
Na total: [ -52  213]*10^-10 mol/m2s
K  total: [  75 -655]*10^-10 mol/m2s
Cl total: [  23 -439]*10^-10 mol/m2s

Grand valence-weighted totals from all sources across all ions:
          [   0   -3]*10^-10 mol/m2s

now the GJs by GJ (if any have non-zero flux):
K  GJ diff: [   9]*10^-10 mol/m2s
K  GJ drif: [  18]*10^-10 mol/m2s
Cl GJ diff: [   9]*10^-10 mol/m2s
Cl GJ drif: [  -1]*10^-10 mol/m2s
Goal deltaV=45.0mV -> final Vmem=[-38 7]mV, delta=45mV
Final pre-gate GJ diff=[[1.8e-12 1.8e-09 1.8e-09]], drift=[[4.4e-11 3.5e-09 -1.6e-10]], GJ_gate=[0.5], net=1.86e-09
Breaking 0.05000000000000013 into 0.010250000000000065 and -0.03975000000000006

t=0: dumping short-format...
cc_cells= (moles/m3)
   [ 7.3  7.8] Na
   [ 101  628] K
   [  28  556] Cl
   [  80   80] P
Vm =      [-37.6  7.3]mV

t=10: dumping long-format...
cc_cells= (moles/m3)
   [ 7.2  8.0] Na
   [ 101  628] K
   [  28  556] Cl
   [  80   80] P
Vm =      [-39.8  8.1]mV
Na ionCh: [ 367  732]*10^-10 mol/m2s
Na pump:  [-405 -506]*10^-10 mol/m2s
K  ionCh: [-243 -965]*10^-10 mol/m2s
K  pump:  [ 270  337]*10^-10 mol/m2s
K  GJdiff:[   9   -9]*10^-10 mol/m2s
K  GJdrif:[  19  -19]*10^-10 mol/m2s
Cl ionCh: [   9 -418]*10^-10 mol/m2s
Cl GJdiff:[   9   -9]*10^-10 mol/m2s
Cl GJdrif:[  -1    1]*10^-10 mol/m2s

Totals by ion from all sources:
Na total: [ -37  226]*10^-10 mol/m2s
K  total: [  54 -655]*10^-10 mol/m2s
Cl total: [  17 -425]*10^-10 mol/m2s

Grand valence-weighted totals from all sources across all ions:
          [   0   -4]*10^-10 mol/m2s

now the GJs by GJ (if any have non-zero flux):
K  GJ diff: [   9]*10^-10 mol/m2s
K  GJ drif: [  19]*10^-10 mol/m2s
Cl GJ diff: [   9]*10^-10 mol/m2s
Cl GJ drif: [  -1]*10^-10 mol/m2s
Goal deltaV=50.0mV -> final Vmem=[-40 8]mV, delta=48mV
Final pre-gate GJ diff=[[2.4e-12 1.8e-09 1.8e-09]], drift=[[4.8e-11 3.8e-09 -1.7e-10]], GJ_gate=[0.49], net=1.96e-09
Breaking 0.05500000000000013 into 0.012750000000000067 and -0.042250000000000065

t=0: dumping short-format...
cc_cells= (moles/m3)
   [ 7.2  8.0] Na
   [ 101  628] K
   [  28  556] Cl
   [  80   80] P
Vm =      [-39.8  8.1]mV

t=10: dumping long-format...
cc_cells= (moles/m3)
   [ 7.2  8.1] Na
   [ 101  627] K
   [  28  555] Cl
   [  80   80] P
Vm =      [-42.5  9.8]mV
Na ionCh: [ 382  797]*10^-10 mol/m2s
Na pump:  [-403 -531]*10^-10 mol/m2s
K  ionCh: [-268 -994]*10^-10 mol/m2s
K  pump:  [ 269  354]*10^-10 mol/m2s
K  GJdiff:[   9   -9]*10^-10 mol/m2s
K  GJdrif:[  20  -20]*10^-10 mol/m2s
Cl ionCh: [   1 -390]*10^-10 mol/m2s
Cl GJdiff:[   9   -9]*10^-10 mol/m2s
Cl GJdrif:[  -1    1]*10^-10 mol/m2s

Totals by ion from all sources:
Na total: [ -20  265]*10^-10 mol/m2s
K  total: [  29 -668]*10^-10 mol/m2s
Cl total: [   9 -398]*10^-10 mol/m2s

Grand valence-weighted totals from all sources across all ions:
          [   0   -4]*10^-10 mol/m2s

now the GJs by GJ (if any have non-zero flux):
K  GJ diff: [   9]*10^-10 mol/m2s
K  GJ drif: [  20]*10^-10 mol/m2s
Cl GJ diff: [   9]*10^-10 mol/m2s
Cl GJ drif: [  -1]*10^-10 mol/m2s
Goal deltaV=55.0mV -> final Vmem=[-43 10]mV, delta=52mV
Final pre-gate GJ diff=[[3e-12 1.8e-09 1.8e-09]], drift=[[5.3e-11 4.1e-09 -1.8e-10]], GJ_gate=[0.48], net=2.1e-09
Breaking 0.06000000000000014 into 0.02575000000000007 and -0.034250000000000065

t=0: dumping short-format...
cc_cells= (moles/m3)
   [ 7.2  8.1] Na
   [ 101  627] K
   [  28  555] Cl
   [  80   80] P
Vm =      [-42.5  9.8]mV

t=10: dumping long-format...
cc_cells= (moles/m3)
   [ 7.2  8.7] Na
   [ 101  627] K
   [  28  555] Cl
   [  80   80] P
Vm =      [-34.5 30.8]mV
Na ionCh: [  34  155]*10^-9 mol/m2s
Na pump:  [ -40  -62]*10^-9 mol/m2s
K  ionCh: [ -21 -140]*10^-9 mol/m2s
K  pump:  [  27   41]*10^-9 mol/m2s
K  GJdiff:[   1   -1]*10^-9 mol/m2s
K  GJdrif:[   2   -2]*10^-9 mol/m2s
Cl ionCh: [   2   -8]*10^-9 mol/m2s
Cl GJdiff:[   1   -1]*10^-9 mol/m2s

Totals by ion from all sources:
Na total: [  -6   93]*10^-9 mol/m2s
K  total: [   9 -102]*10^-9 mol/m2s
Cl total: [   3   -9]*10^-9 mol/m2s

Grand valence-weighted totals from all sources across all ions:
          [   0   -0]*10^-9 mol/m2s

now the GJs by GJ (if any have non-zero flux):
K  GJ diff: [   1]*10^-9 mol/m2s
K  GJ drif: [   2]*10^-9 mol/m2s
Cl GJ diff: [   1]*10^-9 mol/m2s
Goal deltaV=60.0mV -> final Vmem=[-34 31]mV, delta=65mV
Final pre-gate GJ diff=[[5.1e-12 1.8e-09 1.8e-09]], drift=[[7.1e-11 5.1e-09 -2.3e-10]], GJ_gate=[0.44], net=2.38e-09
Breaking 0.06500000000000014 into 0.028250000000000074 and -0.03675000000000007

t=0: dumping short-format...
cc_cells= (moles/m3)
   [ 7.2  8.7] Na
   [ 101  627] K
   [  28  555] Cl
   [  80   80] P
Vm =      [-34.5 30.8]mV

t=10: dumping long-format...
cc_cells= (moles/m3)
   [ 7.2  9.3] Na
   [ 101  626] K
   [  28  555] Cl
   [  80   80] P
Vm =      [-36.6 34.1]mV
Na ionCh: [  35  170]*10^-9 mol/m2s
Na pump:  [ -39  -72]*10^-9 mol/m2s
K  ionCh: [ -22 -148]*10^-9 mol/m2s
K  pump:  [  26   48]*10^-9 mol/m2s
K  GJdiff:[   1   -1]*10^-9 mol/m2s
K  GJdrif:[   2   -2]*10^-9 mol/m2s
Cl ionCh: [   2   -3]*10^-9 mol/m2s
Cl GJdiff:[   1   -1]*10^-9 mol/m2s

Totals by ion from all sources:
Na total: [  -4   98]*10^-9 mol/m2s
K  total: [   7 -103]*10^-9 mol/m2s
Cl total: [   2   -4]*10^-9 mol/m2s

Grand valence-weighted totals from all sources across all ions:
          [   0   -0]*10^-9 mol/m2s

now the GJs by GJ (if any have non-zero flux):
K  GJ diff: [   1]*10^-9 mol/m2s
K  GJ drif: [   2]*10^-9 mol/m2s
Cl GJ diff: [   1]*10^-9 mol/m2s
Goal deltaV=65.0mV -> final Vmem=[-37 34]mV, delta=71mV
Final pre-gate GJ diff=[[7.2e-12 1.8e-09 1.8e-09]], drift=[[8.2e-11 5.5e-09 -2.5e-10]], GJ_gate=[0.41], net=2.4e-09
Breaking 0.07000000000000015 into 0.030750000000000076 and -0.03925000000000007

t=0: dumping short-format...
cc_cells= (moles/m3)
   [ 7.2  9.3] Na
   [ 101  626] K
   [  28  555] Cl
   [  80   80] P
Vm =      [-36.6 34.1]mV

t=10: dumping long-format...
cc_cells= (moles/m3)
   [   7   10] Na
   [ 101  625] K
   [  28  555] Cl
   [  80   80] P
Vm =      [-38.6 36.7]mV
Na ionCh: [  36  182]*10^-9 mol/m2s
Na pump:  [ -39  -82]*10^-9 mol/m2s
K  ionCh: [ -24 -153]*10^-9 mol/m2s
K  pump:  [  26   55]*10^-9 mol/m2s
K  GJdiff:[   1   -1]*10^-9 mol/m2s
K  GJdrif:[   2   -2]*10^-9 mol/m2s
Cl ionCh: [   1   -0]*10^-9 mol/m2s
Cl GJdiff:[   1   -1]*10^-9 mol/m2s

Totals by ion from all sources:
Na total: [  -3  100]*10^-9 mol/m2s
K  total: [   5 -101]*10^-9 mol/m2s
Cl total: [   2   -1]*10^-9 mol/m2s

Grand valence-weighted totals from all sources across all ions:
          [   0   -1]*10^-9 mol/m2s

now the GJs by GJ (if any have non-zero flux):
K  GJ diff: [   1]*10^-9 mol/m2s
K  GJ drif: [   2]*10^-9 mol/m2s
Cl GJ diff: [   1]*10^-9 mol/m2s
Goal deltaV=70.0mV -> final Vmem=[-39 37]mV, delta=75mV
Final pre-gate GJ diff=[[9.4e-12 1.7e-09 1.8e-09]], drift=[[9.4e-11 5.9e-09 -2.6e-10]], GJ_gate=[0.38], net=2.37e-09
Breaking 0.07500000000000015 into 0.03325000000000008 and -0.04175000000000007

t=0: dumping short-format...
cc_cells= (moles/m3)
   [   7   10] Na
   [ 101  625] K
   [  28  555] Cl
   [  80   80] P
Vm =      [-38.6 36.7]mV

t=10: dumping long-format...
cc_cells= (moles/m3)
   [   7   11] Na
   [ 101  625] K
   [  28  555] Cl
   [  80   80] P
Vm =      [-41.7 38.3]mV
Na ionCh: [  38  181]*10^-9 mol/m2s
Na pump:  [ -39  -91]*10^-9 mol/m2s
K  ionCh: [ -27 -147]*10^-9 mol/m2s
K  pump:  [  26   61]*10^-9 mol/m2s
K  GJdiff:[   1   -1]*10^-9 mol/m2s
K  GJdrif:[   2   -2]*10^-9 mol/m2s
Cl ionCh: [   0    2]*10^-9 mol/m2s
Cl GJdiff:[   1   -1]*10^-9 mol/m2s

Totals by ion from all sources:
Na total: [  -1   90]*10^-9 mol/m2s
K  total: [   2  -89]*10^-9 mol/m2s
Cl total: [   1    1]*10^-9 mol/m2s

Grand valence-weighted totals from all sources across all ions:
          [   0   -0]*10^-9 mol/m2s

now the GJs by GJ (if any have non-zero flux):
K  GJ diff: [   1]*10^-9 mol/m2s
K  GJ drif: [   2]*10^-9 mol/m2s
Cl GJ diff: [   1]*10^-9 mol/m2s
Goal deltaV=75.0mV -> final Vmem=[-42 38]mV, delta=80mV
Final pre-gate GJ diff=[[1.1e-11 1.7e-09 1.8e-09]], drift=[[1.1e-10 6.2e-09 -2.8e-10]], GJ_gate=[0.34], net=2.27e-09
Breaking 0.08000000000000015 into 0.03575000000000008 and -0.044250000000000074

t=0: dumping short-format...
cc_cells= (moles/m3)
   [   7   11] Na
   [ 101  625] K
   [  28  555] Cl
   [  80   80] P
Vm =      [-41.7 38.3]mV

t=10: dumping long-format...
cc_cells= (moles/m3)
   [   7   11] Na
   [ 101  624] K
   [  28  555] Cl
   [  80   80] P
Vm =      [-44.3 39.8]mV
Na ionCh: [  39  167]*10^-9 mol/m2s
Na pump:  [ -39  -98]*10^-9 mol/m2s
K  ionCh: [ -29 -130]*10^-9 mol/m2s
K  pump:  [  26   65]*10^-9 mol/m2s
K  GJdiff:[   1   -1]*10^-9 mol/m2s
K  GJdrif:[   2   -2]*10^-9 mol/m2s
Cl ionCh: [  -0    3]*10^-9 mol/m2s
Cl GJdiff:[   1   -1]*10^-9 mol/m2s

Totals by ion from all sources:
Na total: [   0   69]*10^-9 mol/m2s
K  total: [  -0  -67]*10^-9 mol/m2s
Cl total: [   0    3]*10^-9 mol/m2s

Grand valence-weighted totals from all sources across all ions:
          [  -0   -1]*10^-9 mol/m2s

now the GJs by GJ (if any have non-zero flux):
K  GJ diff: [   1]*10^-9 mol/m2s
K  GJ drif: [   2]*10^-9 mol/m2s
Cl GJ diff: [   1]*10^-9 mol/m2s
Goal deltaV=80.0mV -> final Vmem=[-44 40]mV, delta=84mV
Final pre-gate GJ diff=[[1.3e-11 1.7e-09 1.8e-09]], drift=[[1.2e-10 6.6e-09 -3e-10]], GJ_gate=[0.31], net=2.17e-09
Breaking 0.08500000000000016 into 0.03825000000000008 and -0.046750000000000076

t=0: dumping short-format...
cc_cells= (moles/m3)
   [   7   11] Na
   [ 101  624] K
   [  28  555] Cl
   [  80   80] P
Vm =      [-44.3 39.8]mV

t=10: dumping long-format...
cc_cells= (moles/m3)
   [   7   11] Na
   [ 101  624] K
   [  28  555] Cl
   [  80   80] P
Vm =      [-46.5 41.4]mV
Na ionCh: [  40  153]*10^-9 mol/m2s
Na pump:  [ -39 -102]*10^-9 mol/m2s
K  ionCh: [ -30 -112]*10^-9 mol/m2s
K  pump:  [  26   68]*10^-9 mol/m2s
K  GJdrif:[   2   -2]*10^-9 mol/m2s
Cl ionCh: [  -1    4]*10^-9 mol/m2s

Totals by ion from all sources:
Na total: [   1   51]*10^-9 mol/m2s
K  total: [  -2  -47]*10^-9 mol/m2s
Cl total: [  -1    4]*10^-9 mol/m2s

Grand valence-weighted totals from all sources across all ions:
          [   0    0]*10^-9 mol/m2s

now the GJs by GJ (if any have non-zero flux):
K  GJ drif: [   2]*10^-9 mol/m2s
Goal deltaV=85.0mV -> final Vmem=[-47 41]mV, delta=88mV
Final pre-gate GJ diff=[[1.4e-11 1.7e-09 1.8e-09]], drift=[[1.2e-10 6.8e-09 -3.1e-10]], GJ_gate=[0.28], net=2.07e-09
Breaking 0.09000000000000016 into 0.040750000000000085 and -0.04925000000000008

t=0: dumping short-format...
cc_cells= (moles/m3)
   [   7   11] Na
   [ 101  624] K
   [  28  555] Cl
   [  80   80] P
Vm =      [-46.5 41.4]mV

t=10: dumping long-format...
cc_cells= (moles/m3)
   [   7   12] Na
   [ 101  624] K
   [  28  555] Cl
   [  80   80] P
Vm =      [-48.5 43.7]mV
Na ionCh: [  42  136]*10^-9 mol/m2s
Na pump:  [ -39 -105]*10^-9 mol/m2s
K  ionCh: [ -32  -95]*10^-9 mol/m2s
K  pump:  [  26   70]*10^-9 mol/m2s
K  GJdrif:[   2   -2]*10^-9 mol/m2s
Cl ionCh: [  -2    5]*10^-9 mol/m2s

Totals by ion from all sources:
Na total: [   2   31]*10^-9 mol/m2s
K  total: [  -3  -27]*10^-9 mol/m2s
Cl total: [  -1    4]*10^-9 mol/m2s

Grand valence-weighted totals from all sources across all ions:
          [  -0   -1]*10^-9 mol/m2s

now the GJs by GJ (if any have non-zero flux):
K  GJ drif: [   2]*10^-9 mol/m2s
Goal deltaV=90.0mV -> final Vmem=[-48 44]mV, delta=92mV
Final pre-gate GJ diff=[[1.4e-11 1.7e-09 1.8e-09]], drift=[[1.3e-10 7.2e-09 -3.2e-10]], GJ_gate=[0.26], net=1.98e-09
Breaking 0.09500000000000017 into 0.04325000000000009 and -0.05175000000000008

t=0: dumping short-format...
cc_cells= (moles/m3)
   [   7   12] Na
   [ 101  624] K
   [  28  555] Cl
   [  80   80] P
Vm =      [-48.5 43.7]mV

t=10: dumping long-format...
cc_cells= (moles/m3)
   [   7   12] Na
   [ 101  624] K
   [  28  556] Cl
   [  80   80] P
Vm =      [-51.7 44.7]mV
Na ionCh: [  43  128]*10^-9 mol/m2s
Na pump:  [ -40 -107]*10^-9 mol/m2s
K  ionCh: [ -34  -86]*10^-9 mol/m2s
K  pump:  [  26   71]*10^-9 mol/m2s
K  GJdrif:[   2   -2]*10^-9 mol/m2s
Cl ionCh: [  -2    5]*10^-9 mol/m2s

Totals by ion from all sources:
Na total: [   4   21]*10^-9 mol/m2s
K  total: [  -6  -16]*10^-9 mol/m2s
Cl total: [  -2    5]*10^-9 mol/m2s

Grand valence-weighted totals from all sources across all ions:
          [  -0    0]*10^-9 mol/m2s

now the GJs by GJ (if any have non-zero flux):
K  GJ drif: [   2]*10^-9 mol/m2s
Goal deltaV=95.0mV -> final Vmem=[-52 45]mV, delta=96mV
Final pre-gate GJ diff=[[1.5e-11 1.7e-09 1.8e-09]], drift=[[1.4e-10 7.5e-09 -3.4e-10]], GJ_gate=[0.24], net=1.93e-09
Breaking 0.10000000000000017 into 0.04575000000000009 and -0.05425000000000008

t=0: dumping short-format...
cc_cells= (moles/m3)
   [   7   12] Na
   [ 101  624] K
   [  28  556] Cl
   [  80   80] P
Vm =      [-51.7 44.7]mV

t=10: dumping long-format...
cc_cells= (moles/m3)
   [   7   12] Na
   [ 101  624] K
   [  28  556] Cl
   [  80   80] P
Vm =      [-54.8 44.6]mV
Na ionCh: [  45  128]*10^-9 mol/m2s
Na pump:  [ -40 -109]*10^-9 mol/m2s
K  ionCh: [ -37  -85]*10^-9 mol/m2s
K  pump:  [  27   73]*10^-9 mol/m2s
K  GJdrif:[   2   -2]*10^-9 mol/m2s
Cl ionCh: [  -3    5]*10^-9 mol/m2s

Totals by ion from all sources:
Na total: [   5   19]*10^-9 mol/m2s
K  total: [  -8  -15]*10^-9 mol/m2s
Cl total: [  -3    5]*10^-9 mol/m2s

Grand valence-weighted totals from all sources across all ions:
          [  -0   -1]*10^-9 mol/m2s

now the GJs by GJ (if any have non-zero flux):
K  GJ drif: [   2]*10^-9 mol/m2s
Goal deltaV=100.0mV -> final Vmem=[-55 45]mV, delta=99mV
Final pre-gate GJ diff=[[1.5e-11 1.7e-09 1.8e-09]], drift=[[1.5e-10 7.7e-09 -3.5e-10]], GJ_gate=[0.23], net=1.9e-09
